<?xml version='1.0' encoding='UTF-8' standalone='no'?>
<!-- Created with Fritzing (http://www.fritzing.org/) -->
<svg xmlns:svg='http://www.w3.org/2000/svg' xmlns='http://www.w3.org/2000/svg' version='1.2' baseProfile='tiny' x='0in' y='0in' width='1.19685in' height='1.1099in' viewBox='0 0 86.1732 79.9128' >
<g partID='20190'><g transform='translate(0,0.826185)' ><g xmlns="http://www.w3.org/2000/svg" id="board">
 <rect xmlns="http://www.w3.org/2000/svg" stroke="#111111" fill-opacity="0.5" fill="#ffffff" width="85.5972" height="78.5106" stroke-width="0.576" id="boardoutline" x="0.288" y="0.288"/>
</g>
</g></g><g partID='20191'><g transform='translate(0,0.826185)' ><g xmlns="http://www.w3.org/2000/svg" id="silkscreen0">
 <rect xmlns="http://www.w3.org/2000/svg" stroke="#000000" fill="none" width="85.5972" height="78.5106" stroke-width="0.576" x="0.288" y="0.288"/>
</g>
</g></g><g partID='856100260'><g transform='translate(24.3504,50.3854)' ><g xmlns="http://www.w3.org/2000/svg" id="copper0">
 <g xmlns="http://www.w3.org/2000/svg" id="copper1">
  <!-- <rect width="55" x="35" y="35" fill="none" height="55" stroke="rgb(255, 191, 0)" stroke-width="20" /> -->
  <circle xmlns="http://www.w3.org/2000/svg" stroke="rgb(255, 191, 0)" r="1.98" fill="none" cx="4.5" stroke-width="1.44" cy="4.5" id="connector0pin"/>
  <circle xmlns="http://www.w3.org/2000/svg" stroke="rgb(255, 191, 0)" r="1.98" fill="none" cx="11.7" stroke-width="1.44" cy="4.5" id="connector1pin"/>
 </g>
</g>
</g></g><g partID='856099080'><g transform='translate(23.0904,52.7254)' ><g transform='matrix(-1,0,0,-1,0,0)'  ><g xmlns="http://www.w3.org/2000/svg" id="copper0">
 <circle xmlns="http://www.w3.org/2000/svg" stroke="rgb(255, 191, 0)" r="2.088" cx="5.04" fill="none" stroke-width="1.44" cy="5.04" id="connector0pin"/>
 <circle xmlns="http://www.w3.org/2000/svg" stroke="rgb(255, 191, 0)" r="2.088" cx="5.04" fill="none" stroke-width="1.44" cy="12.24" id="connector1pin"/>
</g>
</g></g></g><g partID='856079050'><g transform='translate(65.1388,22.197)' ><g transform='matrix(0,1,-1,0,0,0)'  ><g xmlns="http://www.w3.org/2000/svg" id="copper0">
 <circle xmlns="http://www.w3.org/2000/svg" connectorname="1" stroke="#F7BD13" r="2.052" cx="3.888" fill="none" stroke-width="1.224" cy="11.088" id="connector0pad"/>
 <circle xmlns="http://www.w3.org/2000/svg" connectorname="2" stroke="#F7BD13" r="2.052" cx="3.888" fill="none" stroke-width="1.224" cy="3.888" id="connector1pad"/>
 <circle xmlns="http://www.w3.org/2000/svg" connectorname="3" stroke="#F7BD13" r="2.052" cx="11.088" fill="none" stroke-width="1.224" cy="11.808" id="connector2pad"/>
 <circle xmlns="http://www.w3.org/2000/svg" connectorname="4" stroke="#F7BD13" r="2.052" cx="11.088" fill="none" stroke-width="1.224" cy="4.608" id="connector3pad"/>
 <circle xmlns="http://www.w3.org/2000/svg" connectorname="5" stroke="#F7BD13" r="2.052" cx="18.288" fill="none" stroke-width="1.224" cy="11.088" id="connector4pad"/>
 <circle xmlns="http://www.w3.org/2000/svg" connectorname="6" stroke="#F7BD13" r="2.052" cx="18.288" fill="none" stroke-width="1.224" cy="3.888" id="connector5pad"/>
</g>
</g></g></g><g partID='856084660'><g transform='translate(20.2104,16.7254)' ><g transform='matrix(0,-1,1,0,0,0)'  ><g xmlns="http://www.w3.org/2000/svg" id="copper0">
 <circle xmlns="http://www.w3.org/2000/svg" stroke="rgb(255, 191, 0)" r="2.088" cx="5.04" fill="none" stroke-width="1.44" cy="5.04" id="connector0pin"/>
 <circle xmlns="http://www.w3.org/2000/svg" stroke="rgb(255, 191, 0)" r="2.088" cx="5.04" fill="none" stroke-width="1.44" cy="12.24" id="connector1pin"/>
 <circle xmlns="http://www.w3.org/2000/svg" stroke="rgb(255, 191, 0)" r="2.088" cx="5.04" fill="none" stroke-width="1.44" cy="19.44" id="connector2pin"/>
</g>
</g></g></g><g partID='856076220'><g transform='translate(49.0104,16.7254)' ><g transform='matrix(0,-1,1,0,0,0)'  ><g xmlns="http://www.w3.org/2000/svg" id="copper0">
 <circle xmlns="http://www.w3.org/2000/svg" stroke="rgb(255, 191, 0)" r="2.088" cx="5.04" fill="none" stroke-width="1.44" cy="5.04" id="connector0pin"/>
 <circle xmlns="http://www.w3.org/2000/svg" stroke="rgb(255, 191, 0)" r="2.088" cx="5.04" fill="none" stroke-width="1.44" cy="12.24" id="connector1pin"/>
</g>
</g></g></g><g partID='856049780'><g transform='translate(69.7984,5.83339)' ><g xmlns="http://www.w3.org/2000/svg" id="copper0">
 <circle xmlns="http://www.w3.org/2000/svg" stroke="#f9a435" r="4.25197" fill="black" cx="5.85197" stroke-width="0" cy="5.85197" id="nonconn0"/>
</g>
</g></g><g partID='856049880'><g transform='translate(69.7984,63.4334)' ><g xmlns="http://www.w3.org/2000/svg" id="copper0">
 <circle xmlns="http://www.w3.org/2000/svg" stroke="#f9a435" r="4.25197" fill="black" cx="5.85197" stroke-width="0" cy="5.85197" id="nonconn0"/>
</g>
</g></g><g partID='856049860'><g transform='translate(4.9984,63.4334)' ><g xmlns="http://www.w3.org/2000/svg" id="copper0">
 <circle xmlns="http://www.w3.org/2000/svg" stroke="#f9a435" r="4.25197" fill="black" cx="5.85197" stroke-width="0" cy="5.85197" id="nonconn0"/>
</g>
</g></g><g partID='856049830'><g transform='translate(4.9984,5.83339)' ><g xmlns="http://www.w3.org/2000/svg" id="copper0">
 <circle xmlns="http://www.w3.org/2000/svg" stroke="#f9a435" r="4.25197" fill="black" cx="5.85197" stroke-width="0" cy="5.85197" id="nonconn0"/>
</g>
</g></g><g partID='855998630'><g transform='translate(20.9304,21.7654)' ><g  id="copper0">
 <rect  stroke="#ffbf00" width="3.96" height="3.96" fill="none" stroke-width="1.44" id="square" x="2.34" y="2.34"/>
 <g transform="matrix(1, 0, 0, 1, 0, -28.8)">
  <circle  d="m 87.5,460 c 0,15.18783 -12.312169,27.5 -27.5,27.5 -15.187831,0 -27.5,-12.31217 -27.5,-27.5 0,-15.18783 12.312169,-27.5 27.5,-27.5 15.187831,0 27.5,12.31217 27.5,27.5 z" stroke="#ffbf00" r="1.98" cx="4.32" fill="none" stroke-width="1.44" cy="33.12" id="connector1pin"/>
 </g>
 <g transform="matrix(1, 0, 0, 1, 0, -28.8)">
  <circle  d="m 87.5,560 c 0,15.18783 -12.312169,27.5 -27.5,27.5 -15.187831,0 -27.5,-12.31217 -27.5,-27.5 0,-15.18783 12.312169,-27.5 27.5,-27.5 15.187831,0 27.5,12.31217 27.5,27.5 z" stroke="#ffbf00" r="1.98" cx="4.32" fill="none" stroke-width="1.44" cy="40.32" id="connector2pin"/>
 </g>
 <g transform="matrix(1, 0, 0, 1, 0, -28.8)">
  <circle  d="m 87.5,660 c 0,15.18783 -12.312169,27.5 -27.5,27.5 -15.187831,0 -27.5,-12.31217 -27.5,-27.5 0,-15.18783 12.312169,-27.5 27.5,-27.5 15.187831,0 27.5,12.31217 27.5,27.5 z" stroke="#ffbf00" r="1.98" cx="4.32" fill="none" stroke-width="1.44" cy="47.52" id="connector3pin"/>
 </g>
 <g transform="matrix(1, 0, 0, 1, 0, -28.8)">
  <circle  d="m 87.5,760 c 0,15.18783 -12.312169,27.5 -27.5,27.5 -15.187831,0 -27.5,-12.31217 -27.5,-27.5 0,-15.18783 12.312169,-27.5 27.5,-27.5 15.187831,0 27.5,12.31217 27.5,27.5 z" stroke="#ffbf00" r="1.98" cx="4.32" fill="none" stroke-width="1.44" cy="54.72" id="connector4pin"/>
 </g>
 <g transform="matrix(1, 0, 0, 1, 0, -28.8)">
  <circle  d="m 387.5,760 c 0,15.18783 -12.31217,27.5 -27.5,27.5 -15.18783,0 -27.5,-12.31217 -27.5,-27.5 0,-15.18783 12.31217,-27.5 27.5,-27.5 15.18783,0 27.5,12.31217 27.5,27.5 z" stroke="#ffbf00" r="1.98" cx="25.92" fill="none" stroke-width="1.44" cy="54.72" id="connector5pin"/>
 </g>
 <g transform="matrix(1, 0, 0, 1, 0, -28.8)">
  <circle  d="m 387.5,660 c 0,15.18783 -12.31217,27.5 -27.5,27.5 -15.18783,0 -27.5,-12.31217 -27.5,-27.5 0,-15.18783 12.31217,-27.5 27.5,-27.5 15.18783,0 27.5,12.31217 27.5,27.5 z" stroke="#ffbf00" r="1.98" cx="25.92" fill="none" stroke-width="1.44" cy="47.52" id="connector6pin"/>
 </g>
 <g transform="matrix(1, 0, 0, 1, 0, -28.8)">
  <circle  d="m 387.5,560 c 0,15.18783 -12.31217,27.5 -27.5,27.5 -15.18783,0 -27.5,-12.31217 -27.5,-27.5 0,-15.18783 12.31217,-27.5 27.5,-27.5 15.18783,0 27.5,12.31217 27.5,27.5 z" stroke="#ffbf00" r="1.98" cx="25.92" fill="none" stroke-width="1.44" cy="40.32" id="connector7pin"/>
 </g>
 <g transform="matrix(1, 0, 0, 1, 0, -28.8)">
  <circle  d="m 387.5,460 c 0,15.18783 -12.31217,27.5 -27.5,27.5 -15.18783,0 -27.5,-12.31217 -27.5,-27.5 0,-15.18783 12.31217,-27.5 27.5,-27.5 15.18783,0 27.5,12.31217 27.5,27.5 z" stroke="#ffbf00" r="1.98" cx="25.92" fill="none" stroke-width="1.44" cy="33.12" id="connector8pin"/>
 </g>
</g>
</g></g><g partID='856082900'><g transform='translate(44.6904,57.0454)' ><g transform='matrix(0,1,-1,0,0,0)'  ><g xmlns="http://www.w3.org/2000/svg" id="copper0">
 <circle xmlns="http://www.w3.org/2000/svg" stroke="rgb(255, 191, 0)" r="2.088" cx="5.04" fill="none" stroke-width="1.44" cy="5.04" id="connector0pin"/>
 <circle xmlns="http://www.w3.org/2000/svg" stroke="rgb(255, 191, 0)" r="2.088" cx="5.04" fill="none" stroke-width="1.44" cy="12.24" id="connector1pin"/>
 <circle xmlns="http://www.w3.org/2000/svg" stroke="rgb(255, 191, 0)" r="2.088" cx="5.04" fill="none" stroke-width="1.44" cy="19.44" id="connector2pin"/>
</g>
</g></g></g><g partID='856102580'><line stroke-linecap='round' stroke='#f28a00' x1='23.1904' y1='40.4854' x2='20.2184' y2='40.4854' stroke-width='1.728' /></g><g partID='856103080'><line stroke-linecap='round' stroke='#f28a00' x1='32.464' y1='47.639' x2='32.464' y2='40.471' stroke-width='1.728' /></g><g partID='856103050'><line stroke-linecap='round' stroke='#f28a00' x1='32.464' y1='40.471' x2='26.7096' y2='34.7394' stroke-width='1.728' /></g><g partID='856103030'><line stroke-linecap='round' stroke='#f28a00' x1='29.7697' y1='53.0419' x2='32.4643' y2='47.6387' stroke-width='1.728' /></g><g partID='856100680'><line stroke-linecap='round' stroke='#f28a00' x1='35.1291' y1='56.7279' x2='33.42' y2='60.1463' stroke-width='1.728' /></g><g partID='856100010'><line stroke-linecap='round' stroke='#f28a00' x1='22.3904' y1='47.6854' x2='21.0184' y2='47.6854' stroke-width='3.456' /></g><g partID='856098940'><line stroke-linecap='round' stroke='#f28a00' x1='68.404' y1='47.639' x2='68.404' y2='40.471' stroke-width='1.728' /></g><g partID='856086930'><line stroke-linecap='round' stroke='#f28a00' x1='68.404' y1='40.471' x2='62.1853' y2='34.795' stroke-width='1.728' /></g><g partID='856086870'><line stroke-linecap='round' stroke='#f28a00' x1='48.9104' y1='47.6809' x2='68.4038' y2='47.6387' stroke-width='1.728' /></g><g partID='856091540'><line stroke-linecap='round' stroke='#f28a00' x1='39.6136' y1='18.8494' x2='39.6321' y2='33.3028' stroke-width='1.728' /></g><g partID='856091510'><line stroke-linecap='round' stroke='#f28a00' x1='39.632' y1='33.303' x2='45.3899' y2='39.0325' stroke-width='1.728' /></g><g partID='856087090'><line stroke-linecap='round' stroke='#f28a00' x1='54.036' y1='18.8494' x2='39.6138' y2='18.8494' stroke-width='1.728' /></g><g partID='856087070'><line stroke-linecap='round' stroke='#f28a00' x1='54.0459' y1='23.8454' x2='54.036' y2='18.8494' stroke-width='1.728' /></g><g partID='856087170'><line stroke-linecap='round' stroke='#f28a00' x1='51.0904' y1='33.2854' x2='48.9104' y2='33.2854' stroke-width='1.728' /></g><g partID='856092350'><line stroke-linecap='round' stroke='#f28a00' x1='32.464' y1='33.303' x2='32.4515' y2='13.8535' stroke-width='1.728' /></g><g partID='856102550'><line stroke-linecap='round' stroke='#f28a00' x1='39.632' y1='40.471' x2='32.464' y2='33.303' stroke-width='1.728' /></g><g partID='856092300'><line stroke-linecap='round' stroke='#f28a00' x1='39.6144' y1='47.6934' x2='39.6323' y2='40.4708' stroke-width='1.728' /></g><g partID='856092260'><line stroke-linecap='round' stroke='#f28a00' x1='44.7904' y1='47.6877' x2='39.6144' y2='47.6934' stroke-width='1.728' /></g><g partID='856092520'><line stroke-linecap='round' stroke='#f28a00' x1='17.981' y1='11.6382' x2='22.2825' y2='11.6663' stroke-width='3.456' /></g><g partID='856099880'><line stroke-linecap='round' stroke='#f28a00' x1='10.8609' y1='33.303' x2='18.0019' y2='25.9568' stroke-width='3.456' /></g><g partID='856099810'><line stroke-linecap='round' stroke='#f28a00' x1='18.0018' y1='25.9566' x2='17.981' y2='11.6382' stroke-width='3.456' /></g><g partID='856102340'><line stroke-linecap='round' stroke='#f28a00' x1='10.8609' y1='47.639' x2='10.8609' y2='33.3031' stroke-width='3.456' /></g><g partID='856099260'><line stroke-linecap='round' stroke='#f28a00' x1='15.0825' y1='47.6661' x2='10.8608' y2='47.6387' stroke-width='3.456' /></g><g partID='856093310'><line stroke-linecap='round' stroke='#f28a00' x1='18.0409' y1='50.6534' x2='17.981' y2='69.327' stroke-width='3.456' /></g><g partID='856093160'><line stroke-linecap='round' stroke='#f28a00' x1='17.981' y1='69.327' x2='39.6144' y2='69.327' stroke-width='3.456' /></g><g partID='856093010'><line stroke-linecap='round' stroke='#f28a00' x1='39.6144' y1='69.327' x2='39.6358' y2='65.0536' stroke-width='3.456' /></g><g partID='856095980'><line stroke-linecap='round' stroke='#f28a00' x1='25.2577' y1='4.49267' x2='46.8998' y2='4.53134' stroke-width='3.456' /></g><g partID='856095870'><line stroke-linecap='round' stroke='#f28a00' x1='46.8998' y1='4.53134' x2='51.9522' y2='9.58618' stroke-width='3.456' /></g><g partID='856095770'><line stroke-linecap='round' stroke='#f28a00' x1='25.2534' y1='8.71739' x2='25.2577' y2='4.49267' stroke-width='3.456' /></g><g partID='856100261'><g transform='translate(24.3504,50.3854)' ><g xmlns="http://www.w3.org/2000/svg" id="copper1">
 <!-- <rect width="55" x="35" y="35" fill="none" height="55" stroke="rgb(255, 191, 0)" stroke-width="20" /> -->
 <circle xmlns="http://www.w3.org/2000/svg" stroke="rgb(255, 191, 0)" r="1.98" fill="none" cx="4.5" stroke-width="1.44" cy="4.5" id="connector0pin"/>
 <circle xmlns="http://www.w3.org/2000/svg" stroke="rgb(255, 191, 0)" r="1.98" fill="none" cx="11.7" stroke-width="1.44" cy="4.5" id="connector1pin"/>
</g>
</g></g><g partID='856099081'><g transform='translate(23.0904,52.7254)' ><g transform='matrix(-1,0,0,-1,0,0)'  ><g xmlns="http://www.w3.org/2000/svg" id="copper1">
 <g xmlns="http://www.w3.org/2000/svg" id="copper0">
  <circle xmlns="http://www.w3.org/2000/svg" stroke="rgb(255, 191, 0)" r="2.088" cx="5.04" fill="none" stroke-width="1.44" cy="5.04" id="connector0pin"/>
  <circle xmlns="http://www.w3.org/2000/svg" stroke="rgb(255, 191, 0)" r="2.088" cx="5.04" fill="none" stroke-width="1.44" cy="12.24" id="connector1pin"/>
 </g>
</g>
</g></g></g><g partID='856079051'><g transform='translate(65.1388,22.197)' ><g transform='matrix(0,1,-1,0,0,0)'  ><g xmlns="http://www.w3.org/2000/svg" id="copper1">
 <circle xmlns="http://www.w3.org/2000/svg" connectorname="1" stroke="#F7BD13" r="2.052" cx="3.888" fill="none" stroke-width="1.224" cy="11.088" id="connector0pad"/>
 <circle xmlns="http://www.w3.org/2000/svg" connectorname="2" stroke="#F7BD13" r="2.052" cx="3.888" fill="none" stroke-width="1.224" cy="3.888" id="connector1pad"/>
 <circle xmlns="http://www.w3.org/2000/svg" connectorname="3" stroke="#F7BD13" r="2.052" cx="11.088" fill="none" stroke-width="1.224" cy="11.808" id="connector2pad"/>
 <circle xmlns="http://www.w3.org/2000/svg" connectorname="4" stroke="#F7BD13" r="2.052" cx="11.088" fill="none" stroke-width="1.224" cy="4.608" id="connector3pad"/>
 <circle xmlns="http://www.w3.org/2000/svg" connectorname="5" stroke="#F7BD13" r="2.052" cx="18.288" fill="none" stroke-width="1.224" cy="11.088" id="connector4pad"/>
 <circle xmlns="http://www.w3.org/2000/svg" connectorname="6" stroke="#F7BD13" r="2.052" cx="18.288" fill="none" stroke-width="1.224" cy="3.888" id="connector5pad"/>
 <g xmlns="http://www.w3.org/2000/svg" id="copper0">
  <circle xmlns="http://www.w3.org/2000/svg" connectorname="1" stroke="#F7BD13" r="2.052" cx="3.888" fill="none" stroke-width="1.224" cy="11.088" id="connector0pad"/>
  <circle xmlns="http://www.w3.org/2000/svg" connectorname="2" stroke="#F7BD13" r="2.052" cx="3.888" fill="none" stroke-width="1.224" cy="3.888" id="connector1pad"/>
  <circle xmlns="http://www.w3.org/2000/svg" connectorname="3" stroke="#F7BD13" r="2.052" cx="11.088" fill="none" stroke-width="1.224" cy="11.808" id="connector2pad"/>
  <circle xmlns="http://www.w3.org/2000/svg" connectorname="4" stroke="#F7BD13" r="2.052" cx="11.088" fill="none" stroke-width="1.224" cy="4.608" id="connector3pad"/>
  <circle xmlns="http://www.w3.org/2000/svg" connectorname="5" stroke="#F7BD13" r="2.052" cx="18.288" fill="none" stroke-width="1.224" cy="11.088" id="connector4pad"/>
  <circle xmlns="http://www.w3.org/2000/svg" connectorname="6" stroke="#F7BD13" r="2.052" cx="18.288" fill="none" stroke-width="1.224" cy="3.888" id="connector5pad"/>
 </g>
</g>
</g></g></g><g partID='856084661'><g transform='translate(20.2104,16.7254)' ><g transform='matrix(0,-1,1,0,0,0)'  ><g xmlns="http://www.w3.org/2000/svg" id="copper1">
 <g xmlns="http://www.w3.org/2000/svg" id="copper0">
  <circle xmlns="http://www.w3.org/2000/svg" stroke="rgb(255, 191, 0)" r="2.088" cx="5.04" fill="none" stroke-width="1.44" cy="5.04" id="connector0pin"/>
  <circle xmlns="http://www.w3.org/2000/svg" stroke="rgb(255, 191, 0)" r="2.088" cx="5.04" fill="none" stroke-width="1.44" cy="12.24" id="connector1pin"/>
  <circle xmlns="http://www.w3.org/2000/svg" stroke="rgb(255, 191, 0)" r="2.088" cx="5.04" fill="none" stroke-width="1.44" cy="19.44" id="connector2pin"/>
 </g>
</g>
</g></g></g><g partID='856076221'><g transform='translate(49.0104,16.7254)' ><g transform='matrix(0,-1,1,0,0,0)'  ><g xmlns="http://www.w3.org/2000/svg" id="copper1">
 <g xmlns="http://www.w3.org/2000/svg" id="copper0">
  <circle xmlns="http://www.w3.org/2000/svg" stroke="rgb(255, 191, 0)" r="2.088" cx="5.04" fill="none" stroke-width="1.44" cy="5.04" id="connector0pin"/>
  <circle xmlns="http://www.w3.org/2000/svg" stroke="rgb(255, 191, 0)" r="2.088" cx="5.04" fill="none" stroke-width="1.44" cy="12.24" id="connector1pin"/>
 </g>
</g>
</g></g></g><g partID='856049781'><g transform='translate(69.7984,5.83339)' ><g xmlns="http://www.w3.org/2000/svg" id="copper1">
 <circle xmlns="http://www.w3.org/2000/svg" stroke="#fdde68" r="4.25197" fill="black" cx="5.85197" stroke-width="0" cy="5.85197" id="nonconn0"/>
</g>
</g></g><g partID='856049881'><g transform='translate(69.7984,63.4334)' ><g xmlns="http://www.w3.org/2000/svg" id="copper1">
 <circle xmlns="http://www.w3.org/2000/svg" stroke="#fdde68" r="4.25197" fill="black" cx="5.85197" stroke-width="0" cy="5.85197" id="nonconn0"/>
</g>
</g></g><g partID='856049861'><g transform='translate(4.9984,63.4334)' ><g xmlns="http://www.w3.org/2000/svg" id="copper1">
 <circle xmlns="http://www.w3.org/2000/svg" stroke="#fdde68" r="4.25197" fill="black" cx="5.85197" stroke-width="0" cy="5.85197" id="nonconn0"/>
</g>
</g></g><g partID='856049831'><g transform='translate(4.9984,5.83339)' ><g xmlns="http://www.w3.org/2000/svg" id="copper1">
 <circle xmlns="http://www.w3.org/2000/svg" stroke="#fdde68" r="4.25197" fill="black" cx="5.85197" stroke-width="0" cy="5.85197" id="nonconn0"/>
</g>
</g></g><g partID='855998631'><g transform='translate(20.9304,21.7654)' ><g  id="copper1">
 <g  id="copper0">
  <rect  stroke="#ffbf00" width="3.96" height="3.96" fill="none" stroke-width="1.44" id="square" x="2.34" y="2.34"/>
  <g transform="matrix(1, 0, 0, 1, 0, -28.8)">
   <circle  d="m 87.5,460 c 0,15.18783 -12.312169,27.5 -27.5,27.5 -15.187831,0 -27.5,-12.31217 -27.5,-27.5 0,-15.18783 12.312169,-27.5 27.5,-27.5 15.187831,0 27.5,12.31217 27.5,27.5 z" stroke="#ffbf00" r="1.98" cx="4.32" fill="none" stroke-width="1.44" cy="33.12" id="connector1pin"/>
  </g>
  <g transform="matrix(1, 0, 0, 1, 0, -28.8)">
   <circle  d="m 87.5,560 c 0,15.18783 -12.312169,27.5 -27.5,27.5 -15.187831,0 -27.5,-12.31217 -27.5,-27.5 0,-15.18783 12.312169,-27.5 27.5,-27.5 15.187831,0 27.5,12.31217 27.5,27.5 z" stroke="#ffbf00" r="1.98" cx="4.32" fill="none" stroke-width="1.44" cy="40.32" id="connector2pin"/>
  </g>
  <g transform="matrix(1, 0, 0, 1, 0, -28.8)">
   <circle  d="m 87.5,660 c 0,15.18783 -12.312169,27.5 -27.5,27.5 -15.187831,0 -27.5,-12.31217 -27.5,-27.5 0,-15.18783 12.312169,-27.5 27.5,-27.5 15.187831,0 27.5,12.31217 27.5,27.5 z" stroke="#ffbf00" r="1.98" cx="4.32" fill="none" stroke-width="1.44" cy="47.52" id="connector3pin"/>
  </g>
  <g transform="matrix(1, 0, 0, 1, 0, -28.8)">
   <circle  d="m 87.5,760 c 0,15.18783 -12.312169,27.5 -27.5,27.5 -15.187831,0 -27.5,-12.31217 -27.5,-27.5 0,-15.18783 12.312169,-27.5 27.5,-27.5 15.187831,0 27.5,12.31217 27.5,27.5 z" stroke="#ffbf00" r="1.98" cx="4.32" fill="none" stroke-width="1.44" cy="54.72" id="connector4pin"/>
  </g>
  <g transform="matrix(1, 0, 0, 1, 0, -28.8)">
   <circle  d="m 387.5,760 c 0,15.18783 -12.31217,27.5 -27.5,27.5 -15.18783,0 -27.5,-12.31217 -27.5,-27.5 0,-15.18783 12.31217,-27.5 27.5,-27.5 15.18783,0 27.5,12.31217 27.5,27.5 z" stroke="#ffbf00" r="1.98" cx="25.92" fill="none" stroke-width="1.44" cy="54.72" id="connector5pin"/>
  </g>
  <g transform="matrix(1, 0, 0, 1, 0, -28.8)">
   <circle  d="m 387.5,660 c 0,15.18783 -12.31217,27.5 -27.5,27.5 -15.18783,0 -27.5,-12.31217 -27.5,-27.5 0,-15.18783 12.31217,-27.5 27.5,-27.5 15.18783,0 27.5,12.31217 27.5,27.5 z" stroke="#ffbf00" r="1.98" cx="25.92" fill="none" stroke-width="1.44" cy="47.52" id="connector6pin"/>
  </g>
  <g transform="matrix(1, 0, 0, 1, 0, -28.8)">
   <circle  d="m 387.5,560 c 0,15.18783 -12.31217,27.5 -27.5,27.5 -15.18783,0 -27.5,-12.31217 -27.5,-27.5 0,-15.18783 12.31217,-27.5 27.5,-27.5 15.18783,0 27.5,12.31217 27.5,27.5 z" stroke="#ffbf00" r="1.98" cx="25.92" fill="none" stroke-width="1.44" cy="40.32" id="connector7pin"/>
  </g>
  <g transform="matrix(1, 0, 0, 1, 0, -28.8)">
   <circle  d="m 387.5,460 c 0,15.18783 -12.31217,27.5 -27.5,27.5 -15.18783,0 -27.5,-12.31217 -27.5,-27.5 0,-15.18783 12.31217,-27.5 27.5,-27.5 15.18783,0 27.5,12.31217 27.5,27.5 z" stroke="#ffbf00" r="1.98" cx="25.92" fill="none" stroke-width="1.44" cy="33.12" id="connector8pin"/>
  </g>
 </g>
</g>
</g></g><g partID='856082901'><g transform='translate(44.6904,57.0454)' ><g transform='matrix(0,1,-1,0,0,0)'  ><g xmlns="http://www.w3.org/2000/svg" id="copper1">
 <g xmlns="http://www.w3.org/2000/svg" id="copper0">
  <circle xmlns="http://www.w3.org/2000/svg" stroke="rgb(255, 191, 0)" r="2.088" cx="5.04" fill="none" stroke-width="1.44" cy="5.04" id="connector0pin"/>
  <circle xmlns="http://www.w3.org/2000/svg" stroke="rgb(255, 191, 0)" r="2.088" cx="5.04" fill="none" stroke-width="1.44" cy="12.24" id="connector1pin"/>
  <circle xmlns="http://www.w3.org/2000/svg" stroke="rgb(255, 191, 0)" r="2.088" cx="5.04" fill="none" stroke-width="1.44" cy="19.44" id="connector2pin"/>
 </g>
</g>
</g></g></g><g partID='856098910'><line stroke-linecap='round' stroke='#f2c600' x1='68.404' y1='47.639' x2='61.236' y2='69.2422' stroke-width='3.456' /></g><g partID='856101490'><line stroke-linecap='round' stroke='#f2c600' x1='68.404' y1='26.135' x2='68.4042' y2='47.6391' stroke-width='3.456' /></g><g partID='856098760'><line stroke-linecap='round' stroke='#f2c600' x1='62.5672' y1='14.3453' x2='68.4038' y2='26.1348' stroke-width='3.456' /></g><g partID='856096440'><line stroke-linecap='round' stroke='#f2c600' x1='61.236' y1='69.2422' x2='25.2579' y2='69.3341' stroke-width='3.456' /></g><g partID='856096290'><line stroke-linecap='round' stroke='#f2c600' x1='57.6416' y1='62.1158' x2='41.8184' y2='62.089' stroke-width='1.728' /></g><g partID='856095370'><line stroke-linecap='round' stroke='#f2c600' x1='25.2577' y1='69.3342' x2='25.2534' y2='65.0534' stroke-width='3.456' /></g><g partID='856095140'><line stroke-linecap='round' stroke='#f2c600' x1='60.8818' y1='42.6948' x2='57.6416' y2='62.1158' stroke-width='1.728' /></g><g partID='856094620'><line stroke-linecap='round' stroke='#f2c600' x1='39.6144' y1='26.0606' x2='39.6451' y2='13.8537' stroke-width='1.728' /></g><g partID='856094580'><line stroke-linecap='round' stroke='#f2c600' x1='45.3926' y1='31.8299' x2='39.6142' y2='26.0603' stroke-width='1.728' /></g><g partID='856098850'><line stroke-linecap='round' stroke='#f2c600' x1='28.7976' y1='26.0606' x2='27.3104' y2='26.0711' stroke-width='1.728' /></g><g partID='856098820'><line stroke-linecap='round' stroke='#f2c600' x1='43.22' y1='54.9046' x2='36.0089' y2='47.6935' stroke-width='1.728' /></g><g partID='856098790'><line stroke-linecap='round' stroke='#f2c600' x1='36.0088' y1='33.271' x2='28.7977' y2='26.0599' stroke-width='1.728' /></g><g partID='856096180'><line stroke-linecap='round' stroke='#f2c600' x1='54.036' y1='54.9046' x2='43.2194' y2='54.9046' stroke-width='1.728' /></g><g partID='856096150'><line stroke-linecap='round' stroke='#f2c600' x1='36.0088' y1='47.6934' x2='36.0088' y2='33.2712' stroke-width='1.728' /></g><g partID='856096130'><line stroke-linecap='round' stroke='#f2c600' x1='54.0482' y1='42.7254' x2='54.036' y2='54.9046' stroke-width='1.728' /></g><g partID='856095700'><line stroke-linecap='round' stroke='#f2c600' x1='54.036' y1='18.8494' x2='59.712' y2='13.213' stroke-width='1.728' /></g><g partID='856095640'><line stroke-linecap='round' stroke='#f2c600' x1='48.3019' y1='24.6237' x2='54.036' y2='18.8494' stroke-width='1.728' /></g><g partID='856100262'><g transform='translate(24.3504,50.3854)' ><g xmlns="http://www.w3.org/2000/svg" id="silkscreen">
 <circle xmlns="http://www.w3.org/2000/svg" stroke="white" r="4.104" fill="none" cx="4.5" stroke-width="0.72" cy="4.5"/>
 <rect xmlns="http://www.w3.org/2000/svg" stroke="white" fill="white" width="1.44" height="1.44" stroke-width="0.72" x="7.38" y="3.78"/>
</g>
</g></g><g partID='856099082'><g transform='translate(23.0904,52.7254)' ><g transform='matrix(-1,0,0,-1,0,0)'  ><g xmlns="http://www.w3.org/2000/svg" id="silkscreen">
 <line xmlns="http://www.w3.org/2000/svg" y2="15.84" stroke="white" x1="1.44" y1="1.44" stroke-width="0.72" x2="1.44"/>
 <line xmlns="http://www.w3.org/2000/svg" y2="15.84" stroke="white" x1="1.44" y1="15.84" stroke-width="0.72" x2="8.64"/>
 <line xmlns="http://www.w3.org/2000/svg" y2="1.44" stroke="white" x1="8.64" y1="15.84" stroke-width="0.72" x2="8.64"/>
 <line xmlns="http://www.w3.org/2000/svg" y2="1.44" stroke="white" x1="8.64" y1="1.44" stroke-width="0.72" x2="1.44"/>
 <line xmlns="http://www.w3.org/2000/svg" y2="1.44" stroke="white" x1="1.44" y1="3.96" stroke-width="0.36" x2="3.96"/>
 <!-- 120 -->
</g>
</g></g></g><g partID='856100100'><g transform='translate(13.5065,23.4621)' ><g transform='matrix(0,1,-1,0,0,0)'  ><g xmlns="http://www.w3.org/2000/svg" id="silkscreen">
 <text xmlns="http://www.w3.org/2000/svg" font-size="4.361" xml:space="preserve" xmlns:xml="http://www.w3.org/XML/1998/namespace" font-family="OCRA" fill="#000000" text-anchor="middle" stroke-width="0" id="label" y="3.9249" x="15.2635">EEP ADR</text>
</g>
</g></g></g><g partID='856096810'><g transform='translate(19.0111,66.8526)' ><g transform='matrix(1,0,0,1,0,0)'  ><g xmlns="http://www.w3.org/2000/svg" id="silkscreen">
 <text xmlns="http://www.w3.org/2000/svg" font-size="4.361" xml:space="preserve" xmlns:xml="http://www.w3.org/XML/1998/namespace" font-family="OCRA" fill="#000000" text-anchor="middle" stroke-width="0" id="label" y="3.9249" x="8.72201">LEDs</text>
</g>
</g></g></g><g partID='856096660'><g transform='translate(66.0109,40.5047)' ><g transform='matrix(0,-1,1,0,0,0)'  ><g xmlns="http://www.w3.org/2000/svg" id="silkscreen">
 <text xmlns="http://www.w3.org/2000/svg" font-size="4.36099" xml:space="preserve" xmlns:xml="http://www.w3.org/XML/1998/namespace" font-family="OCRA" fill="#000000" text-anchor="middle" stroke-width="0" id="label" y="3.9249" x="6.54149">ISP</text>
</g>
</g></g></g><g partID='856079052'><g transform='translate(65.1388,22.197)' ><g transform='matrix(0,1,-1,0,0,0)'  ><g xmlns="http://www.w3.org/2000/svg" id="silkscreen">
 <line xmlns="http://www.w3.org/2000/svg" y2="14.688" class="other" x1="0.288" stroke="#f0f0f0" y1="12.888" stroke-linecap="round" stroke-width="0.576" x2="2.088"/>
 <line xmlns="http://www.w3.org/2000/svg" y2="12.888" class="other" x1="5.688" stroke="#f0f0f0" y1="14.688" stroke-linecap="round" stroke-width="0.576" x2="7.488"/>
 <line xmlns="http://www.w3.org/2000/svg" y2="14.688" class="other" x1="7.488" stroke="#f0f0f0" y1="12.888" stroke-linecap="round" stroke-width="0.576" x2="9.288"/>
 <line xmlns="http://www.w3.org/2000/svg" y2="12.888" class="other" x1="12.888" stroke="#f0f0f0" y1="14.688" stroke-linecap="round" stroke-width="0.576" x2="14.688"/>
 <line xmlns="http://www.w3.org/2000/svg" y2="14.688" class="other" x1="14.688" stroke="#f0f0f0" y1="12.888" stroke-linecap="round" stroke-width="0.576" x2="16.488"/>
 <line xmlns="http://www.w3.org/2000/svg" y2="12.888" class="other" x1="20.088" stroke="#f0f0f0" y1="14.688" stroke-linecap="round" stroke-width="0.576" x2="21.888"/>
 <line xmlns="http://www.w3.org/2000/svg" y2="2.088" class="other" x1="0.288" stroke="#f0f0f0" y1="12.888" stroke-linecap="round" stroke-width="0.576" x2="0.288"/>
 <line xmlns="http://www.w3.org/2000/svg" y2="0.288" class="other" x1="0.288" stroke="#f0f0f0" y1="2.088" stroke-linecap="round" stroke-width="0.576" x2="2.088"/>
 <line xmlns="http://www.w3.org/2000/svg" y2="0.288" class="other" x1="2.088" stroke="#f0f0f0" y1="0.288" stroke-linecap="round" stroke-width="0.576" x2="5.688"/>
 <line xmlns="http://www.w3.org/2000/svg" y2="2.088" class="other" x1="5.688" stroke="#f0f0f0" y1="0.288" stroke-linecap="round" stroke-width="0.576" x2="7.488"/>
 <line xmlns="http://www.w3.org/2000/svg" y2="0.288" class="other" x1="7.488" stroke="#f0f0f0" y1="2.088" stroke-linecap="round" stroke-width="0.576" x2="9.288"/>
 <line xmlns="http://www.w3.org/2000/svg" y2="0.288" class="other" x1="9.288" stroke="#f0f0f0" y1="0.288" stroke-linecap="round" stroke-width="0.576" x2="12.888"/>
 <line xmlns="http://www.w3.org/2000/svg" y2="2.088" class="other" x1="12.888" stroke="#f0f0f0" y1="0.288" stroke-linecap="round" stroke-width="0.576" x2="14.688"/>
 <line xmlns="http://www.w3.org/2000/svg" y2="0.288" class="other" x1="14.688" stroke="#f0f0f0" y1="2.088" stroke-linecap="round" stroke-width="0.576" x2="16.488"/>
 <line xmlns="http://www.w3.org/2000/svg" y2="0.288" class="other" x1="16.488" stroke="#f0f0f0" y1="0.288" stroke-linecap="round" stroke-width="0.576" x2="20.088"/>
 <line xmlns="http://www.w3.org/2000/svg" y2="2.088" class="other" x1="20.088" stroke="#f0f0f0" y1="0.288" stroke-linecap="round" stroke-width="0.576" x2="21.888"/>
 <line xmlns="http://www.w3.org/2000/svg" y2="12.888" class="other" x1="7.488" stroke="#f0f0f0" y1="2.088" stroke-linecap="round" stroke-width="0.576" x2="7.488"/>
 <line xmlns="http://www.w3.org/2000/svg" y2="12.888" class="other" x1="14.688" stroke="#f0f0f0" y1="2.088" stroke-linecap="round" stroke-width="0.576" x2="14.688"/>
 <line xmlns="http://www.w3.org/2000/svg" y2="12.888" class="other" x1="21.888" stroke="#f0f0f0" y1="2.088" stroke-linecap="round" stroke-width="0.576" x2="21.888"/>
 <line xmlns="http://www.w3.org/2000/svg" y2="14.688" class="other" x1="16.488" stroke="#f0f0f0" y1="14.688" stroke-linecap="round" stroke-width="0.576" x2="20.088"/>
 <line xmlns="http://www.w3.org/2000/svg" y2="14.688" class="other" x1="9.288" stroke="#f0f0f0" y1="14.688" stroke-linecap="round" stroke-width="0.576" x2="12.888"/>
 <line xmlns="http://www.w3.org/2000/svg" y2="14.688" class="other" x1="2.088" stroke="#f0f0f0" y1="14.688" stroke-linecap="round" stroke-width="0.576" x2="5.688"/>
 <line xmlns="http://www.w3.org/2000/svg" y2="15.6376" class="other" x1="5.688" stroke="#f0f0f0" y1="15.6376" stroke-linecap="round" stroke-width="0.576" x2="2.088"/>
</g>
</g></g></g><g partID='856084662'><g transform='translate(20.2104,16.7254)' ><g transform='matrix(0,-1,1,0,0,0)'  ><g xmlns="http://www.w3.org/2000/svg" id="silkscreen">
 <line xmlns="http://www.w3.org/2000/svg" y2="23.04" stroke="white" x1="1.44" y1="1.44" stroke-width="0.72" x2="1.44"/>
 <line xmlns="http://www.w3.org/2000/svg" y2="23.04" stroke="white" x1="1.44" y1="23.04" stroke-width="0.72" x2="8.64"/>
 <line xmlns="http://www.w3.org/2000/svg" y2="1.44" stroke="white" x1="8.64" y1="23.04" stroke-width="0.72" x2="8.64"/>
 <line xmlns="http://www.w3.org/2000/svg" y2="1.44" stroke="white" x1="8.64" y1="1.44" stroke-width="0.72" x2="1.44"/>
 <line xmlns="http://www.w3.org/2000/svg" y2="1.44" stroke="white" x1="1.44" y1="3.96" stroke-width="0.36" x2="3.96"/>
 <!-- 120 -->
</g>
</g></g></g><g partID='856100840'><g transform='translate(42.4288,58.8718)' ><g transform='matrix(1,0,0,1,0,0)'  ><g xmlns="http://www.w3.org/2000/svg" id="silkscreen">
 <text xmlns="http://www.w3.org/2000/svg" font-size="3.92489" xml:space="preserve" xmlns:xml="http://www.w3.org/XML/1998/namespace" font-family="OCRA" fill="#000000" text-anchor="middle" stroke-width="0" id="label" y="3.5324" x="15.6996">Brachert</text>
</g>
</g></g></g><g partID='856100820'><g transform='translate(42.8976,67.1502)' ><g transform='matrix(1,0,0,1,0,0)'  ><g xmlns="http://www.w3.org/2000/svg" id="silkscreen">
 <text xmlns="http://www.w3.org/2000/svg" font-size="3.92489" xml:space="preserve" xmlns:xml="http://www.w3.org/XML/1998/namespace" font-family="OCRA" fill="#000000" text-anchor="middle" stroke-width="0" id="label" y="3.5324" x="13.7371">-SA 4.0</text>
</g>
</g></g></g><g partID='856100770'><g transform='translate(46.8704,49.587)' ><g transform='matrix(1,0,0,1,0,0)'  ><g xmlns="http://www.w3.org/2000/svg" id="silkscreen">
 <text xmlns="http://www.w3.org/2000/svg" font-size="3.92489" xml:space="preserve" xmlns:xml="http://www.w3.org/XML/1998/namespace" font-family="OCRA" fill="#000000" text-anchor="middle" stroke-width="0" id="label" y="3.5324" x="15.6996">I2CSlave</text>
</g>
</g></g></g><g partID='856096640'><g transform='translate(43.6232,3.21483)' ><g transform='matrix(1,0,0,1,0,0)'  ><g xmlns="http://www.w3.org/2000/svg" id="silkscreen">
 <text xmlns="http://www.w3.org/2000/svg" font-size="4.361" xml:space="preserve" xmlns:xml="http://www.w3.org/XML/1998/namespace" font-family="OCRA" fill="#000000" text-anchor="middle" stroke-width="0" id="label" y="3.9249" x="10.9025">5V- +</text>
</g>
</g></g></g><g partID='856096620'><g transform='translate(19.1827,2.67403)' ><g transform='matrix(1,0,0,1,0,0)'  ><g xmlns="http://www.w3.org/2000/svg" id="silkscreen">
 <text xmlns="http://www.w3.org/2000/svg" font-size="4.36099" xml:space="preserve" xmlns:xml="http://www.w3.org/XML/1998/namespace" font-family="OCRA" fill="#000000" text-anchor="middle" stroke-width="0" id="label" y="3.9249" x="6.54149">I2C</text>
</g>
</g></g></g><g partID='856096600'><g transform='translate(41.7376,63.179)' ><g transform='matrix(1,0,0,1,0,0)'  ><g xmlns="http://www.w3.org/2000/svg" id="silkscreen">
 <text xmlns="http://www.w3.org/2000/svg" font-size="3.92489" xml:space="preserve" xmlns:xml="http://www.w3.org/XML/1998/namespace" font-family="OCRA" fill="#000000" text-anchor="middle" stroke-width="0" id="label" y="3.5324" x="17.662">CC BY-NC-</text>
</g>
</g></g></g><g partID='856096580'><g transform='translate(42.2032,54.8822)' ><g transform='matrix(1,0,0,1,0,0)'  ><g xmlns="http://www.w3.org/2000/svg" id="silkscreen">
 <text xmlns="http://www.w3.org/2000/svg" font-size="3.92489" xml:space="preserve" xmlns:xml="http://www.w3.org/XML/1998/namespace" font-family="OCRA" fill="#000000" text-anchor="middle" stroke-width="0" id="label" y="3.5324" x="13.7371">(C)Jost</text>
</g>
</g></g></g><g partID='856076222'><g transform='translate(49.0104,16.7254)' ><g transform='matrix(0,-1,1,0,0,0)'  ><g xmlns="http://www.w3.org/2000/svg" id="silkscreen">
 <line xmlns="http://www.w3.org/2000/svg" y2="15.84" stroke="white" x1="1.44" y1="1.44" stroke-width="0.72" x2="1.44"/>
 <line xmlns="http://www.w3.org/2000/svg" y2="15.84" stroke="white" x1="1.44" y1="15.84" stroke-width="0.72" x2="8.64"/>
 <line xmlns="http://www.w3.org/2000/svg" y2="1.44" stroke="white" x1="8.64" y1="15.84" stroke-width="0.72" x2="8.64"/>
 <line xmlns="http://www.w3.org/2000/svg" y2="1.44" stroke="white" x1="8.64" y1="1.44" stroke-width="0.72" x2="1.44"/>
 <line xmlns="http://www.w3.org/2000/svg" y2="1.44" stroke="white" x1="1.44" y1="3.96" stroke-width="0.36" x2="3.96"/>
 <!-- 120 -->
</g>
</g></g></g><g partID='856068310'><g transform='translate(47.5976,45.4286)' ><g transform='matrix(1,0,0,1,0,0)'  ><g xmlns="http://www.w3.org/2000/svg" id="silkscreen">
 <text xmlns="http://www.w3.org/2000/svg" font-size="3.92489" xml:space="preserve" xmlns:xml="http://www.w3.org/XML/1998/namespace" font-family="OCRA" fill="#000000" text-anchor="middle" stroke-width="0" id="label" y="3.5324" x="13.7371">WS2812B</text>
</g>
</g></g></g><g partID='855998632'><g transform='translate(20.9304,21.7654)' ><g xmlns="http://www.w3.org/2000/svg" id="silkscreen">
 <line xmlns="http://www.w3.org/2000/svg" y2="29.5707" x1="0.72" stroke="#ffffff" y1="0.669801" stroke-width="0.72" id="line28" x2="0.72"/>
 <line xmlns="http://www.w3.org/2000/svg" y2="29.52" x1="0.72" stroke="#ffffff" y1="29.52" stroke-width="0.72" id="line30" x2="29.52"/>
 <line xmlns="http://www.w3.org/2000/svg" y2="0.669801" x1="29.52" stroke="#ffffff" y1="29.5707" stroke-width="0.72" id="line32" x2="29.52"/>
 <line xmlns="http://www.w3.org/2000/svg" y2="0.72" x1="0.72" stroke="#ffffff" y1="0.72" stroke-width="0.72" id="line34" x2="11.52"/>
 <line xmlns="http://www.w3.org/2000/svg" y2="0.72" x1="18.72" stroke="#ffffff" y1="0.72" stroke-width="0.72" id="line36" x2="29.52"/>
</g>
</g></g><g partID='20192'><g transform='translate(0,0.826185)' ><g xmlns="http://www.w3.org/2000/svg" id="silkscreen">
 <rect xmlns="http://www.w3.org/2000/svg" stroke="#000000" fill="none" width="85.5972" height="78.5106" stroke-width="0.576" x="0.288" y="0.288"/>
</g>
</g></g><g partID='856082902'><g transform='translate(44.6904,57.0454)' ><g transform='matrix(0,1,-1,0,0,0)'  ><g xmlns="http://www.w3.org/2000/svg" id="silkscreen">
 <line xmlns="http://www.w3.org/2000/svg" y2="23.04" stroke="white" x1="1.44" y1="1.44" stroke-width="0.72" x2="1.44"/>
 <line xmlns="http://www.w3.org/2000/svg" y2="23.04" stroke="white" x1="1.44" y1="23.04" stroke-width="0.72" x2="8.64"/>
 <line xmlns="http://www.w3.org/2000/svg" y2="1.44" stroke="white" x1="8.64" y1="23.04" stroke-width="0.72" x2="8.64"/>
 <line xmlns="http://www.w3.org/2000/svg" y2="1.44" stroke="white" x1="8.64" y1="1.44" stroke-width="0.72" x2="1.44"/>
 <line xmlns="http://www.w3.org/2000/svg" y2="1.44" stroke="white" x1="1.44" y1="3.96" stroke-width="0.36" x2="3.96"/>
 <!-- 120 -->
</g>
</g></g></g><g partID='855998630' id='partLabel'><g transform='translate(43.876,18.5878)' ><g font-size='3' font-style='normal' font-weight='normal' fill='#000000' font-family="'OCRA'" id='silkscreenLabel' fill-opacity='1' stroke='none' ><text x='0' y='2.25'>IC1</text></g></g></g><g partID='856079050' id='partLabel'><g transform='translate(60.9024,19.2814)' ><g font-size='3' font-style='normal' font-weight='normal' fill='#000000' font-family="'OCRA'" id='silkscreenLabel' fill-opacity='1' stroke='none' ><text x='0' y='2.25'>J4</text></g></g></g><g partID='856099080' id='partLabel'><g transform='translate(14.4817,33.263)' ><g font-size='3' font-style='normal' font-weight='normal' fill='#000000' font-family="'OCRA'" id='silkscreenLabel' fill-opacity='1' stroke='none' ><text x='0' y='2.25'>J5</text></g></g></g><g partID='856100260' id='partLabel'><g transform='translate(19.6358,53.8449)' ><g font-size='3' font-style='normal' font-weight='normal' fill='#000000' font-family="'OCRA'" id='silkscreenLabel' fill-opacity='1' stroke='none' ><text x='0' y='2.25'>R1</text></g></g></g><g partID='856076220' id='partLabel'><g transform='translate(51.9736,16.3174)' ><g font-size='3' font-style='normal' font-weight='normal' fill='#000000' font-family="'OCRA'" id='silkscreenLabel' fill-opacity='1' stroke='none' ><text x='0' y='2.25'>J1</text></g></g></g><g partID='856082900' id='partLabel'><g transform='translate(16.8662,58.8638)' ><g font-size='3' font-style='normal' font-weight='normal' fill='#000000' font-family="'OCRA'" id='silkscreenLabel' fill-opacity='1' stroke='none' ><text x='0' y='2.25'>J3</text></g></g></g><g partID='856084660' id='partLabel'><g transform='translate(21.2412,16.4614)' ><g font-size='3' font-style='normal' font-weight='normal' fill='#000000' font-family="'OCRA'" id='silkscreenLabel' fill-opacity='1' stroke='none' ><text x='0' y='2.25'>J2</text></g></g></g></svg>