<?xml version='1.0' encoding='UTF-8' standalone='no'?>
<!-- Created with Fritzing (http://www.fritzing.org/) -->
<svg xmlns="http://www.w3.org/2000/svg" width="1.19685in" x="0in" xmlns:svg="http://www.w3.org/2000/svg" baseProfile="tiny" viewBox="0 0 86.1732 79.0866" height="1.09843in" version="1.2"  y="0in">
 <g partID="20191">
  <g id="silkscreen">
   <rect width="85.5972" fill="none" x="0.288" stroke="black" stroke-width="0.576" height="78.5106" y="0.288"/>
  </g>
 </g>
 <g partID="20190">
  <g id="board">
   <rect width="85.5972" fill="none" x="0.288" fill-opacity="0.5" id="boardoutline" stroke="black" stroke-width="0.5" height="78.5106" y="0.288"/>
  </g>
 </g>
 <g partID="856103461">
  <g transform="translate(51.1704,15.1792)">
   <g id="silkscreen">
    <g transform="matrix(1, 0, 0, 1, -1.43333, -1.16)">
     <path fill="none" d="m6.65907,2.30036a1.84667,1.58,0,0,1,2.51037,0.001464" style="stroke-linecap:round;stroke-linejoin:round;stroke-miterlimit:4;stroke-dasharray:none" id="path2830" stroke-opacity="1" stroke-width="0.576" stroke="black"/>
    </g>
    <g transform="matrix(-1, 0, 0, -1, 14.3952, 6.92)">
     <path fill="none" d="m6.65907,2.30036a1.84667,1.58,0,0,1,2.51037,0.001464" style="stroke-linecap:round;stroke-linejoin:round;stroke-miterlimit:4;stroke-dasharray:none" id="path2830-1" stroke-opacity="1" stroke-width="0.576" stroke="black"/>
    </g>
   </g>
  </g>
 </g>
 <g partID="856100261">
  <g transform="translate(24.3504,49.5592)">
   <g id="silkscreen">
    <circle fill="none" cx="4.5" cy="4.5" r="4.104" stroke="black" stroke-width="0.72"/>
    <rect width="1.44" fill="black" x="7.38" stroke="black" stroke-width="0.72" height="1.44" y="3.78"/>
   </g>
  </g>
 </g>
 <g partID="856099081">
  <g transform="translate(23.0904,51.8992)">
   <g transform="matrix(-1,0,0,-1,0,0)">
    <g id="silkscreen">
     <line x2="1.44" y1="1.44" x1="1.44" y2="15.84" stroke="black" stroke-width="0.72"/>
     <line x2="8.64" y1="15.84" x1="1.44" y2="15.84" stroke="black" stroke-width="0.72"/>
     <line x2="8.64" y1="15.84" x1="8.64" y2="1.44" stroke="black" stroke-width="0.72"/>
     <line x2="1.44" y1="1.44" x1="8.64" y2="1.44" stroke="black" stroke-width="0.72"/>
     <line x2="3.96" y1="3.96" x1="1.44" y2="1.44" stroke="black" stroke-width="0.36"/>
     <!-- 120 -->
    </g>
   </g>
  </g>
 </g>
 <g partID="856100840">
  <g transform="translate(40.9376,58.0456)">
   <g transform="matrix(1,0,0,1,0,0)">
    <g id="silkscreen">
     <text font-size="3.92489" x="15.6996" fill="black" xml:space="preserve" xmlns:xml="http://www.w3.org/XML/1998/namespace" id="label" stroke-width="0" font-family="OCRA" y="3.5324" text-anchor="middle">Brachert</text>
    </g>
   </g>
  </g>
 </g>
 <g partID="856100100">
  <g transform="translate(13.5065,26.2151)">
   <g transform="matrix(0,1,-1,0,0,0)">
    <g id="silkscreen">
     <text font-size="4.361" x="15.2635" fill="black" xml:space="preserve" xmlns:xml="http://www.w3.org/XML/1998/namespace" id="label" stroke-width="0" font-family="OCRA" y="3.9249" text-anchor="middle">EEP ADR</text>
    </g>
   </g>
  </g>
 </g>
 <g partID="856100820">
  <g transform="translate(41.4064,66.324)">
   <g transform="matrix(1,0,0,1,0,0)">
    <g id="silkscreen">
     <text font-size="3.92489" x="13.7371" fill="black" xml:space="preserve" xmlns:xml="http://www.w3.org/XML/1998/namespace" id="label" stroke-width="0" font-family="OCRA" y="3.5324" text-anchor="middle">-SA 4.0</text>
    </g>
   </g>
  </g>
 </g>
 <g partID="856100770">
  <g transform="translate(46.8704,48.7608)">
   <g transform="matrix(1,0,0,1,0,0)">
    <g id="silkscreen">
     <text font-size="3.92489" x="15.6996" fill="black" xml:space="preserve" xmlns:xml="http://www.w3.org/XML/1998/namespace" id="label" stroke-width="0" font-family="OCRA" y="3.5324" text-anchor="middle">I2CSlave</text>
    </g>
   </g>
  </g>
 </g>
 <g partID="856096810">
  <g transform="translate(19.0111,66.0264)">
   <g transform="matrix(1,0,0,1,0,0)">
    <g id="silkscreen">
     <text font-size="4.361" x="8.72201" fill="black" xml:space="preserve" xmlns:xml="http://www.w3.org/XML/1998/namespace" id="label" stroke-width="0" font-family="OCRA" y="3.9249" text-anchor="middle">LEDs</text>
    </g>
   </g>
  </g>
 </g>
 <g partID="856096660">
  <g transform="translate(66.0109,39.6785)">
   <g transform="matrix(0,-1,1,0,0,0)">
    <g id="silkscreen">
     <text font-size="4.36099" x="6.54149" fill="black" xml:space="preserve" xmlns:xml="http://www.w3.org/XML/1998/namespace" id="label" stroke-width="0" font-family="OCRA" y="3.9249" text-anchor="middle">ISP</text>
    </g>
   </g>
  </g>
 </g>
 <g partID="856096640">
  <g transform="translate(43.6232,2.38864)">
   <g transform="matrix(1,0,0,1,0,0)">
    <g id="silkscreen">
     <text font-size="4.361" x="10.9025" fill="black" xml:space="preserve" xmlns:xml="http://www.w3.org/XML/1998/namespace" id="label" stroke-width="0" font-family="OCRA" y="3.9249" text-anchor="middle">5V- +</text>
    </g>
   </g>
  </g>
 </g>
 <g partID="856079051">
  <g transform="translate(65.1388,21.3708)">
   <g transform="matrix(0,1,-1,0,0,0)">
    <g id="silkscreen">
     <line x2="2.088" y1="12.888" x1="0.288" y2="14.688" stroke-linecap="round" stroke="black" stroke-width="0.576" class="other"/>
     <line x2="7.488" y1="14.688" x1="5.688" y2="12.888" stroke-linecap="round" stroke="black" stroke-width="0.576" class="other"/>
     <line x2="9.288" y1="12.888" x1="7.488" y2="14.688" stroke-linecap="round" stroke="black" stroke-width="0.576" class="other"/>
     <line x2="14.688" y1="14.688" x1="12.888" y2="12.888" stroke-linecap="round" stroke="black" stroke-width="0.576" class="other"/>
     <line x2="16.488" y1="12.888" x1="14.688" y2="14.688" stroke-linecap="round" stroke="black" stroke-width="0.576" class="other"/>
     <line x2="21.888" y1="14.688" x1="20.088" y2="12.888" stroke-linecap="round" stroke="black" stroke-width="0.576" class="other"/>
     <line x2="0.288" y1="12.888" x1="0.288" y2="2.088" stroke-linecap="round" stroke="black" stroke-width="0.576" class="other"/>
     <line x2="2.088" y1="2.088" x1="0.288" y2="0.288" stroke-linecap="round" stroke="black" stroke-width="0.576" class="other"/>
     <line x2="5.688" y1="0.288" x1="2.088" y2="0.288" stroke-linecap="round" stroke="black" stroke-width="0.576" class="other"/>
     <line x2="7.488" y1="0.288" x1="5.688" y2="2.088" stroke-linecap="round" stroke="black" stroke-width="0.576" class="other"/>
     <line x2="9.288" y1="2.088" x1="7.488" y2="0.288" stroke-linecap="round" stroke="black" stroke-width="0.576" class="other"/>
     <line x2="12.888" y1="0.288" x1="9.288" y2="0.288" stroke-linecap="round" stroke="black" stroke-width="0.576" class="other"/>
     <line x2="14.688" y1="0.288" x1="12.888" y2="2.088" stroke-linecap="round" stroke="black" stroke-width="0.576" class="other"/>
     <line x2="16.488" y1="2.088" x1="14.688" y2="0.288" stroke-linecap="round" stroke="black" stroke-width="0.576" class="other"/>
     <line x2="20.088" y1="0.288" x1="16.488" y2="0.288" stroke-linecap="round" stroke="black" stroke-width="0.576" class="other"/>
     <line x2="21.888" y1="0.288" x1="20.088" y2="2.088" stroke-linecap="round" stroke="black" stroke-width="0.576" class="other"/>
     <line x2="7.488" y1="2.088" x1="7.488" y2="12.888" stroke-linecap="round" stroke="black" stroke-width="0.576" class="other"/>
     <line x2="14.688" y1="2.088" x1="14.688" y2="12.888" stroke-linecap="round" stroke="black" stroke-width="0.576" class="other"/>
     <line x2="21.888" y1="2.088" x1="21.888" y2="12.888" stroke-linecap="round" stroke="black" stroke-width="0.576" class="other"/>
     <line x2="20.088" y1="14.688" x1="16.488" y2="14.688" stroke-linecap="round" stroke="black" stroke-width="0.576" class="other"/>
     <line x2="12.888" y1="14.688" x1="9.288" y2="14.688" stroke-linecap="round" stroke="black" stroke-width="0.576" class="other"/>
     <line x2="5.688" y1="14.688" x1="2.088" y2="14.688" stroke-linecap="round" stroke="black" stroke-width="0.576" class="other"/>
     <line x2="2.088" y1="15.6376" x1="5.688" y2="15.6376" stroke-linecap="round" stroke="black" stroke-width="0.576" class="other"/>
    </g>
   </g>
  </g>
 </g>
 <g partID="856084661">
  <g transform="translate(20.2104,15.8992)">
   <g transform="matrix(0,-1,1,0,0,0)">
    <g id="silkscreen">
     <line x2="1.44" y1="1.44" x1="1.44" y2="23.04" stroke="black" stroke-width="0.72"/>
     <line x2="8.64" y1="23.04" x1="1.44" y2="23.04" stroke="black" stroke-width="0.72"/>
     <line x2="8.64" y1="23.04" x1="8.64" y2="1.44" stroke="black" stroke-width="0.72"/>
     <line x2="1.44" y1="1.44" x1="8.64" y2="1.44" stroke="black" stroke-width="0.72"/>
     <line x2="3.96" y1="3.96" x1="1.44" y2="1.44" stroke="black" stroke-width="0.36"/>
     <!-- 120 -->
    </g>
   </g>
  </g>
 </g>
 <g partID="856076221">
  <g transform="translate(49.0104,15.8992)">
   <g transform="matrix(0,-1,1,0,0,0)">
    <g id="silkscreen">
     <line x2="1.44" y1="1.44" x1="1.44" y2="15.84" stroke="black" stroke-width="0.72"/>
     <line x2="8.64" y1="15.84" x1="1.44" y2="15.84" stroke="black" stroke-width="0.72"/>
     <line x2="8.64" y1="15.84" x1="8.64" y2="1.44" stroke="black" stroke-width="0.72"/>
     <line x2="1.44" y1="1.44" x1="8.64" y2="1.44" stroke="black" stroke-width="0.72"/>
     <line x2="3.96" y1="3.96" x1="1.44" y2="1.44" stroke="black" stroke-width="0.36"/>
     <!-- 120 -->
    </g>
   </g>
  </g>
 </g>
 <g partID="856096620">
  <g transform="translate(19.1827,1.84784)">
   <g transform="matrix(1,0,0,1,0,0)">
    <g id="silkscreen">
     <text font-size="4.36099" x="6.54149" fill="black" xml:space="preserve" xmlns:xml="http://www.w3.org/XML/1998/namespace" id="label" stroke-width="0" font-family="OCRA" y="3.9249" text-anchor="middle">I2C</text>
    </g>
   </g>
  </g>
 </g>
 <g partID="856096600">
  <g transform="translate(40.2464,62.3528)">
   <g transform="matrix(1,0,0,1,0,0)">
    <g id="silkscreen">
     <text font-size="3.92489" x="17.662" fill="black" xml:space="preserve" xmlns:xml="http://www.w3.org/XML/1998/namespace" id="label" stroke-width="0" font-family="OCRA" y="3.5324" text-anchor="middle">CC BY-NC-</text>
    </g>
   </g>
  </g>
 </g>
 <g partID="856096580">
  <g transform="translate(40.712,54.056)">
   <g transform="matrix(1,0,0,1,0,0)">
    <g id="silkscreen">
     <text font-size="3.92489" x="13.7371" fill="black" xml:space="preserve" xmlns:xml="http://www.w3.org/XML/1998/namespace" id="label" stroke-width="0" font-family="OCRA" y="3.5324" text-anchor="middle">(C)Jost</text>
    </g>
   </g>
  </g>
 </g>
 <g partID="856068310">
  <g transform="translate(47.5976,44.6024)">
   <g transform="matrix(1,0,0,1,0,0)">
    <g id="silkscreen">
     <text font-size="3.92489" x="13.7371" fill="black" xml:space="preserve" xmlns:xml="http://www.w3.org/XML/1998/namespace" id="label" stroke-width="0" font-family="OCRA" y="3.5324" text-anchor="middle">WS2812B</text>
    </g>
   </g>
  </g>
 </g>
 <g partID="855998631">
  <g transform="translate(20.9304,20.9392)">
   <g id="silkscreen">
    <line x2="0.72" y1="0.669801" x1="0.72" y2="29.5707" id="line28" stroke-width="0.72" stroke="black"/>
    <line x2="29.52" y1="29.52" x1="0.72" y2="29.52" id="line30" stroke-width="0.72" stroke="black"/>
    <line x2="29.52" y1="29.5707" x1="29.52" y2="0.669801" id="line32" stroke-width="0.72" stroke="black"/>
    <line x2="11.52" y1="0.72" x1="0.72" y2="0.72" id="line34" stroke-width="0.72" stroke="black"/>
    <line x2="29.52" y1="0.72" x1="18.72" y2="0.72" id="line36" stroke-width="0.72" stroke="black"/>
   </g>
  </g>
 </g>
 <g partID="20191">
  <g id="silkscreen">
   <rect width="85.5972" fill="none" x="0.288" stroke="black" stroke-width="0.576" height="78.5106" y="0.288"/>
  </g>
 </g>
 <g partID="856082901">
  <g transform="translate(44.6904,56.2192)">
   <g transform="matrix(0,1,-1,0,0,0)">
    <g id="silkscreen">
     <line x2="1.44" y1="1.44" x1="1.44" y2="23.04" stroke="black" stroke-width="0.72"/>
     <line x2="8.64" y1="23.04" x1="1.44" y2="23.04" stroke="black" stroke-width="0.72"/>
     <line x2="8.64" y1="23.04" x1="8.64" y2="1.44" stroke="black" stroke-width="0.72"/>
     <line x2="1.44" y1="1.44" x1="8.64" y2="1.44" stroke="black" stroke-width="0.72"/>
     <line x2="3.96" y1="3.96" x1="1.44" y2="1.44" stroke="black" stroke-width="0.36"/>
     <!-- 120 -->
    </g>
   </g>
  </g>
 </g>
 <g id="partLabel" partID="855998630">
  <g transform="translate(43.876,17.7616)">
   <g font-size="3" fill="#000000" font-weight="normal" fill-opacity="1" id="silkscreenLabel" font-style="normal" stroke="none" font-family="'OCRA'">
    <text x="0" y="2.25">IC1</text>
   </g>
  </g>
 </g>
 <g id="partLabel" partID="856079050">
  <g transform="translate(65.6744,22.432)">
   <g font-size="3" fill="#000000" font-weight="normal" fill-opacity="1" id="silkscreenLabel" font-style="normal" stroke="none" font-family="'OCRA'">
    <text x="0" y="2.25">J4</text>
   </g>
  </g>
 </g>
 <g id="partLabel" partID="856099080">
  <g transform="translate(14.4817,32.4368)">
   <g font-size="3" fill="#000000" font-weight="normal" fill-opacity="1" id="silkscreenLabel" font-style="normal" stroke="none" font-family="'OCRA'">
    <text x="0" y="2.25">J5</text>
   </g>
  </g>
 </g>
 <g id="partLabel" partID="856100260">
  <g transform="translate(19.6358,53.0184)">
   <g font-size="3" fill="#000000" font-weight="normal" fill-opacity="1" id="silkscreenLabel" font-style="normal" stroke="none" font-family="'OCRA'">
    <text x="0" y="2.25">R1</text>
   </g>
  </g>
 </g>
 <g id="partLabel" partID="856103460">
  <g transform="translate(64.7272,17.036)">
   <g font-size="3" fill="#000000" font-weight="normal" fill-opacity="1" id="silkscreenLabel" font-style="normal" stroke="none" font-family="'OCRA'">
    <text x="0" y="2.25">C1</text>
   </g>
  </g>
 </g>
 <g id="partLabel" partID="856084660">
  <g transform="translate(21.2412,15.6352)">
   <g font-size="3" fill="#000000" font-weight="normal" fill-opacity="1" id="silkscreenLabel" font-style="normal" stroke="none" font-family="'OCRA'">
    <text x="0" y="2.25">J2</text>
   </g>
  </g>
 </g>
 <g id="partLabel" partID="856076220">
  <g transform="translate(45.6104,12.3096)">
   <g font-size="3" fill="#000000" font-weight="normal" fill-opacity="1" id="silkscreenLabel" font-style="normal" stroke="none" font-family="'OCRA'">
    <text x="0" y="2.25">J1</text>
   </g>
  </g>
 </g>
 <g id="partLabel" partID="856082900">
  <g transform="translate(16.8662,58.0376)">
   <g font-size="3" fill="#000000" font-weight="normal" fill-opacity="1" id="silkscreenLabel" font-style="normal" stroke="none" font-family="'OCRA'">
    <text x="0" y="2.25">J3</text>
   </g>
  </g>
 </g>
 <g partID="856103462">
  <g transform="translate(51.1704,15.1792)">
   <g id="copper1">
    <circle fill="white" cx="2.88" cy="2.88" r="1.8" id="connector0pin" stroke="white" stroke-width="2.16"/>
    <circle fill="white" cx="10.0933" cy="2.88" r="1.8" id="connector1pin" stroke="white" stroke-width="2.16"/>
   </g>
  </g>
 </g>
 <g partID="856100262">
  <g transform="translate(24.3504,49.5592)">
   <g id="copper1">
    <!-- <rect width="55" x="35" y="35" fill="none" height="55" stroke="rgb(255, 191, 0)" stroke-width="20" /> -->
    <circle fill="white" cx="4.5" cy="4.5" r="1.98" id="connector0pin" stroke="white" stroke-width="2.16"/>
    <circle fill="white" cx="11.7" cy="4.5" r="1.98" id="connector1pin" stroke="white" stroke-width="2.16"/>
   </g>
  </g>
 </g>
 <g partID="856099082">
  <g transform="translate(23.0904,51.8992)">
   <g transform="matrix(-1,0,0,-1,0,0)">
    <g id="copper1">
     <g id="copper0">
      <circle fill="white" cx="5.04" cy="5.04" r="2.088" id="connector0pin" stroke="white" stroke-width="2.16"/>
      <circle fill="white" cx="5.04" cy="12.24" r="2.088" id="connector1pin" stroke="white" stroke-width="2.16"/>
     </g>
    </g>
   </g>
  </g>
 </g>
 <g partID="856079052">
  <g transform="translate(65.1388,21.3708)">
   <g transform="matrix(0,1,-1,0,0,0)">
    <g id="copper1">
     <circle fill="white" cx="3.888" cy="11.088" r="2.052" connectorname="1" id="connector0pad" stroke="white" stroke-width="1.944"/>
     <circle fill="white" cx="3.888" cy="3.888" r="2.052" connectorname="2" id="connector1pad" stroke="white" stroke-width="1.944"/>
     <circle fill="white" cx="11.088" cy="11.808" r="2.052" connectorname="3" id="connector2pad" stroke="white" stroke-width="1.944"/>
     <circle fill="white" cx="11.088" cy="4.608" r="2.052" connectorname="4" id="connector3pad" stroke="white" stroke-width="1.944"/>
     <circle fill="white" cx="18.288" cy="11.088" r="2.052" connectorname="5" id="connector4pad" stroke="white" stroke-width="1.944"/>
     <circle fill="white" cx="18.288" cy="3.888" r="2.052" connectorname="6" id="connector5pad" stroke="white" stroke-width="1.944"/>
     <g id="copper0">
      <circle fill="white" cx="3.888" cy="11.088" r="2.052" connectorname="1" id="connector0pad" stroke="white" stroke-width="1.944"/>
      <circle fill="white" cx="3.888" cy="3.888" r="2.052" connectorname="2" id="connector1pad" stroke="white" stroke-width="1.944"/>
      <circle fill="white" cx="11.088" cy="11.808" r="2.052" connectorname="3" id="connector2pad" stroke="white" stroke-width="1.944"/>
      <circle fill="white" cx="11.088" cy="4.608" r="2.052" connectorname="4" id="connector3pad" stroke="white" stroke-width="1.944"/>
      <circle fill="white" cx="18.288" cy="11.088" r="2.052" connectorname="5" id="connector4pad" stroke="white" stroke-width="1.944"/>
      <circle fill="white" cx="18.288" cy="3.888" r="2.052" connectorname="6" id="connector5pad" stroke="white" stroke-width="1.944"/>
     </g>
    </g>
   </g>
  </g>
 </g>
 <g partID="856084662">
  <g transform="translate(20.2104,15.8992)">
   <g transform="matrix(0,-1,1,0,0,0)">
    <g id="copper1">
     <g id="copper0">
      <circle fill="white" cx="5.04" cy="5.04" r="2.088" id="connector0pin" stroke="white" stroke-width="2.16"/>
      <circle fill="white" cx="5.04" cy="12.24" r="2.088" id="connector1pin" stroke="white" stroke-width="2.16"/>
      <circle fill="white" cx="5.04" cy="19.44" r="2.088" id="connector2pin" stroke="white" stroke-width="2.16"/>
     </g>
    </g>
   </g>
  </g>
 </g>
 <g partID="856076222">
  <g transform="translate(49.0104,15.8992)">
   <g transform="matrix(0,-1,1,0,0,0)">
    <g id="copper1">
     <g id="copper0">
      <circle fill="white" cx="5.04" cy="5.04" r="2.088" id="connector0pin" stroke="white" stroke-width="2.16"/>
      <circle fill="white" cx="5.04" cy="12.24" r="2.088" id="connector1pin" stroke="white" stroke-width="2.16"/>
     </g>
    </g>
   </g>
  </g>
 </g>
 <g partID="856049781">
  <g transform="translate(69.7984,5.0072)">
   <g id="copper1">
    <circle fill="white" cx="5.85197" cy="5.85197" r="4.25197" id="nonconn0" stroke-width="0.72" stroke="white"/>
   </g>
  </g>
 </g>
 <g partID="856049881">
  <g transform="translate(69.7984,62.6072)">
   <g id="copper1">
    <circle fill="white" cx="5.85197" cy="5.85197" r="4.25197" id="nonconn0" stroke-width="0.72" stroke="white"/>
   </g>
  </g>
 </g>
 <g partID="856049861">
  <g transform="translate(4.9984,62.6072)">
   <g id="copper1">
    <circle fill="white" cx="5.85197" cy="5.85197" r="4.25197" id="nonconn0" stroke-width="0.72" stroke="white"/>
   </g>
  </g>
 </g>
 <g partID="856049831">
  <g transform="translate(4.9984,5.0072)">
   <g id="copper1">
    <circle fill="white" cx="5.85197" cy="5.85197" r="4.25197" id="nonconn0" stroke-width="0.72" stroke="white"/>
   </g>
  </g>
 </g>
 <g partID="855998632">
  <g transform="translate(20.9304,20.9392)">
   <g id="copper1">
    <g id="copper0">
     <rect width="3.96" x="2.34" fill="white" id="square" stroke-width="2.16" stroke="white" height="3.96" y="2.34"/>
     <g transform="matrix(1, 0, 0, 1, 0, -28.8)">
      <circle fill="white" cx="4.32" d="m 87.5,460 c 0,15.18783 -12.312169,27.5 -27.5,27.5 -15.187831,0 -27.5,-12.31217 -27.5,-27.5 0,-15.18783 12.312169,-27.5 27.5,-27.5 15.187831,0 27.5,12.31217 27.5,27.5 z" cy="33.12" r="1.98" id="connector1pin" stroke-width="2.16" stroke="white"/>
     </g>
     <g transform="matrix(1, 0, 0, 1, 0, -28.8)">
      <circle fill="white" cx="4.32" d="m 87.5,560 c 0,15.18783 -12.312169,27.5 -27.5,27.5 -15.187831,0 -27.5,-12.31217 -27.5,-27.5 0,-15.18783 12.312169,-27.5 27.5,-27.5 15.187831,0 27.5,12.31217 27.5,27.5 z" cy="40.32" r="1.98" id="connector2pin" stroke-width="2.16" stroke="white"/>
     </g>
     <g transform="matrix(1, 0, 0, 1, 0, -28.8)">
      <circle fill="white" cx="4.32" d="m 87.5,660 c 0,15.18783 -12.312169,27.5 -27.5,27.5 -15.187831,0 -27.5,-12.31217 -27.5,-27.5 0,-15.18783 12.312169,-27.5 27.5,-27.5 15.187831,0 27.5,12.31217 27.5,27.5 z" cy="47.52" r="1.98" id="connector3pin" stroke-width="2.16" stroke="white"/>
     </g>
     <g transform="matrix(1, 0, 0, 1, 0, -28.8)">
      <circle fill="white" cx="4.32" d="m 87.5,760 c 0,15.18783 -12.312169,27.5 -27.5,27.5 -15.187831,0 -27.5,-12.31217 -27.5,-27.5 0,-15.18783 12.312169,-27.5 27.5,-27.5 15.187831,0 27.5,12.31217 27.5,27.5 z" cy="54.72" r="1.98" id="connector4pin" stroke-width="2.16" stroke="white"/>
     </g>
     <g transform="matrix(1, 0, 0, 1, 0, -28.8)">
      <circle fill="white" cx="25.92" d="m 387.5,760 c 0,15.18783 -12.31217,27.5 -27.5,27.5 -15.18783,0 -27.5,-12.31217 -27.5,-27.5 0,-15.18783 12.31217,-27.5 27.5,-27.5 15.18783,0 27.5,12.31217 27.5,27.5 z" cy="54.72" r="1.98" id="connector5pin" stroke-width="2.16" stroke="white"/>
     </g>
     <g transform="matrix(1, 0, 0, 1, 0, -28.8)">
      <circle fill="white" cx="25.92" d="m 387.5,660 c 0,15.18783 -12.31217,27.5 -27.5,27.5 -15.18783,0 -27.5,-12.31217 -27.5,-27.5 0,-15.18783 12.31217,-27.5 27.5,-27.5 15.18783,0 27.5,12.31217 27.5,27.5 z" cy="47.52" r="1.98" id="connector6pin" stroke-width="2.16" stroke="white"/>
     </g>
     <g transform="matrix(1, 0, 0, 1, 0, -28.8)">
      <circle fill="white" cx="25.92" d="m 387.5,560 c 0,15.18783 -12.31217,27.5 -27.5,27.5 -15.18783,0 -27.5,-12.31217 -27.5,-27.5 0,-15.18783 12.31217,-27.5 27.5,-27.5 15.18783,0 27.5,12.31217 27.5,27.5 z" cy="40.32" r="1.98" id="connector7pin" stroke-width="2.16" stroke="white"/>
     </g>
     <g transform="matrix(1, 0, 0, 1, 0, -28.8)">
      <circle fill="white" cx="25.92" d="m 387.5,460 c 0,15.18783 -12.31217,27.5 -27.5,27.5 -15.18783,0 -27.5,-12.31217 -27.5,-27.5 0,-15.18783 12.31217,-27.5 27.5,-27.5 15.18783,0 27.5,12.31217 27.5,27.5 z" cy="33.12" r="1.98" id="connector8pin" stroke-width="2.16" stroke="white"/>
     </g>
    </g>
   </g>
  </g>
 </g>
 <g partID="856082902">
  <g transform="translate(44.6904,56.2192)">
   <g transform="matrix(0,1,-1,0,0,0)">
    <g id="copper1">
     <g id="copper0">
      <circle fill="white" cx="5.04" cy="5.04" r="2.088" id="connector0pin" stroke="white" stroke-width="2.16"/>
      <circle fill="white" cx="5.04" cy="12.24" r="2.088" id="connector1pin" stroke="white" stroke-width="2.16"/>
      <circle fill="white" cx="5.04" cy="19.44" r="2.088" id="connector2pin" stroke="white" stroke-width="2.16"/>
     </g>
    </g>
   </g>
  </g>
 </g>
</svg>
