<?xml version="1.0" encoding="UTF-8" standalone="no"?>

<svg
   version="1.2"
   x="0in"
   y="0in"
   width="3.1075in"
   height="1.88252in"
   viewBox="0 0 223.74 135.541"
   id="svg2"
   inkscape:version="1.1.2 (0a00cf5339, 2022-02-04)"
   sodipodi:docname="WS2812B-I2C-Slave_schemMod.svg"
   xmlns:inkscape="http://www.inkscape.org/namespaces/inkscape"
   xmlns:sodipodi="http://sodipodi.sourceforge.net/DTD/sodipodi-0.dtd"
   xmlns="http://www.w3.org/2000/svg"
   xmlns:svg="http://www.w3.org/2000/svg"
   xmlns:rdf="http://www.w3.org/1999/02/22-rdf-syntax-ns#"
   xmlns:cc="http://creativecommons.org/ns#"
   xmlns:dc="http://purl.org/dc/elements/1.1/">
  <title>WS2812B I2C Slave Schematic</title>
  <metadata
     id="metadata629">
    <rdf:RDF>
      <cc:Work
         rdf:about="">
        <dc:format>image/svg+xml</dc:format>
        <dc:type
           rdf:resource="http://purl.org/dc/dcmitype/StillImage" />
        <dc:title>WS2812B I2C Slave Schematic</dc:title>
        <dc:date>25-Oct-2020</dc:date>
        <dc:creator>
          <cc:Agent>
            <dc:title>jost.brachert@gmx.de</dc:title>
          </cc:Agent>
        </dc:creator>
        <dc:rights>
          <cc:Agent>
            <dc:title>Copyright 2017-2022 Jost Brachert</dc:title>
          </cc:Agent>
        </dc:rights>
        <cc:license
           rdf:resource="http://creativecommons.org/licenses/by-nc-sa/4.0/" />
      </cc:Work>
      <cc:License
         rdf:about="http://creativecommons.org/licenses/by-nc-sa/4.0/">
        <cc:permits
           rdf:resource="http://creativecommons.org/ns#Reproduction" />
        <cc:permits
           rdf:resource="http://creativecommons.org/ns#Distribution" />
        <cc:requires
           rdf:resource="http://creativecommons.org/ns#Notice" />
        <cc:requires
           rdf:resource="http://creativecommons.org/ns#Attribution" />
        <cc:prohibits
           rdf:resource="http://creativecommons.org/ns#CommercialUse" />
        <cc:permits
           rdf:resource="http://creativecommons.org/ns#DerivativeWorks" />
        <cc:requires
           rdf:resource="http://creativecommons.org/ns#ShareAlike" />
      </cc:License>
    </rdf:RDF>
  </metadata>
  <defs
     id="defs627" >

<font id="droid_sansregular" horiz-adv-x="1128" >
<font-face font-family="'Droid Sans'" units-per-em="2048" ascent="1638" descent="-410" />
<missing-glyph horiz-adv-x="532" />
<glyph horiz-adv-x="0" />
<glyph unicode=" "  horiz-adv-x="532" />
<glyph unicode="+" d="M102 647v150h387v389h150v-389h387v-150h-387v-385h-150v385h-387z" />
<glyph unicode="/" horiz-adv-x="764" d="M20 0l545 1462h178l-544 -1462h-179z" />
<glyph unicode="0" d="M98 733q0 177 25.5 317t81 236.5t144 147.5t214.5 51q119 0 207 -50.5t146 -147t87 -236.5t29 -318q0 -177 -25.5 -317t-82 -237t-145.5 -148t-216 -51q-118 0 -205.5 51t-145 148t-86 237t-28.5 317zM283 733q0 -150 15 -262t48 -186.5t86.5 -112t130.5 -37.5t131 37 t88.5 111t50 186.5t15.5 263.5q0 150 -15.5 262t-50 186t-88.5 111t-131 37t-130.5 -37t-86.5 -111t-48 -186t-15 -262z" />
<glyph unicode="1" d="M178 1163l383 299h150v-1462h-176v913q0 43 0.5 92t2 97.5t3 93t2.5 78.5q-17 -18 -30 -31t-26.5 -25t-28.5 -25.5t-36 -31.5l-148 -121z" />
<glyph unicode="2" d="M96 0v156l350 381q75 81 134 148t100.5 131t63.5 128.5t22 140.5q0 59 -17 104t-48.5 76.5t-74.5 47.5t-96 16q-95 0 -171.5 -38.5t-145.5 -98.5l-102 119q40 36 86 67.5t99 54.5t112 36.5t124 13.5q96 0 173.5 -27t131.5 -77.5t83.5 -123t29.5 -163.5q0 -85 -26.5 -162 t-73 -151.5t-111 -149.5t-139.5 -156l-281 -299v-8h689v-166h-912z" />
<glyph unicode="3" d="M82 59v170q87 -46 188.5 -71t194.5 -25q92 0 159 20t110.5 57t64 91t20.5 121q0 68 -26.5 116.5t-75.5 80t-119.5 46.5t-159.5 15h-133v151h133q81 0 144 20t105.5 57t64.5 88t22 112q0 52 -18 93t-51 69.5t-79 43.5t-102 15q-107 0 -188.5 -33.5t-155.5 -87.5l-92 125 q38 31 84.5 58t101.5 47.5t117.5 32.5t132.5 12q108 0 189.5 -27t136.5 -75.5t83 -115t28 -145.5q0 -73 -23 -133t-64.5 -104t-99.5 -72.5t-129 -40.5v-6q177 -22 269 -112.5t92 -235.5q0 -96 -32.5 -176t-98.5 -138t-167 -90t-239 -32q-109 0 -205.5 17t-181.5 62z" />
<glyph unicode="4" d="M23 328v159l663 983h188v-976h213v-166h-213v-328h-176v328h-675zM201 494h497v356q0 56 1.5 117.5t3.5 120t4.5 109.5t3.5 85h-9q-7 -20 -17.5 -44.5t-23 -49t-25.5 -47.5t-24 -39z" />
<glyph unicode="5" d="M131 59v172q33 -23 77.5 -41t93.5 -30t98.5 -18.5t91.5 -6.5q79 0 141 18.5t105 57.5t66 98t23 140q0 143 -88 218.5t-256 75.5q-27 0 -58.5 -2.5t-63 -6.5t-60 -8.5t-49.5 -8.5l-90 57l55 688h690v-166h-532l-39 -419q32 6 84.5 13t124.5 7q99 0 184.5 -27.5t149 -81.5 t99.5 -134t36 -185q0 -114 -34 -205t-101 -154t-165.5 -96.5t-226.5 -33.5q-51 0 -100.5 5t-95 14.5t-86.5 24.5t-74 35z" />
<glyph unicode="6" d="M113 625q0 105 10.5 209t37 199.5t72.5 177.5t117 142.5t170 95t232 34.5q19 0 42 -1t46.5 -3.5t45 -6t38.5 -8.5v-155q-35 12 -79 18t-87 6q-90 0 -158.5 -21.5t-118.5 -60.5t-83.5 -93t-54.5 -119.5t-31 -139.5t-13 -154h12q20 36 48.5 67.5t66.5 54t85.5 35.5 t106.5 13q95 0 172 -29.5t131 -86.5t83.5 -139.5t29.5 -188.5q0 -114 -31 -205t-89 -154.5t-140 -97.5t-184 -34q-100 0 -187.5 39t-151.5 119t-101 201t-37 286zM295 506q0 -67 18.5 -133.5t55 -119.5t91.5 -86.5t128 -33.5q60 0 109.5 20.5t85.5 62t55.5 105t19.5 150.5 q0 70 -16.5 125.5t-49.5 94.5t-82.5 60t-115.5 21q-67 0 -122.5 -23.5t-94.5 -61t-60.5 -85.5t-21.5 -96z" />
<glyph unicode="7" d="M90 1296v166h940v-145l-555 -1317h-194l563 1296h-754z" />
<glyph unicode="8" d="M106 373q0 75 22.5 135t60.5 108t90 85t110 65q-49 31 -92 67.5t-74.5 81.5t-50 99.5t-18.5 120.5q0 87 33.5 152.5t90.5 109.5t131.5 66t155.5 22q84 0 158.5 -22t131 -66t89.5 -110t33 -154q0 -67 -20 -121t-55 -97.5t-83 -78t-104 -62.5q58 -31 113.5 -69t99 -85.5 t70 -106.5t26.5 -132q0 -92 -33.5 -166.5t-94 -126.5t-145 -80t-186.5 -28q-110 0 -195.5 27t-144 77.5t-89 123.5t-30.5 165zM285 371q0 -53 16 -97.5t50 -76t86 -49t124 -17.5q70 0 123.5 17.5t89.5 50t54 78.5t18 102q0 52 -19.5 94t-56 78t-87.5 68t-114 63l-30 14 q-126 -60 -190 -137.5t-64 -187.5zM332 1126q0 -57 17.5 -98t48.5 -73t74.5 -57.5t94.5 -49.5q48 22 90.5 48t74 59t49.5 75t18 96q0 101 -63 154t-173 53q-106 0 -168.5 -53t-62.5 -154z" />
<glyph unicode="A" horiz-adv-x="1245" d="M0 0l537 1468h170l538 -1468h-190l-160 453h-545l-162 -453h-188zM410 618h426l-148 424q-6 18 -14.5 44t-17.5 56t-18 62.5t-17 63.5q-7 -31 -16 -64t-18 -63.5t-17.5 -56t-14.5 -42.5z" />
<glyph unicode="B" horiz-adv-x="1272" d="M199 0v1462h399q128 0 225.5 -19.5t163 -63t98.5 -114t33 -173.5q0 -62 -19.5 -116t-56.5 -95t-91.5 -68.5t-123.5 -36.5v-10q69 -12 129.5 -34.5t105.5 -62t71 -99.5t26 -146q0 -100 -32.5 -178.5t-94 -133t-149.5 -83.5t-199 -29h-485zM385 158h266q88 0 147.5 20 t96 56t52.5 86.5t16 111.5q0 56 -16.5 103t-54 80.5t-99.5 52t-154 18.5h-254v-528zM385 842h244q84 0 141 15t92 44.5t50.5 74t15.5 103.5q0 120 -77 172t-243 52h-223v-461z" />
<glyph unicode="C" horiz-adv-x="1235" d="M125 733q0 166 43.5 304t128 237t209.5 154t287 55q108 0 206 -22t177 -64l-78 -156q-63 32 -137 55t-168 23q-107 0 -194 -40.5t-148.5 -116.5t-95 -185t-33.5 -246q0 -141 29.5 -250.5t88.5 -184.5t147 -114t206 -39q89 0 169 17.5t158 40.5v-162q-39 -15 -78 -26.5 t-81.5 -18.5t-91 -10.5t-107.5 -3.5q-164 0 -284 54t-198.5 153t-116.5 238t-38 308z" />
<glyph unicode="D" horiz-adv-x="1401" d="M199 0v1462h407q153 0 277 -46t211 -136.5t134.5 -224.5t47.5 -310q0 -185 -48 -324.5t-139 -233t-223.5 -140.5t-300.5 -47h-366zM385 160h162q264 0 398 146t134 433q0 146 -33 252.5t-96 175.5t-155 102.5t-209 33.5h-201v-1143z" />
<glyph unicode="E" horiz-adv-x="1081" d="M199 0v1462h759v-164h-573v-452h535v-162h-535v-520h573v-164h-759z" />
<glyph unicode="F" horiz-adv-x="1006" d="M199 0v1462h759v-164h-573v-516h535v-164h-535v-618h-186z" />
<glyph unicode="G" horiz-adv-x="1413" d="M125 733q0 172 47.5 311t138.5 236.5t224.5 150t304.5 52.5q111 0 213 -22t190 -64l-72 -162q-36 17 -77.5 32t-85.5 26.5t-90.5 18.5t-92.5 7q-122 0 -216 -40.5t-157.5 -116.5t-96.5 -185t-33 -246q0 -130 27.5 -238t87.5 -186t155 -121t229 -43q44 0 80.5 2.5 t67.5 6.5t58.5 9.5t53.5 10.5v436h-299v164h484v-717q-55 -18 -111 -32t-115 -23.5t-124 -14.5t-140 -5q-157 0 -278 52.5t-204 150t-126 237t-43 313.5z" />
<glyph unicode="I" horiz-adv-x="694" d="M82 0v102l172 41v1176l-172 41v102h530v-102l-172 -41v-1176l172 -41v-102h-530z" />
<glyph unicode="J" horiz-adv-x="555" d="M-184 -205q34 -9 73 -14.5t84 -5.5q37 0 74.5 9.5t68 34.5t49.5 69t19 112v1462h187v-1442q0 -105 -29.5 -182t-82 -127.5t-126 -75t-162.5 -24.5q-51 0 -89 6.5t-66 17.5v160z" />
<glyph unicode="K" horiz-adv-x="1186" d="M199 0v1462h186v-731l121 168l452 563h209l-520 -637l539 -825h-211l-451 698l-139 -114v-584h-186z" />
<glyph unicode="L" horiz-adv-x="1006" d="M199 0v1462h186v-1296h573v-166h-759z" />
<glyph unicode="M" horiz-adv-x="1782" d="M199 0v1462h276l412 -1192h6l414 1192h276v-1462h-186v887q0 52 2 119t5 128q4 71 7 144h-8l-447 -1278h-153l-443 1280h-8q6 -74 10 -147q4 -63 6.5 -132.5t2.5 -126.5v-874h-172z" />
<glyph unicode="N" horiz-adv-x="1493" d="M199 0v1462h213l716 -1204h7q-3 76 -7 150q-1 32 -2.5 65.5l-3 67t-2 64.5t-0.5 57v800h174v-1462h-215l-719 1210h-8q6 -77 10 -153q4 -65 6.5 -136t2.5 -128v-793h-172z" />
<glyph unicode="O" horiz-adv-x="1520" d="M125 735q0 170 38 308.5t117 236.5t199 151.5t283 53.5q155 0 272.5 -53.5t197.5 -152t120.5 -237t40.5 -309.5q0 -169 -40.5 -308t-120.5 -238t-198.5 -153t-273.5 -54q-163 0 -282.5 54t-198 153t-116.5 238.5t-38 309.5zM322 733q0 -137 26 -246.5t79.5 -186t136 -117 t196.5 -40.5t196.5 40.5t136 117t78.5 186t25 246.5q0 138 -25 247t-78 184.5t-135 116t-196 40.5t-197 -40.5t-137 -116t-80 -184.5t-26 -247z" />
<glyph unicode="P" horiz-adv-x="1180" d="M199 0v1462h362q134 0 231 -28.5t160 -83t93 -134.5t30 -182q0 -91 -27.5 -175t-90.5 -148.5t-166.5 -103t-255.5 -38.5h-150v-569h-186zM385 727h129q93 0 162.5 16t115 51.5t68.5 92t23 137.5q0 142 -82 210.5t-256 68.5h-160v-576z" />
<glyph unicode="R" horiz-adv-x="1208" d="M199 0v1462h356q266 0 393 -103t127 -312q0 -87 -24.5 -152t-65 -111.5t-92.5 -77.5t-107 -51l398 -655h-219l-351 604h-229v-604h-186zM385 762h164q90 0 153 17.5t103.5 52t59 86t18.5 120.5q0 72 -20.5 122t-62 82t-105 46.5t-150.5 14.5h-160v-541z" />
<glyph unicode="S" horiz-adv-x="1063" d="M104 49v178q34 -16 77.5 -31.5t91.5 -27.5t99 -19.5t101 -7.5q160 0 236.5 60t76.5 172q0 54 -14.5 94t-51 73.5t-97.5 65t-154 68.5q-89 35 -154.5 76.5t-108 93.5t-63 118t-20.5 150q0 88 32 157t90 116.5t138.5 72.5t177.5 25q119 0 214 -22.5t169 -57.5l-67 -156 q-65 29 -147.5 50.5t-170.5 21.5q-122 0 -189 -56.5t-67 -152.5q0 -57 15 -98.5t50 -75t92.5 -63t141.5 -62.5q91 -36 159.5 -74t114.5 -86t69.5 -111t23.5 -149q0 -97 -34.5 -173.5t-98.5 -129.5t-156 -80.5t-207 -27.5q-111 0 -207.5 17.5t-161.5 51.5z" />
<glyph unicode="T" horiz-adv-x="1063" d="M20 1298v164h1022v-164h-417v-1298h-187v1298h-418z" />
<glyph unicode="V" horiz-adv-x="1163" d="M0 1462h197l295 -927q29 -91 50 -175.5t38 -158.5q15 74 38 158.5t54 181.5l293 921h198l-489 -1462h-187z" />
<glyph unicode="W" horiz-adv-x="1810" d="M20 1462h197l223 -889q12 -46 22 -95.5t18.5 -98.5t15.5 -94.5t12 -83.5q5 37 12.5 86t17.5 103t21.5 109.5t24.5 104.5l225 858h197l229 -856q15 -56 29.5 -112t27 -108.5t22 -99.5t15.5 -85q4 38 10 83t14 94.5t17.5 101t20.5 100.5l200 882h199l-367 -1462h-188 l-254 938q-14 51 -27 105t-24 101q-12 55 -23 107q-11 -51 -22 -106q-10 -47 -22.5 -103t-26.5 -110l-242 -932h-188z" />
<glyph unicode="i" horiz-adv-x="530" d="M160 1395q0 60 30.5 87t75.5 27q22 0 41.5 -6.5t34 -20.5t23 -35.5t8.5 -51.5q0 -58 -31.5 -86.5t-75.5 -28.5q-45 0 -75.5 28t-30.5 87zM174 0v1098h182v-1098h-182z" />
<glyph unicode="n" horiz-adv-x="1206" d="M174 0v1098h148l26 -148h10q25 43 59.5 74.5t75.5 52.5t87 31t94 10q183 0 275.5 -95.5t92.5 -305.5v-717h-182v707q0 130 -52.5 195t-164.5 65q-81 0 -136 -26t-88.5 -77t-48 -125t-14.5 -170v-569h-182z" />
<glyph unicode="t" horiz-adv-x="694" d="M33 961v81l155 78l78 230h105v-252h276v-137h-276v-637q0 -97 31.5 -146t103.5 -49q18 0 40.5 2t43.5 5t38.5 7t26.5 7v-138q-13 -6 -33 -12t-44 -10.5t-50 -7t-51 -2.5q-62 0 -115 16t-91.5 55t-60.5 105.5t-22 167.5v637h-155z" />
<glyph unicode="y" horiz-adv-x="1001" d="M10 1098h189l215 -613q14 -40 28.5 -84t27 -88t21.5 -85t13 -76h6q5 25 16 68t24.5 91.5t28 95.5t25.5 80l199 611h188l-434 -1241q-28 -81 -60.5 -145.5t-75.5 -109.5t-101 -69.5t-138 -24.5q-52 0 -90 5.5t-65 11.5v145q21 -5 53 -8.5t67 -3.5q48 0 83 11.5t61 33.5 t44.5 54t33.5 73l57 160z" />
<glyph unicode="&#x3a9;" horiz-adv-x="1520" d="M78 0v164h354q-64 48 -119.5 115.5t-95.5 151.5t-63 183.5t-23 210.5q0 150 40.5 272t120.5 208t198 133t272 47q155 0 272.5 -47t197.5 -133t120.5 -208t40.5 -272q0 -111 -23 -210.5t-63 -183.5t-95 -151.5t-120 -115.5h354v-164h-592v147q95 65 160.5 140.5t106 161 t58 179t17.5 193.5q0 117 -25 210t-78 157.5t-135 98.5t-196 34t-196 -34t-135 -98.5t-78 -157.5t-25 -210q0 -100 17.5 -193.5t58 -179t106 -161t160.5 -140.5v-147h-592z" />
<glyph unicode="&#x2013;" horiz-adv-x="1024" d="M82 465v168h860v-168h-860z" />
<hkern u1="A" u2="W" k="41" />
<hkern u1="A" u2="V" k="61" />
<hkern u1="A" u2="T" k="123" />
<hkern u1="A" u2="O" k="20" />
<hkern u1="A" u2="G" k="20" />
<hkern u1="A" u2="C" k="20" />
<hkern u1="B" u2="V" k="20" />
<hkern u1="B" u2="T" k="20" />
<hkern u1="B" u2="I" k="20" />
<hkern u1="C" u2="O" k="41" />
<hkern u1="C" u2="G" k="41" />
<hkern u1="C" u2="C" k="41" />
<hkern u1="D" u2="W" k="20" />
<hkern u1="D" u2="V" k="20" />
<hkern u1="D" u2="T" k="61" />
<hkern u1="D" u2="I" k="20" />
<hkern u1="D" u2="A" k="20" />
<hkern u1="F" u2="W" k="-20" />
<hkern u1="F" u2="V" k="-20" />
<hkern u1="F" u2="A" k="41" />
<hkern u1="I" u2="O" k="20" />
<hkern u1="I" u2="G" k="20" />
<hkern u1="I" u2="C" k="20" />
<hkern u1="K" u2="O" k="41" />
<hkern u1="K" u2="G" k="41" />
<hkern u1="K" u2="C" k="41" />
<hkern u1="L" u2="W" k="61" />
<hkern u1="L" u2="V" k="82" />
<hkern u1="L" u2="T" k="123" />
<hkern u1="L" u2="O" k="20" />
<hkern u1="L" u2="G" k="20" />
<hkern u1="L" u2="C" k="20" />
<hkern u1="O" u2="W" k="20" />
<hkern u1="O" u2="V" k="41" />
<hkern u1="O" u2="T" k="61" />
<hkern u1="O" u2="I" k="20" />
<hkern u1="O" u2="A" k="20" />
<hkern u1="P" u2="C" k="20" />
<hkern u1="P" u2="A" k="82" />
<hkern u1="R" u2="T" k="20" />
<hkern u1="T" u2="&#x2013;" k="82" />
<hkern u1="T" u2="y" k="61" />
<hkern u1="T" u2="n" k="82" />
<hkern u1="T" u2="T" k="-20" />
<hkern u1="T" u2="S" k="20" />
<hkern u1="T" u2="O" k="61" />
<hkern u1="T" u2="G" k="61" />
<hkern u1="T" u2="C" k="61" />
<hkern u1="T" u2="A" k="123" />
<hkern u1="V" u2="n" k="41" />
<hkern u1="V" u2="O" k="41" />
<hkern u1="V" u2="G" k="41" />
<hkern u1="V" u2="C" k="41" />
<hkern u1="V" u2="A" k="61" />
<hkern u1="W" u2="n" k="20" />
<hkern u1="W" u2="O" k="20" />
<hkern u1="W" u2="G" k="20" />
<hkern u1="W" u2="C" k="20" />
<hkern u1="W" u2="A" k="41" />
<hkern u1="t" u2="t" k="-20" />
<hkern u1="&#x2013;" u2="T" k="102" />
</font>


  </defs>
  <g
     partID="856100260"
     id="g4"
     transform="translate(-7.1996156,-7.1999107)">
    <g
       transform="translate(140.251,89.5299)"
       id="g6">
      <g
         id="schematic">
        <line
           x1="7.5500202"
           y1="3.096"
           y2="0.21600001"
           class="other"
           x2="8.6300297"
           id="line9"
           style="stroke:#000000;stroke-width:0.43200201;stroke-linecap:round" />
        <line
           x1="8.6300297"
           y1="0.21600001"
           y2="5.9759998"
           class="other"
           x2="10.43"
           id="line11"
           style="stroke:#000000;stroke-width:0.43200201;stroke-linecap:round" />
        <line
           x1="10.43"
           y1="5.9759998"
           y2="0.21600001"
           class="other"
           x2="12.23"
           id="line13"
           style="stroke:#000000;stroke-width:0.43200201;stroke-linecap:round" />
        <line
           x1="12.23"
           y1="0.21600001"
           y2="5.9759998"
           class="other"
           x2="14.03"
           id="line15"
           style="stroke:#000000;stroke-width:0.43200201;stroke-linecap:round" />
        <line
           x1="14.03"
           y1="5.9759998"
           y2="0.21600001"
           class="other"
           x2="15.8301"
           id="line17"
           style="stroke:#000000;stroke-width:0.43200201;stroke-linecap:round" />
        <line
           x1="15.8301"
           y1="0.21600001"
           y2="5.9759998"
           class="other"
           x2="17.6301"
           id="line19"
           style="stroke:#000000;stroke-width:0.43200201;stroke-linecap:round" />
        <line
           x1="17.6301"
           y1="5.9759998"
           y2="0.21600001"
           class="other"
           x2="19.430099"
           id="line21"
           style="stroke:#000000;stroke-width:0.43200201;stroke-linecap:round" />
        <line
           x1="19.430099"
           y1="0.21600001"
           y2="5.9759998"
           class="other"
           x2="21.230101"
           id="line23"
           style="stroke:#000000;stroke-width:0.43200201;stroke-linecap:round" />
        <line
           x1="21.230101"
           y1="5.9759998"
           y2="3.096"
           class="other"
           x2="21.9501"
           id="line25"
           style="stroke:#000000;stroke-width:0.43200201;stroke-linecap:round" />
        <g
           transform="matrix(0.99999744,0,0,0.99999744,-133.05109,-82.6447)"
           partID="856103460"
           id="g653">
          <g
             transform="translate(69.3812,103.531)"
             id="g655">
            <g
               style="font-style:normal;font-weight:normal;font-size:5px;font-family:'Droid Sans';fill:#000000;fill-opacity:1;stroke:none"
               font-size="5"
               font-style="normal"
               font-weight="normal"
               id="g657">
              <text
                 x="0"
                 y="3.75"
                 id="text659"
                 style="line-height:0%">C1</text>
              <text
                 x="0"
                 y="8.75"
                 id="text661"
                 style="line-height:0%"
                 dx="0 0"
                 dy="0 0"
                 rotate="0 0 0">100nF</text>
              <text
                 x="0"
                 y="13.75"
                 id="text663"
                 style="line-height:0%">16V</text>
            </g>
          </g>
        </g>
        <text
           xml:space="preserve"
           style="font-style:normal;font-weight:normal;line-height:0%;font-family:'Droid Sans';letter-spacing:0px;word-spacing:0px;text-anchor:middle;fill:#000000;fill-opacity:1;stroke:none;stroke-width:1px;stroke-linecap:butt;stroke-linejoin:miter;stroke-opacity:1;font-stretch:normal;font-variant:normal"
           x="-112.01722"
           y="-30.232059"
           id="text4499"><tspan
             sodipodi:role="line"
             id="tspan4501"
             x="-112.01722"
             y="-30.232059"
             style="font-size:8px;line-height:1.25;font-family:'Droid Sans';font-weight:normal;font-style:normal;font-stretch:normal;font-variant:normal">+</tspan></text>
        <text
           xml:space="preserve"
           style="font-style:normal;font-weight:normal;line-height:0%;font-family:'Droid Sans';letter-spacing:0px;word-spacing:0px;text-anchor:middle;fill:#000000;fill-opacity:1;stroke:none;stroke-width:1px;stroke-linecap:butt;stroke-linejoin:miter;stroke-opacity:1;font-stretch:normal;font-variant:normal"
           x="-112.01722"
           y="-22.952204"
           id="text4499-3"><tspan
             sodipodi:role="line"
             id="tspan4501-6"
             x="-112.01722"
             y="-22.952204"
             style="font-size:8px;line-height:1.25;font-family:'Droid Sans';font-weight:normal;font-style:normal;font-stretch:normal;font-variant:normal">–</tspan></text>
        <text
           xml:space="preserve"
           style="font-style:normal;font-weight:normal;line-height:0%;font-family:'Droid Sans';letter-spacing:0px;word-spacing:0px;text-anchor:middle;fill:#000000;fill-opacity:1;stroke:none;stroke-width:1px;stroke-linecap:butt;stroke-linejoin:miter;stroke-opacity:1;font-stretch:normal;font-variant:normal"
           x="-122.48228"
           y="-26.951435"
           id="text4521"><tspan
             sodipodi:role="line"
             id="tspan4523"
             x="-122.48228"
             y="-26.951435"
             style="font-size:8px;line-height:1.25;font-family:'Droid Sans';font-weight:normal;font-style:normal;font-stretch:normal;font-variant:normal">5V</tspan></text>
        <text
           xml:space="preserve"
           style="font-style:normal;font-weight:normal;line-height:0%;font-family:'Droid Sans';letter-spacing:0px;word-spacing:0px;text-anchor:middle;fill:#000000;fill-opacity:1;stroke:none;stroke-width:1px;stroke-linecap:butt;stroke-linejoin:miter;stroke-opacity:1;font-stretch:normal;font-variant:normal"
           x="-118.24189"
           y="-39.751427"
           id="text4521-7"><tspan
             sodipodi:role="line"
             id="tspan4523-5"
             x="-118.24189"
             y="-39.751427"
             style="font-size:8px;line-height:1.25;font-family:'Droid Sans';font-weight:normal;font-style:normal;font-stretch:normal;font-variant:normal">PWR</tspan></text>
        <text
           xml:space="preserve"
           style="font-style:normal;font-weight:normal;line-height:0%;font-family:'Droid Sans';letter-spacing:0px;word-spacing:0px;text-anchor:middle;fill:#000000;fill-opacity:1;stroke:none;stroke-width:1px;stroke-linecap:butt;stroke-linejoin:miter;stroke-opacity:1;font-stretch:normal;font-variant:normal"
           x="-119.28228"
           y="5.0485764"
           id="text4521-7-3"><tspan
             sodipodi:role="line"
             id="tspan4523-5-5"
             x="-119.28228"
             y="5.0485764"
             style="font-size:8px;line-height:1.25;font-family:'Droid Sans';font-weight:normal;font-style:normal;font-stretch:normal;font-variant:normal">I2C</tspan></text>
        <text
           xml:space="preserve"
           style="font-style:normal;font-weight:normal;line-height:0%;font-family:'Droid Sans';letter-spacing:0px;word-spacing:0px;text-anchor:middle;fill:#000000;fill-opacity:1;stroke:none;stroke-width:1px;stroke-linecap:butt;stroke-linejoin:miter;stroke-opacity:1;font-stretch:normal;font-variant:normal"
           x="-118.48235"
           y="12.648552"
           id="text4521-7-3-6"><tspan
             sodipodi:role="line"
             id="tspan4523-5-5-2"
             x="-118.48235"
             y="12.648552"
             style="font-size:6.5px;line-height:1.25;font-family:'Droid Sans';font-weight:normal;font-style:normal;font-stretch:normal;font-variant:normal">SCL</tspan></text>
        <text
           xml:space="preserve"
           style="font-style:normal;font-weight:normal;line-height:0%;font-family:'Droid Sans';letter-spacing:0px;word-spacing:0px;text-anchor:middle;fill:#000000;fill-opacity:1;stroke:none;stroke-width:1px;stroke-linecap:butt;stroke-linejoin:miter;stroke-opacity:1;font-stretch:normal;font-variant:normal"
           x="-118.48235"
           y="19.688551"
           id="text4521-7-3-6-9"><tspan
             sodipodi:role="line"
             id="tspan4523-5-5-2-1"
             x="-118.48235"
             y="19.688551"
             style="font-size:6.5px;line-height:1.25;font-family:'Droid Sans';font-weight:normal;font-style:normal;font-stretch:normal;font-variant:normal">SDA</tspan></text>
        <text
           xml:space="preserve"
           style="font-style:normal;font-weight:normal;line-height:0%;font-family:'Droid Sans';letter-spacing:0px;word-spacing:0px;text-anchor:middle;fill:#000000;fill-opacity:1;stroke:none;stroke-width:1px;stroke-linecap:butt;stroke-linejoin:miter;stroke-opacity:1;font-stretch:normal;font-variant:normal"
           x="-118.48235"
           y="27.048555"
           id="text4521-7-3-6-2"><tspan
             sodipodi:role="line"
             id="tspan4523-5-5-2-7"
             x="-118.48235"
             y="27.048555"
             style="font-size:6.5px;line-height:1.25;font-family:'Droid Sans';font-weight:normal;font-style:normal;font-stretch:normal;font-variant:normal">GND</tspan></text>
        <text
           xml:space="preserve"
           style="font-style:normal;font-weight:normal;line-height:0%;font-family:'Droid Sans';letter-spacing:0px;word-spacing:0px;text-anchor:middle;fill:#000000;fill-opacity:1;stroke:none;stroke-width:1px;stroke-linecap:butt;stroke-linejoin:miter;stroke-opacity:1;font-stretch:normal;font-variant:normal"
           x="75.454475"
           y="-9.1594257"
           id="text4521-7-3-0"><tspan
             sodipodi:role="line"
             id="tspan4523-5-5-9"
             x="75.454475"
             y="-9.1594257"
             style="font-size:8px;line-height:1.25;font-family:'Droid Sans';font-weight:normal;font-style:normal;font-stretch:normal;font-variant:normal">I2C</tspan></text>
        <text
           xml:space="preserve"
           style="font-style:normal;font-weight:normal;line-height:0%;font-family:'Droid Sans';letter-spacing:0px;word-spacing:0px;text-anchor:middle;fill:#000000;fill-opacity:1;stroke:none;stroke-width:1px;stroke-linecap:butt;stroke-linejoin:miter;stroke-opacity:1;font-stretch:normal;font-variant:normal"
           x="75.774704"
           y="-1.55945"
           id="text4521-7-3-6-3"><tspan
             sodipodi:role="line"
             id="tspan4523-5-5-2-6"
             x="75.774704"
             y="-1.55945"
             style="font-size:6.5px;line-height:1.25;font-family:'Droid Sans';font-weight:normal;font-style:normal;font-stretch:normal;font-variant:normal">SDL</tspan></text>
        <text
           xml:space="preserve"
           style="font-style:normal;font-weight:normal;line-height:0%;font-family:'Droid Sans';letter-spacing:0px;word-spacing:0px;text-anchor:middle;fill:#000000;fill-opacity:1;stroke:none;stroke-width:1px;stroke-linecap:butt;stroke-linejoin:miter;stroke-opacity:1;font-stretch:normal;font-variant:normal"
           x="75.774704"
           y="5.480546"
           id="text4521-7-3-6-9-0"><tspan
             sodipodi:role="line"
             id="tspan4523-5-5-2-1-6"
             x="75.774704"
             y="5.480546"
             style="font-size:6.5px;line-height:1.25;font-family:'Droid Sans';font-weight:normal;font-style:normal;font-stretch:normal;font-variant:normal">SDA</tspan></text>
        <text
           xml:space="preserve"
           style="font-style:normal;font-weight:normal;line-height:0%;font-family:'Droid Sans';letter-spacing:0px;word-spacing:0px;text-anchor:middle;fill:#000000;fill-opacity:1;stroke:none;stroke-width:1px;stroke-linecap:butt;stroke-linejoin:miter;stroke-opacity:1;font-stretch:normal;font-variant:normal"
           x="75.774704"
           y="12.840551"
           id="text4521-7-3-6-2-2"><tspan
             sodipodi:role="line"
             id="tspan4523-5-5-2-7-6"
             x="75.774704"
             y="12.840551"
             style="font-size:6.5px;line-height:1.25;font-family:'Droid Sans';font-weight:normal;font-style:normal;font-stretch:normal;font-variant:normal">GND</tspan></text>
        <text
           xml:space="preserve"
           style="font-style:normal;font-weight:normal;line-height:0%;font-family:'Droid Sans';letter-spacing:0px;word-spacing:0px;text-anchor:middle;fill:#000000;fill-opacity:1;stroke:none;stroke-width:1px;stroke-linecap:butt;stroke-linejoin:miter;stroke-opacity:1;font-stretch:normal;font-variant:normal"
           x="32.923843"
           y="-73.538612"
           id="text4521-7-3-0-1"><tspan
             sodipodi:role="line"
             id="tspan4523-5-5-9-8"
             x="32.923843"
             y="-73.538612"
             style="font-size:8px;line-height:1.25;font-family:'Droid Sans';font-weight:normal;font-style:normal;font-stretch:normal;font-variant:normal">EEP ADR</tspan></text>
      </g>
    </g>
  </g>
  <g
     partID="856099080"
     id="g35">
    <g
       transform="translate(173.01,27.8261)"
       id="g37">
      <g
         transform="matrix(0,-1,-1,0,0,0)"
         id="g39">
        <g
           id="g41">
          <polyline
             fill="none"
             points="9.898,1.643,14.1,3.6,9.898,5.556"
             stroke-linecap="round"
             stroke-linejoin="round"
             stroke-width="0.7"
             stroke="#000000"
             id="polyline47" />
          <text
             font-size="2.5"
             x="5.0500002"
             class="text"
             y="-0.79533195"
             id="text50"
             transform="scale(1,-1)"
             style="font-size:2.5px;line-height:0%;font-family:'Droid Sans';text-anchor:middle;fill:#000000;stroke:none;stroke-width:0">1</text>
          <polyline
             fill="none"
             points="9.898,8.843,14.1,10.8,9.898,12.756"
             stroke-linecap="round"
             stroke-linejoin="round"
             stroke-width="0.7"
             stroke="#000000"
             id="polyline56" />
          <text
             font-size="2.5"
             x="5.0500002"
             class="text"
             y="-7.969697"
             id="text60"
             transform="scale(1,-1)"
             style="font-size:2.5px;line-height:0%;font-family:'Droid Sans';text-anchor:middle;fill:#000000;stroke:none;stroke-width:0">2</text>
        </g>
      </g>
    </g>
  </g>
  <g
     partID="856079300"
     id="g62">
    <g
       transform="translate(68.6011,34.5496)"
       id="g64">
      <g
         id="g66">
        <g
           fill="none"
           width="0.945"
           height="0.953"
           x="6.728"
           id="g70"
           y="0" />
        <path
           d="M0.5,7.711L13.9,7.711"
           fill="none"
           stroke-linecap="round"
           stroke-width="0.9"
           id="path4098"
           stroke="#000000" />
        <path
           d="M2.732,10.456l8.935,0"
           fill="none"
           stroke-linecap="round"
           stroke-width="0.9"
           id="path4100"
           stroke="#000000" />
        <path
           d="M9.431,13.175L4.967,13.175"
           fill="none"
           stroke-linecap="round"
           stroke-width="0.9"
           id="path4102"
           stroke="#000000" />
      </g>
    </g>
  </g>
  <g
     partID="856084660"
     id="g75">
    <g
       transform="translate(39.8016,110.618)"
       id="g77">
      <g
         transform="matrix(-1,0,0,-1,0,0)"
         id="g79">
        <g
           id="g81">
          <polyline
             fill="none"
             points="9.898,1.643,14.1,3.6,9.898,5.556"
             stroke-linecap="round"
             stroke-linejoin="round"
             stroke-width="0.7"
             stroke="#000000"
             id="polyline87" />
          <text
             font-size="2.5"
             x="-4.7582521"
             class="text"
             y="-0.79533195"
             id="text91"
             transform="scale(-1)"
             style="font-size:2.5px;line-height:0%;font-family:'Droid Sans';text-anchor:middle;fill:#000000;stroke:none;stroke-width:0">1</text>
          <polyline
             fill="none"
             points="9.898,8.843,14.1,10.8,9.898,12.756"
             stroke-linecap="round"
             stroke-linejoin="round"
             stroke-width="0.7"
             stroke="#000000"
             id="polyline97" />
          <text
             font-size="2.5"
             x="-5.0207033"
             class="text"
             y="-7.969697"
             id="text101"
             transform="scale(-1)"
             style="font-size:2.5px;line-height:0%;font-family:'Droid Sans';text-anchor:middle;fill:#000000;stroke:none;stroke-width:0">2</text>
          <g
             fill="none"
             width="0.546"
             height="0.208"
             x="-0.273"
             id="connector2terminal"
             y="17.904" />
          <polyline
             fill="none"
             points="9.898,16.043,14.1,18,9.898,19.956"
             stroke-linecap="round"
             stroke-linejoin="round"
             stroke-width="0.7"
             stroke="#000000"
             id="polyline105" />
          <text
             font-size="2.5"
             x="-5.0011721"
             class="text"
             y="-15.194111"
             id="text109"
             transform="scale(-1)"
             style="font-size:2.5px;line-height:0%;font-family:'Droid Sans';text-anchor:middle;fill:#000000;stroke:none;stroke-width:0">3</text>
        </g>
      </g>
    </g>
  </g>
  <g
     partID="856076220"
     id="g111">
    <g
       transform="translate(39.8016,60.2181)"
       id="g113">
      <g
         transform="matrix(-1,0,0,-1,0,0)"
         id="g115">
        <g
           id="g117">
          <polyline
             fill="none"
             points="9.898,1.643,14.1,3.6,9.898,5.556"
             stroke-linecap="round"
             stroke-linejoin="round"
             stroke-width="0.7"
             stroke="#000000"
             id="polyline123" />
          <text
             font-size="2.5"
             x="-4.7582521"
             class="text"
             y="-0.79533195"
             id="text127"
             transform="scale(-1)"
             style="font-size:2.5px;line-height:0%;font-family:'Droid Sans';text-anchor:middle;fill:#000000;stroke:none;stroke-width:0">1</text>
          <polyline
             fill="none"
             points="9.898,8.843,14.1,10.8,9.898,12.756"
             stroke-linecap="round"
             stroke-linejoin="round"
             stroke-width="0.7"
             stroke="#000000"
             id="polyline133" />
          <text
             font-size="2.5"
             x="-5.0207033"
             class="text"
             y="-7.969697"
             id="text137"
             transform="scale(-1)"
             style="font-size:2.5px;line-height:0%;font-family:'Droid Sans';text-anchor:middle;fill:#000000;stroke:none;stroke-width:0">2</text>
        </g>
      </g>
    </g>
  </g>
  <g
     partID="856079050"
     id="g139">
    <g
       transform="translate(126.609,5.67962)"
       id="g141">
      <g
         transform="matrix(-1,0,0,1,0,0)"
         id="g143">
        <g
           id="g145">
          <rect
             fill="#FFFFFF"
             width="36"
             stroke-linecap="round"
             stroke-linejoin="round"
             height="28.799"
             x="7.607"
             stroke-width="0.9"
             stroke="#000000"
             y="0.547"
             id="rect147" />
          <g
             id="g149"
             transform="matrix(-1,0,0,1,74.01103,0)">
            <g
               transform="translate(32.5801,16.2598)"
               id="g151">
              <text
                 font-size="3.5"
                 id="text153"
                 style="font-size:3.5px;line-height:0%;font-family:'Droid Sans';fill:#000000;font-weight:normal;font-style:normal;font-stretch:normal;font-variant:normal">MOSI</text>
            </g>
          </g>
          <g
             id="g155"
             transform="matrix(-1,0,0,1,29.79074,0)">
            <g
               transform="translate(10.041,23.5723)"
               id="g157">
              <text
                 font-size="3.5"
                 id="text159"
                 style="font-size:3.5px;line-height:0%;font-family:'Droid Sans';fill:#000000;font-weight:normal;font-style:normal;font-stretch:normal;font-variant:normal">RESET</text>
            </g>
          </g>
          <g
             id="g161"
             transform="matrix(-1,0,0,1,26.217254,0)">
            <g
               transform="translate(10.041,16.9165)"
               id="g163">
              <text
                 font-size="3.5"
                 id="text165"
                 style="font-size:3.5px;line-height:0%;font-family:'Droid Sans';fill:#000000;font-weight:normal;font-style:normal;font-stretch:normal;font-variant:normal">SCK</text>
            </g>
          </g>
          <g
             id="g167"
             transform="matrix(-1,0,0,1,28.859344,0)">
            <g
               transform="translate(10.041,8.9966)"
               id="g169">
              <text
                 font-size="3.5"
                 id="text171"
                 style="font-size:3.5px;line-height:0%;font-family:'Droid Sans';fill:#000000;font-weight:normal;font-style:normal;font-stretch:normal;font-variant:normal">MISO</text>
            </g>
          </g>
          <g
             id="g173"
             transform="matrix(-1,0,0,1,78.576161,0)">
            <g
               transform="translate(37.3706,8.9961)"
               id="g175">
              <text
                 font-size="3.5"
                 id="text177"
                 style="font-size:3.5px;line-height:0%;font-family:'Droid Sans';fill:#000000;font-weight:normal;font-style:normal;font-stretch:normal;font-variant:normal">+5</text>
            </g>
          </g>
          <g
             id="g179"
             transform="matrix(-1,0,0,1,75.094414,0)">
            <g
               transform="translate(33.8652,23.2764)"
               id="g181">
              <text
                 font-size="3.5"
                 id="text183"
                 style="font-size:3.5px;line-height:0%;font-family:'Droid Sans';fill:#000000;font-weight:normal;font-style:normal;font-stretch:normal;font-variant:normal">GND</text>
            </g>
          </g>
          <g
             id="g189"
             transform="matrix(-1,0,0,1,7.1926051,0)">
            <g
               transform="translate(3.0537,6.6074)"
               id="g191">
              <text
                 font-size="2.5"
                 id="text193"
                 style="font-size:2.5px;line-height:0%;font-family:'Droid Sans';fill:#000000;font-weight:normal;font-style:normal;font-stretch:normal;font-variant:normal">1</text>
            </g>
          </g>
          <line
             fill="none"
             x1="50.807"
             y1="7.747"
             stroke-linecap="round"
             stroke-linejoin="round"
             stroke-width="0.75"
             id="line195"
             stroke="#000000"
             y2="7.747"
             x2="43.607" />
          <g
             id="g199"
             transform="matrix(-1,0,0,1,94.046856,0)">
            <g
               transform="translate(46.3496,6.6074)"
               id="g201">
              <text
                 font-size="2.5"
                 id="text203"
                 style="font-size:2.5px;line-height:0%;font-family:'Droid Sans';fill:#000000;font-weight:normal;font-style:normal;font-stretch:normal;font-variant:normal">2</text>
            </g>
          </g>
          <g
             id="g209"
             transform="matrix(-1,0,0,1,7.435525,0)">
            <g
               transform="translate(3.0537,13.8066)"
               id="g211">
              <text
                 font-size="2.5"
                 id="text213"
                 style="font-size:2.5px;line-height:0%;font-family:'Droid Sans';fill:#000000;font-weight:normal;font-style:normal;font-stretch:normal;font-variant:normal">3</text>
            </g>
          </g>
          <g
             id="g217"
             transform="matrix(-1,0,0,1,94.05418,0)">
            <g
               transform="translate(46.3496,13.8066)"
               id="g219">
              <text
                 font-size="2.5"
                 id="text221"
                 style="font-size:2.5px;line-height:0%;font-family:'Droid Sans';fill:#000000;font-weight:normal;font-style:normal;font-stretch:normal;font-variant:normal">4</text>
            </g>
          </g>
          <g
             id="g225"
             transform="matrix(-1,0,0,1,7.5051051,0)">
            <g
               transform="translate(3.0537,21.0078)"
               id="g227">
              <text
                 font-size="2.5"
                 id="text229"
                 style="font-size:2.5px;line-height:0%;font-family:'Droid Sans';fill:#000000;font-weight:normal;font-style:normal;font-stretch:normal;font-variant:normal">5</text>
            </g>
          </g>
          <g
             id="g233"
             transform="matrix(-1,0,0,1,94.099346,0)">
            <g
               transform="translate(46.3496,21.0078)"
               id="g235">
              <text
                 font-size="2.5"
                 id="text237"
                 style="font-size:2.5px;line-height:0%;font-family:'Droid Sans';fill:#000000;font-weight:normal;font-style:normal;font-stretch:normal;font-variant:normal">6</text>
            </g>
          </g>
          <g
             transform="matrix(-1,0,0,1,29.11179,10.489597)"
             id="g239">
            <text
               font-size="4.25"
               id="label_4_"
               style="font-size:4.25px;line-height:0%;font-family:'Droid Sans';font-weight:normal;font-style:normal;font-stretch:normal;font-variant:normal"><tspan
                 style="font-size:5px;font-family:'Droid Sans';font-weight:normal;font-style:normal;font-stretch:normal;font-variant:normal"
                 id="tspan7165">AVR</tspan></text>
          </g>
          <g
             transform="matrix(-1,0,0,1,28.565478,14.9463)"
             id="g242">
            <text
               font-size="4.25"
               id="label_1_"
               style="font-size:4.25px;line-height:0%;font-family:'Droid Sans';font-weight:normal;font-style:normal;font-stretch:normal;font-variant:normal"><tspan
                 style="font-size:5px;font-family:'Droid Sans';font-weight:normal;font-style:normal;font-stretch:normal;font-variant:normal"
                 id="tspan7167">SPI</tspan></text>
          </g>
          <g
             transform="matrix(-1,0,0,1,31.099224,19.402369)"
             id="g245">
            <text
               font-size="4.25"
               id="label_2_"
               style="font-size:4.25px;line-height:0%;font-family:'Droid Sans';font-weight:normal;font-style:normal;font-stretch:normal;font-variant:normal"><tspan
                 style="font-size:5px;font-family:'Droid Sans';font-weight:normal;font-style:normal;font-stretch:normal;font-variant:normal"
                 id="tspan7169">PROG</tspan></text>
          </g>
        </g>
      </g>
    </g>
  </g>
  <g
     partID="855998630"
     id="g248">
    <g
       transform="translate(133.409,71.0261)"
       id="g250">
      <g
         transform="matrix(-1,0,0,1,0,0)"
         id="g252">
        <g
           id="g254">
          <rect
             width="28.3496"
             fill="none"
             style="stroke-linecap:round;stroke-linejoin:round"
             height="35.1"
             x="14.4"
             stroke-width="0.9"
             id="rect9"
             stroke="#000000"
             y="0.45" />
          <text
             font-size="3.5"
             style="font-family:'Droid Sans';font-size:3.5px;line-height:0%;text-anchor:middle;fill:#000000;stroke:none"
             x="-28.965336"
             id="text3190"
             y="18.819891"
             transform="scale(-1,1)"><tspan
               style="font-size:5px"
               id="tspan5441">ATtiny</tspan></text>
          <text
             font-size="3.5"
             style="font-family:'Droid Sans';font-size:3.5px;line-height:0%;text-anchor:middle;fill:#000000;stroke:none"
             x="-28.50843"
             id="text3192"
             y="23.61989"
             transform="scale(-1,1)"><tspan
               style="font-size:5px"
               id="tspan5443">45</tspan></text>
          <line
             x1="0.349999"
             fill="none"
             y1="7.20022"
             style="stroke-linecap:round;stroke-linejoin:round"
             stroke-width="0.699998"
             id="line1"
             y2="7.20022"
             stroke="#000000"
             x2="14.4" />
          <text
             font-size="3.5"
             style="font-family:'Droid Sans';font-size:3.5px;line-height:0%;text-anchor:start;fill:#000000;stroke:none"
             x="-29.976025"
             id="label1"
             y="7.9001999"
             transform="scale(-1,1)">PB5/RES</text>
          <text
             font-size="2.5"
             style="font-family:'Droid Sans';font-size:2.5px;line-height:0%;text-anchor:middle;fill:#000000;stroke:none"
             x="-6.8911619"
             id="text1"
             y="6.1502399"
             transform="scale(-1,1)">1</text>
          <line
             x1="-6.9978652"
             y1="14.4"
             style="fill:none;stroke:#000000;stroke-width:0.69999802;stroke-linecap:round;stroke-linejoin:round"
             id="line2"
             y2="14.4"
             x2="14.220559" />
          <text
             font-size="3.5"
             style="font-family:'Droid Sans';font-size:3.5px;line-height:0%;text-anchor:start;fill:#000000;stroke:none"
             x="-22.215527"
             id="label2"
             y="15.1002"
             transform="scale(-1,1)">PB3</text>
          <text
             font-size="2.5"
             style="font-family:'Droid Sans';font-size:2.5px;line-height:0%;text-anchor:middle;fill:#000000;stroke:none"
             x="-7.2195311"
             id="text2"
             y="13.3502"
             transform="scale(-1,1)">2</text>
          <text
             font-size="3.5"
             style="font-family:'Droid Sans';font-size:3.5px;line-height:0%;text-anchor:start;fill:#000000;stroke:none"
             x="-22.364208"
             id="label3"
             y="22.3002"
             transform="scale(-1,1)">PB4</text>
          <text
             font-size="2.5"
             style="font-family:'Droid Sans';font-size:2.5px;line-height:0%;text-anchor:middle;fill:#000000;stroke:none"
             x="-7.149951"
             id="text3"
             y="20.5502"
             transform="scale(-1,1)">3</text>
          <line
             x1="0.349999"
             fill="none"
             y1="28.8"
             style="stroke-linecap:round;stroke-linejoin:round"
             stroke-width="0.699998"
             id="line4"
             y2="28.8"
             stroke="#000000"
             x2="14.4" />
          <text
             font-size="3.5"
             style="font-family:'Droid Sans';font-size:3.5px;line-height:0%;text-anchor:start;fill:#000000;stroke:none"
             x="-22.977734"
             id="label4"
             y="29.500601"
             transform="scale(-1,1)">GND</text>
          <text
             font-size="2.5"
             style="font-family:'Droid Sans';font-size:2.5px;line-height:0%;text-anchor:middle;fill:#000000;stroke:none"
             x="-7.2061033"
             id="text4"
             y="27.7502"
             transform="scale(-1,1)">4</text>
          <text
             font-size="3.5"
             style="font-family:'Droid Sans';font-size:3.5px;line-height:0%;text-anchor:end;fill:#000000;stroke:none"
             x="-35.529438"
             id="label5"
             y="29.4998"
             transform="scale(-1,1)">PB0</text>
          <text
             font-size="2.5"
             style="font-family:'Droid Sans';font-size:2.5px;line-height:0%;text-anchor:middle;fill:#000000;stroke:none"
             x="-50.48637"
             id="text5"
             y="27.75"
             transform="scale(-1,1)">5</text>
          <line
             x1="42.8497"
             fill="none"
             y1="21.6"
             style="stroke-linecap:round;stroke-linejoin:round"
             stroke-width="0.699998"
             id="line6"
             y2="21.6"
             stroke="#000000"
             x2="57.2497" />
          <text
             font-size="3.5"
             style="font-family:'Droid Sans';font-size:3.5px;line-height:0%;text-anchor:end;fill:#000000;stroke:none"
             x="-35.008198"
             id="label6"
             y="22.299999"
             transform="scale(-1,1)">PB1</text>
          <text
             font-size="2.5"
             style="font-family:'Droid Sans';font-size:2.5px;line-height:0%;text-anchor:middle;fill:#000000;stroke:none"
             x="-50.439064"
             id="text6"
             y="20.549999"
             transform="scale(-1,1)">6</text>
          <text
             font-size="3.5"
             style="font-family:'Droid Sans';font-size:3.5px;line-height:0%;text-anchor:end;fill:#000000;stroke:none"
             x="-35.599506"
             id="label7"
             y="15.1"
             transform="scale(-1,1)">PB2</text>
          <text
             font-size="2.5"
             style="font-family:'Droid Sans';font-size:2.5px;line-height:0%;text-anchor:middle;fill:#000000;stroke:none"
             x="-50.382912"
             id="text7"
             y="13.35"
             transform="scale(-1,1)">7</text>
          <text
             font-size="3.5"
             style="font-family:'Droid Sans';font-size:3.5px;line-height:0%;text-anchor:end;fill:#000000;stroke:none"
             x="-34.909077"
             id="label8"
             y="7.8999801"
             transform="scale(-1,1)">VCC</text>
          <text
             font-size="2.5"
             style="font-family:'Droid Sans';font-size:2.5px;line-height:0%;text-anchor:middle;fill:#000000;stroke:none"
             x="-50.39756"
             id="text8"
             y="6.1500201"
             transform="scale(-1,1)">8</text>
        </g>
      </g>
    </g>
  </g>
  <g
     partID="856011800"
     id="g309">
    <g
       transform="translate(176.601,113.75)"
       id="g311">
      <g
         id="g313">
        <g
           fill="none"
           width="0.945"
           height="0.953"
           x="6.728"
           id="g317"
           y="0" />
        <path
           d="M0.5,7.711L13.9,7.711"
           fill="none"
           stroke-linecap="round"
           stroke-width="0.9"
           id="path319"
           stroke="#000000" />
        <path
           d="M2.732,10.456l8.935,0"
           fill="none"
           stroke-linecap="round"
           stroke-width="0.9"
           id="path321"
           stroke="#000000" />
        <path
           d="M9.431,13.175L4.967,13.175"
           fill="none"
           stroke-linecap="round"
           stroke-width="0.9"
           id="path323"
           stroke="#000000" />
      </g>
    </g>
  </g>
  <g
     partID="856099030"
     id="g325">
    <g
       transform="translate(162.201,113.75)"
       id="g327">
      <g
         id="g329">
        <g
           fill="none"
           width="0.945"
           height="0.953"
           x="6.728"
           id="g333"
           y="0" />
        <path
           d="M0.5,7.711L13.9,7.711"
           fill="none"
           stroke-linecap="round"
           stroke-width="0.9"
           id="path335"
           stroke="#000000" />
        <path
           d="M2.732,10.456l8.935,0"
           fill="none"
           stroke-linecap="round"
           stroke-width="0.9"
           id="path337"
           stroke="#000000" />
        <path
           d="M9.431,13.175L4.967,13.175"
           fill="none"
           stroke-linecap="round"
           stroke-width="0.9"
           id="path339"
           stroke="#000000" />
      </g>
    </g>
  </g>
  <g
     partID="856011930"
     id="g341">
    <g
       transform="translate(126.201,113.75)"
       id="g343">
      <g
         id="g345">
        <path
           d="M0.5,7.711L13.9,7.711"
           fill="none"
           stroke-linecap="round"
           stroke-width="0.9"
           id="path351"
           stroke="#000000" />
        <path
           d="M2.732,10.456l8.935,0"
           fill="none"
           stroke-linecap="round"
           stroke-width="0.9"
           id="path353"
           stroke="#000000" />
        <path
           d="M9.431,13.175L4.967,13.175"
           fill="none"
           stroke-linecap="round"
           stroke-width="0.9"
           id="path355"
           stroke="#000000" />
      </g>
    </g>
  </g>
  <g
     partID="856082900"
     id="g357"
     transform="translate(0,-7.1998506)">
    <g
       transform="translate(183.781,103.434)"
       id="g359">
      <g
         transform="scale(1,-1)"
         id="g361">
        <g
           id="g363">
          <line
             x1="0.47711709"
             y1="3.5999999"
             id="line365"
             y2="3.5999999"
             x2="9.9783258"
             style="fill:none;stroke:#000000;stroke-width:0.69999999;stroke-linecap:round;stroke-linejoin:round" />
          <polyline
             points="14.1,5.557,9.928,3.6,14.1,1.643"
             id="polyline369"
             style="fill:none;stroke:#000000;stroke-width:0.69999999;stroke-linecap:round;stroke-linejoin:round" />
          <text
             font-size="2.5"
             x="5.0500002"
             class="text"
             y="-0.79533195"
             id="text373"
             transform="scale(1,-1)"
             style="font-family:'Droid Sans';font-size:2.5px;line-height:0%;text-anchor:middle;fill:#000000;stroke:none;stroke-width:0">1</text>
          <polyline
             points="14.1,12.757,9.928,10.8,14.1,8.843"
             id="polyline379"
             style="fill:none;stroke:#000000;stroke-width:0.69999999;stroke-linecap:round;stroke-linejoin:round" />
          <text
             font-size="2.5"
             x="5.0500002"
             class="text"
             y="-7.969697"
             id="text383"
             transform="scale(1,-1)"
             style="font-family:'Droid Sans';font-size:2.5px;line-height:0%;text-anchor:middle;fill:#000000;stroke:none;stroke-width:0">2</text>
          <line
             x1="0.48241365"
             y1="18"
             id="line385"
             y2="18"
             x2="10.088007"
             style="fill:none;stroke:#000000;stroke-width:0.69999999;stroke-linecap:round;stroke-linejoin:round" />
          <polyline
             points="14.1,19.957,9.928,18,14.1,16.043"
             id="polyline389"
             style="fill:none;stroke:#000000;stroke-width:0.69999999;stroke-linecap:round;stroke-linejoin:round" />
          <text
             font-size="2.5"
             x="5.0500002"
             class="text"
             y="-15.194111"
             id="text393"
             transform="scale(1,-1)"
             style="font-family:'Droid Sans';font-size:2.5px;line-height:0%;text-anchor:middle;fill:#000000;stroke:none;stroke-width:0">3</text>
        </g>
      </g>
    </g>
  </g>
  <g
     partID="856013510"
     id="g395">
    <g
       transform="translate(39.8011,113.75)"
       id="g397">
      <g
         id="g399">
        <g
           fill="none"
           width="0.945"
           height="0.953"
           x="6.728"
           id="g403"
           y="0" />
        <path
           d="M0.5,7.711L13.9,7.711"
           fill="none"
           stroke-linecap="round"
           stroke-width="0.9"
           id="path405"
           stroke="#000000" />
        <path
           d="M2.732,10.456l8.935,0"
           fill="none"
           stroke-linecap="round"
           stroke-width="0.9"
           id="path407"
           stroke="#000000" />
        <path
           d="M9.431,13.175L4.967,13.175"
           fill="none"
           stroke-linecap="round"
           stroke-width="0.9"
           id="path409"
           stroke="#000000" />
      </g>
    </g>
  </g>
  <g
     partID="856100360"
     id="g415"
     transform="matrix(1.5034019,0,0,1.5034019,-92.702561,-53.827994)">
    <line
       x1="190.60249"
       y1="92.626099"
       x2="164.93353"
       y2="92.626099"
       id="line417"
       style="stroke:#000000;stroke-width:0.46560937;stroke-linecap:round" />
  </g>
  <g
     partID="856099490"
     id="g419">
    <line
       x1="169.40199"
       y1="120.97584"
       x2="169.40199"
       y2="14.328288"
       id="line421"
       style="stroke:#000000;stroke-width:0.69999802;stroke-linecap:round" />
  </g>
  <g
     partID="856100190"
     id="g423"
     transform="translate(0,7.2000833)">
    <line
       x1="162.20078"
       y1="85.426102"
       x2="119.37603"
       y2="85.4263"
       id="line425"
       style="stroke:#000000;stroke-width:0.69999796;stroke-linecap:round" />
  </g>
  <g
     partID="856099560"
     id="g427"
     transform="matrix(1.1232388,0,0,1.1232388,-19.989577,-3.3855069)">
    <line
       x1="162.202"
       y1="15.804114"
       x2="162.202"
       y2="85.360504"
       id="line429"
       style="stroke:#000000;stroke-width:0.62319607;stroke-linecap:round" />
  </g>
  <circle
     fill="black"
     cx="54.2187"
     cy="99.8603"
     r="1.44"
     stroke-width="0"
     stroke="none"
     id="circle435" />
  <g
     partID="856083440"
     id="g437">
    <line
       stroke-linecap="round"
       stroke="#000000"
       x1="54.2187"
       y1="20.5662"
       x2="54.2187"
       y2="99.8603"
       stroke-width="0.699998"
       id="line439" />
  </g>
  <g
     partID="856082450"
     id="g441">
    <line
       x1="82.354523"
       y1="20.626101"
       x2="54.219448"
       y2="20.5662"
       id="line443"
       style="stroke:#000000;stroke-width:0.69999802;stroke-linecap:round" />
  </g>
  <g
     partID="856084940"
     id="g445">
    <line
       stroke-linecap="round"
       stroke="#000000"
       x1="68.6018"
       y1="85.3448"
       x2="68.6358"
       y2="56.609"
       stroke-width="0.699998"
       id="line447" />
  </g>
  <circle
     fill="black"
     cx="68.6018"
     cy="85.3448"
     r="1.44"
     stroke-width="0"
     stroke="none"
     id="circle449" />
  <g
     partID="856084890"
     id="g451">
    <line
       stroke-linecap="round"
       stroke="#000000"
       x1="68.6358"
       y1="56.609"
       x2="140.722"
       y2="56.609"
       stroke-width="0.699998"
       id="line453" />
  </g>
  <g
     partID="856084840"
     id="g455">
    <line
       stroke-linecap="round"
       stroke="#000000"
       x1="140.722"
       y1="56.609"
       x2="140.722"
       y2="20.5662"
       stroke-width="0.699998"
       id="line457" />
  </g>
  <g
     partID="856084740"
     id="g459">
    <line
       x1="140.72087"
       y1="20.5662"
       x2="119.53448"
       y2="20.6262"
       id="line461"
       style="stroke:#000000;stroke-width:0.69999808;stroke-linecap:round" />
  </g>
  <g
     partID="856084700"
     id="g463">
    <line
       x1="89.823982"
       y1="85.426102"
       x2="68.606575"
       y2="85.344803"
       id="line465"
       style="stroke:#000000;stroke-width:0.69999802;stroke-linecap:round" />
  </g>
  <circle
     fill="black"
     cx="61.4273"
     cy="49.4004"
     r="1.44"
     stroke-width="0"
     stroke="none"
     id="circle471" />
  <g
     partID="856085030"
     id="g477">
    <line
       stroke-linecap="round"
       stroke="#000000"
       x1="61.4273"
       y1="78.2346"
       x2="61.4273"
       y2="49.4004"
       stroke-width="0.699998"
       id="line479" />
  </g>
  <g
     partID="856084990"
     id="g481">
    <line
       x1="90.171219"
       y1="78.226097"
       x2="61.429783"
       y2="78.234596"
       id="line483"
       style="stroke:#000000;stroke-width:0.69999802;stroke-linecap:round" />
  </g>
  <g
     partID="856086120"
     id="g485"
     transform="translate(0,0.0096)">
    <line
       x1="68.601799"
       y1="85.344803"
       x2="68.635803"
       y2="92.651703"
       id="line487"
       style="stroke:#000000;stroke-width:0.69999802;stroke-linecap:round" />
  </g>
  <g
     partID="856087840"
     id="g489">
    <line
       x1="47.005783"
       y1="107.069"
       x2="26.871128"
       y2="107.01"
       id="line491"
       style="stroke:#000000;stroke-width:0.69999802;stroke-linecap:round" />
  </g>
  <g
     partID="856087990"
     id="g493">
    <line
       x1="89.823029"
       y1="99.860298"
       x2="26.699705"
       y2="99.810097"
       id="line495"
       style="stroke:#000000;stroke-width:0.69999802;stroke-linecap:round" />
  </g>
  <g
     partID="856088060"
     id="g497">
    <line
       x1="68.634651"
       y1="92.651802"
       x2="26.465439"
       y2="92.6101"
       id="line499"
       style="stroke:#000000;stroke-width:0.69999802;stroke-linecap:round" />
  </g>
  <g
     partID="856088270"
     id="g501"
     transform="matrix(1.4872335,0,0,1.4872335,-89.554496,-55.825937)">
    <line
       x1="183.80199"
       y1="118.85183"
       x2="183.80199"
       y2="99.901527"
       id="line503"
       style="stroke:#000000;stroke-width:0.47067121;stroke-linecap:round" />
  </g>
  <g
     partID="856090340"
     id="g505"
     transform="matrix(1,0,0,0.80064101,0,9.8449077)">
    <line
       x1="183.802"
       y1="49.3853"
       x2="183.80099"
       y2="85.426102"
       id="line507"
       style="stroke:#000000;stroke-width:0.78230822;stroke-linecap:round" />
  </g>
  <g
     partID="856090250"
     id="g509">
    <line
       stroke-linecap="round"
       stroke="#000000"
       x1="61.4273"
       y1="49.4004"
       x2="183.802"
       y2="49.3853"
       stroke-width="0.699998"
       id="line511" />
  </g>
  <circle
     fill="black"
     cx="61.4273"
     cy="49.4004"
     r="1.44"
     stroke-width="0"
     stroke="none"
     id="circle513" />
  <g
     partID="856090430"
     id="g515">
    <line
       x1="61.425797"
       y1="49.400398"
       x2="26.695753"
       y2="49.410099"
       id="line517"
       style="stroke:#000000;stroke-width:0.69999802;stroke-linecap:round" />
  </g>
  <g
     partID="856090560"
     id="g519"
     transform="matrix(1.0287914,0,0,1,-1.3534349,0)">
    <line
       x1="47.005806"
       y1="56.609001"
       x2="27.043568"
       y2="56.6101"
       id="line521"
       style="stroke:#000000;stroke-width:0.69013357;stroke-linecap:round" />
  </g>
  <g
     partID="856079890"
     id="g523">
    <line
       x1="133.5123"
       y1="27.7747"
       x2="119.49832"
       y2="27.8256"
       id="line525"
       style="stroke:#000000;stroke-width:0.69999802;stroke-linecap:round" />
  </g>
  <g
     partID="856079230"
     id="g527">
    <line
       stroke-linecap="round"
       stroke="#000000"
       x1="133.402"
       y1="78.2263"
       x2="133.513"
       y2="27.7748"
       stroke-width="0.699998"
       id="line529" />
  </g>
  <g
     partID="856079960"
     id="g531">
    <line
       x1="75.846527"
       y1="27.7747"
       x2="82.503944"
       y2="27.8256"
       id="line533"
       style="stroke:#000000;stroke-width:0.69999802;stroke-linecap:round" />
  </g>
  <g
     partID="856079330"
     id="g535">
    <line
       x1="75.801598"
       y1="41.577549"
       x2="75.844299"
       y2="27.77693"
       id="line537"
       style="stroke:#000000;stroke-width:0.69999808;stroke-linecap:round" />
  </g>
  <g
     partID="856085770"
     id="g539">
    <line
       stroke-linecap="round"
       stroke="#000000"
       x1="47.0102"
       y1="107.069"
       x2="47.0102"
       y2="56.609"
       stroke-width="0.699998"
       id="line541" />
  </g>
  <circle
     fill="black"
     cx="47.0102"
     cy="107.069"
     r="1.44"
     stroke-width="0"
     stroke="none"
     id="circle543" />
  <g
     partID="856076130"
     id="g545">
    <line
       x1="47.001598"
       y1="120.89233"
       x2="47.010201"
       y2="107.0713"
       id="line547"
       style="stroke:#000000;stroke-width:0.69999802;stroke-linecap:round" />
  </g>
  <g
     partID="856085220"
     id="g549">
    <line
       x1="147.92967"
       y1="13.3577"
       x2="119.267"
       y2="13.4266"
       id="line551"
       style="stroke:#000000;stroke-width:0.69999808;stroke-linecap:round" />
  </g>
  <g
     partID="856085170"
     id="g553">
    <line
       stroke-linecap="round"
       stroke="#000000"
       x1="147.93"
       y1="63.8175"
       x2="147.93"
       y2="13.3577"
       stroke-width="0.699998"
       id="line555" />
  </g>
  <g
     partID="856085130"
     id="g557">
    <line
       stroke-linecap="round"
       stroke="#000000"
       x1="75.8444"
       y1="63.8175"
       x2="147.93"
       y2="63.8175"
       stroke-width="0.699998"
       id="line559" />
  </g>
  <g
     partID="856065020"
     id="g561">
    <line
       stroke-linecap="round"
       stroke="#000000"
       x1="75.8016"
       y1="92.6261"
       x2="75.8444"
       y2="63.8175"
       stroke-width="0.699998"
       id="line563" />
  </g>
  <g
     partID="856011960"
     id="g565">
    <line
       x1="133.40199"
       y1="99.827461"
       x2="133.401"
       y2="120.95098"
       id="line567"
       style="stroke:#000000;stroke-width:0.69999802;stroke-linecap:round" />
  </g>
  <g
     partID="855998630"
     id="partLabel">
    <g
       transform="translate(112.776,65.4584)"
       id="g570">
      <g
         font-size="5"
         font-style="normal"
         font-weight="normal"
         fill="#000000"
         font-family="'Droid Sans'"
         id="schematicLabel"
         fill-opacity="1"
         stroke="none">
        <text
           x="0"
           y="3.75"
           id="text573"
           style="line-height:0%">IC1</text>
      </g>
    </g>
  </g>
  <g
     partID="856079050"
     id="g575">
    <g
       transform="translate(114.55,0)"
       id="g577">
      <g
         font-size="5"
         font-style="normal"
         font-weight="normal"
         fill="#000000"
         font-family="'Droid Sans'"
         id="g579"
         fill-opacity="1"
         stroke="none">
        <text
           x="0"
           y="3.75"
           id="text581"
           style="line-height:0%">J4</text>
      </g>
    </g>
  </g>
  <g
     partID="856099080"
     id="g583">
    <g
       transform="translate(174.502,13.86)"
       id="g585">
      <g
         font-size="5"
         font-style="normal"
         font-weight="normal"
         fill="#000000"
         font-family="'Droid Sans'"
         id="g587"
         fill-opacity="1"
         stroke="none">
        <text
           x="0"
           y="3.75"
           id="text589"
           style="line-height:0%">J5</text>
      </g>
    </g>
  </g>
  <g
     partID="856100260"
     id="g591"
     transform="translate(-3.2971737,-25.086103)">
    <g
       transform="translate(143.359,96.7863)"
       id="g593">
      <g
         font-size="5"
         font-style="normal"
         font-weight="normal"
         font-family="'Droid Sans'"
         id="g595"
         style="font-style:normal;font-weight:normal;font-size:5px;font-family:'Droid Sans';fill:#000000;fill-opacity:1;stroke:none">
        <text
           x="0"
           y="3.75"
           id="text597"
           style="line-height:0%">R1</text>
        <text
           x="0"
           y="8.75"
           id="text599"
           style="line-height:0%">120Ω</text>
      </g>
    </g>
  </g>
  <g
     partID="856076220"
     id="g601">
    <g
       transform="translate(31.22,39.8748)"
       id="g603">
      <g
         font-size="5"
         font-style="normal"
         font-weight="normal"
         fill="#000000"
         font-family="'Droid Sans'"
         id="g605"
         fill-opacity="1"
         stroke="none">
        <text
           x="0"
           y="3.75"
           id="text607"
           style="line-height:0%">J1</text>
      </g>
    </g>
  </g>
  <g
     partID="856082900"
     id="g609"
     transform="translate(0,-7.1998506)">
    <g
       transform="translate(193.032,76.2341)"
       id="g611">
      <g
         font-size="5"
         font-style="normal"
         font-weight="normal"
         id="g613"
         style="font-style:normal;font-weight:normal;font-size:5px;font-family:'Droid Sans';fill:#000000;fill-opacity:1;stroke:none">
        <text
           x="0"
           y="3.75"
           id="text615"
           style="line-height:0%">J3</text>
      </g>
    </g>
  </g>
  <g
     partID="856084660"
     id="g617">
    <g
       transform="translate(31.22,83.0748)"
       id="g619">
      <g
         font-size="5"
         font-style="normal"
         font-weight="normal"
         fill="#000000"
         font-family="'Droid Sans'"
         id="g621"
         fill-opacity="1"
         stroke="none">
        <text
           x="0"
           y="3.75"
           id="text623"
           style="line-height:0%">J2</text>
      </g>
    </g>
  </g>
  <g
     transform="matrix(0.99999744,0,0,0.99999744,2.9197445e-4,9.8514523e-5)"
     partID="856103460"
     id="g4-3">
    <g
       transform="translate(55.6414,99.4759)"
       id="g6-6">
      <g
         id="schematic-7">
        <rect
           style="fill:#000000;stroke:none;stroke-width:0;stroke-linecap:round"
           x="0"
           width="11.52"
           height="1.4400001"
           class="other"
           y="11.87"
           id="rect13" />
        <rect
           style="fill:#000000;stroke:none;stroke-width:0;stroke-linecap:round"
           x="0"
           width="11.52"
           height="1.4400001"
           class="other"
           y="8.9899902"
           id="rect15" />
      </g>
    </g>
  </g>
  <g
     transform="matrix(0.99999744,0,0,0.99999744,2.9197445e-4,9.8514523e-5)"
     partID="856103880"
     id="g41-7">
    <g
       transform="translate(54.2011,113.75)"
       id="g43">
      <g
         id="g45-0">
        <path
           style="fill:none;stroke:#000000;stroke-width:0.89999998;stroke-linecap:round"
           inkscape:connector-curvature="0"
           d="m 0.5,7.711 13.4,0"
           id="path4098-9" />
        <path
           style="fill:none;stroke:#000000;stroke-width:0.89999998;stroke-linecap:round"
           inkscape:connector-curvature="0"
           d="m 2.732,10.456 8.935,0"
           id="path4100-3" />
        <path
           style="fill:none;stroke:#000000;stroke-width:0.89999998;stroke-linecap:round"
           inkscape:connector-curvature="0"
           d="m 9.431,13.175 -4.464,0"
           id="path4102-6" />
      </g>
    </g>
  </g>
  <g
     transform="matrix(0.99999744,0,0,0.99999744,2.9197445e-4,9.8514523e-5)"
     partID="856103910"
     id="g473">
    <line
       style="stroke:#000000;stroke-width:0.69999802;stroke-linecap:round"
       x1="61.4016"
       y1="112.57874"
       x2="61.4016"
       y2="121.3486"
       id="line475" />
  </g>
  <g
     transform="matrix(0.99999744,0,0,0.99999744,2.9197445e-4,9.8514523e-5)"
     partID="856104790"
     id="g477-0">
    <line
       style="stroke:#000000;stroke-width:0.69999802;stroke-linecap:round"
       x1="61.490898"
       y1="78.256821"
       x2="61.4016"
       y2="108.73581"
       id="line479-6" />
  </g>
  <circle
     style="fill:#000000;stroke:none;stroke-width:0"
     cx="61.491032"
     cy="78.246109"
     r="1.4399964"
     id="circle497" />
</svg>
