<?xml version='1.0' encoding='UTF-8' standalone='no'?>
<!-- Created with Fritzing (http://www.fritzing.org/) -->
<svg
   xmlns:svg='http://www.w3.org/2000/svg'
   xmlns:dc="http://purl.org/dc/elements/1.1/"
   xmlns:cc="http://creativecommons.org/ns#"
   xmlns:rdf="http://www.w3.org/1999/02/22-rdf-syntax-ns#"
   xmlns='http://www.w3.org/2000/svg'
   version='1.2'
   baseProfile='tiny'
   x='0in'
   y='0in'
   width='1.19685in'
   height='1.1099in'
   viewBox='0 0 86.1732 79.9128' >
<title>WS2812B I2C Slave PCB</title>
<metadata>
  <rdf:RDF>
    <cc:Work
       rdf:about="">
      <dc:format>image/svg+xml</dc:format>
      <dc:type
         rdf:resource="http://purl.org/dc/dcmitype/StillImage" />
      <dc:title>WS2812B I2C Slave PCB</dc:title>
      <dc:date>25-Oct-2020</dc:date>
      <dc:creator>
        <cc:Agent>
          <dc:title>jost.brachert@gmx.de</dc:title>
        </cc:Agent>
      </dc:creator>
      <dc:rights>
        <cc:Agent>
          <dc:title>Copyright 2017-2022 Jost Brachert</dc:title>
        </cc:Agent>
      </dc:rights>
      <cc:license
         rdf:resource="http://creativecommons.org/licenses/by-nc-sa/4.0/" />
    </cc:Work>
    <cc:License
       rdf:about="http://creativecommons.org/licenses/by-nc-sa/4.0/">
      <cc:permits
         rdf:resource="http://creativecommons.org/ns#Reproduction" />
      <cc:permits
         rdf:resource="http://creativecommons.org/ns#Distribution" />
      <cc:requires
         rdf:resource="http://creativecommons.org/ns#Notice" />
      <cc:requires
         rdf:resource="http://creativecommons.org/ns#Attribution" />
      <cc:prohibits
         rdf:resource="http://creativecommons.org/ns#CommercialUse" />
      <cc:permits
         rdf:resource="http://creativecommons.org/ns#DerivativeWorks" />
      <cc:requires
         rdf:resource="http://creativecommons.org/ns#ShareAlike" />
    </cc:License>
  </rdf:RDF>
</metadata>

<defs>
<font id="droid_sansregular" horiz-adv-x="1128" >
<font-face font-family="'Droid Sans'" units-per-em="2048" ascent="1638" descent="-410" />
<missing-glyph horiz-adv-x="532" />
<glyph horiz-adv-x="0" />
<glyph unicode=" "  horiz-adv-x="532" />
<glyph unicode="(" horiz-adv-x="616" d="M82 561q0 125 18 246.5t55 236t93.5 220t134.5 198.5h172q-140 -193 -212.5 -424t-72.5 -475q0 -119 18.5 -237t54 -231t88.5 -219t122 -200h-170q-78 90 -134.5 193t-93.5 215.5t-55 232.5t-18 244z" />
<glyph unicode=")" horiz-adv-x="616" d="M61 1462h172q78 -93 134.5 -198.5t94 -220t55.5 -236t18 -246.5q0 -124 -18 -244t-55.5 -232.5t-94 -215.5t-134.5 -193h-170q69 94 122 200t89 219t54 231t18 237q0 244 -72 475t-213 424z" />
<glyph unicode="+" d="M102 647v150h387v389h150v-389h387v-150h-387v-385h-150v385h-387z" />
<glyph unicode="-" horiz-adv-x="659" d="M82 465v168h496v-168h-496z" />
<glyph unicode="." horiz-adv-x="549" d="M147 111q0 38 10 64.5t27 43t40 24t50 7.5q26 0 49.5 -7.5t40.5 -24t27 -43t10 -64.5q0 -37 -10 -63.5t-27 -43.5t-40.5 -25t-49.5 -8q-27 0 -50 8t-40 25t-27 43.5t-10 63.5z" />
<glyph unicode="0" d="M98 733q0 177 25.5 317t81 236.5t144 147.5t214.5 51q119 0 207 -50.5t146 -147t87 -236.5t29 -318q0 -177 -25.5 -317t-82 -237t-145.5 -148t-216 -51q-118 0 -205.5 51t-145 148t-86 237t-28.5 317zM283 733q0 -150 15 -262t48 -186.5t86.5 -112t130.5 -37.5t131 37 t88.5 111t50 186.5t15.5 263.5q0 150 -15.5 262t-50 186t-88.5 111t-131 37t-130.5 -37t-86.5 -111t-48 -186t-15 -262z" />
<glyph unicode="1" d="M178 1163l383 299h150v-1462h-176v913q0 43 0.5 92t2 97.5t3 93t2.5 78.5q-17 -18 -30 -31t-26.5 -25t-28.5 -25.5t-36 -31.5l-148 -121z" />
<glyph unicode="2" d="M96 0v156l350 381q75 81 134 148t100.5 131t63.5 128.5t22 140.5q0 59 -17 104t-48.5 76.5t-74.5 47.5t-96 16q-95 0 -171.5 -38.5t-145.5 -98.5l-102 119q40 36 86 67.5t99 54.5t112 36.5t124 13.5q96 0 173.5 -27t131.5 -77.5t83.5 -123t29.5 -163.5q0 -85 -26.5 -162 t-73 -151.5t-111 -149.5t-139.5 -156l-281 -299v-8h689v-166h-912z" />
<glyph unicode="3" d="M82 59v170q87 -46 188.5 -71t194.5 -25q92 0 159 20t110.5 57t64 91t20.5 121q0 68 -26.5 116.5t-75.5 80t-119.5 46.5t-159.5 15h-133v151h133q81 0 144 20t105.5 57t64.5 88t22 112q0 52 -18 93t-51 69.5t-79 43.5t-102 15q-107 0 -188.5 -33.5t-155.5 -87.5l-92 125 q38 31 84.5 58t101.5 47.5t117.5 32.5t132.5 12q108 0 189.5 -27t136.5 -75.5t83 -115t28 -145.5q0 -73 -23 -133t-64.5 -104t-99.5 -72.5t-129 -40.5v-6q177 -22 269 -112.5t92 -235.5q0 -96 -32.5 -176t-98.5 -138t-167 -90t-239 -32q-109 0 -205.5 17t-181.5 62z" />
<glyph unicode="4" d="M23 328v159l663 983h188v-976h213v-166h-213v-328h-176v328h-675zM201 494h497v356q0 56 1.5 117.5t3.5 120t4.5 109.5t3.5 85h-9q-7 -20 -17.5 -44.5t-23 -49t-25.5 -47.5t-24 -39z" />
<glyph unicode="5" d="M131 59v172q33 -23 77.5 -41t93.5 -30t98.5 -18.5t91.5 -6.5q79 0 141 18.5t105 57.5t66 98t23 140q0 143 -88 218.5t-256 75.5q-27 0 -58.5 -2.5t-63 -6.5t-60 -8.5t-49.5 -8.5l-90 57l55 688h690v-166h-532l-39 -419q32 6 84.5 13t124.5 7q99 0 184.5 -27.5t149 -81.5 t99.5 -134t36 -185q0 -114 -34 -205t-101 -154t-165.5 -96.5t-226.5 -33.5q-51 0 -100.5 5t-95 14.5t-86.5 24.5t-74 35z" />
<glyph unicode="8" d="M106 373q0 75 22.5 135t60.5 108t90 85t110 65q-49 31 -92 67.5t-74.5 81.5t-50 99.5t-18.5 120.5q0 87 33.5 152.5t90.5 109.5t131.5 66t155.5 22q84 0 158.5 -22t131 -66t89.5 -110t33 -154q0 -67 -20 -121t-55 -97.5t-83 -78t-104 -62.5q58 -31 113.5 -69t99 -85.5 t70 -106.5t26.5 -132q0 -92 -33.5 -166.5t-94 -126.5t-145 -80t-186.5 -28q-110 0 -195.5 27t-144 77.5t-89 123.5t-30.5 165zM285 371q0 -53 16 -97.5t50 -76t86 -49t124 -17.5q70 0 123.5 17.5t89.5 50t54 78.5t18 102q0 52 -19.5 94t-56 78t-87.5 68t-114 63l-30 14 q-126 -60 -190 -137.5t-64 -187.5zM332 1126q0 -57 17.5 -98t48.5 -73t74.5 -57.5t94.5 -49.5q48 22 90.5 48t74 59t49.5 75t18 96q0 101 -63 154t-173 53q-106 0 -168.5 -53t-62.5 -154z" />
<glyph unicode="A" horiz-adv-x="1245" d="M0 0l537 1468h170l538 -1468h-190l-160 453h-545l-162 -453h-188zM410 618h426l-148 424q-6 18 -14.5 44t-17.5 56t-18 62.5t-17 63.5q-7 -31 -16 -64t-18 -63.5t-17.5 -56t-14.5 -42.5z" />
<glyph unicode="B" horiz-adv-x="1272" d="M199 0v1462h399q128 0 225.5 -19.5t163 -63t98.5 -114t33 -173.5q0 -62 -19.5 -116t-56.5 -95t-91.5 -68.5t-123.5 -36.5v-10q69 -12 129.5 -34.5t105.5 -62t71 -99.5t26 -146q0 -100 -32.5 -178.5t-94 -133t-149.5 -83.5t-199 -29h-485zM385 158h266q88 0 147.5 20 t96 56t52.5 86.5t16 111.5q0 56 -16.5 103t-54 80.5t-99.5 52t-154 18.5h-254v-528zM385 842h244q84 0 141 15t92 44.5t50.5 74t15.5 103.5q0 120 -77 172t-243 52h-223v-461z" />
<glyph unicode="C" horiz-adv-x="1235" d="M125 733q0 166 43.5 304t128 237t209.5 154t287 55q108 0 206 -22t177 -64l-78 -156q-63 32 -137 55t-168 23q-107 0 -194 -40.5t-148.5 -116.5t-95 -185t-33.5 -246q0 -141 29.5 -250.5t88.5 -184.5t147 -114t206 -39q89 0 169 17.5t158 40.5v-162q-39 -15 -78 -26.5 t-81.5 -18.5t-91 -10.5t-107.5 -3.5q-164 0 -284 54t-198.5 153t-116.5 238t-38 308z" />
<glyph unicode="D" horiz-adv-x="1401" d="M199 0v1462h407q153 0 277 -46t211 -136.5t134.5 -224.5t47.5 -310q0 -185 -48 -324.5t-139 -233t-223.5 -140.5t-300.5 -47h-366zM385 160h162q264 0 398 146t134 433q0 146 -33 252.5t-96 175.5t-155 102.5t-209 33.5h-201v-1143z" />
<glyph unicode="E" horiz-adv-x="1081" d="M199 0v1462h759v-164h-573v-452h535v-162h-535v-520h573v-164h-759z" />
<glyph unicode="I" horiz-adv-x="694" d="M82 0v102l172 41v1176l-172 41v102h530v-102l-172 -41v-1176l172 -41v-102h-530z" />
<glyph unicode="J" horiz-adv-x="555" d="M-184 -205q34 -9 73 -14.5t84 -5.5q37 0 74.5 9.5t68 34.5t49.5 69t19 112v1462h187v-1442q0 -105 -29.5 -182t-82 -127.5t-126 -75t-162.5 -24.5q-51 0 -89 6.5t-66 17.5v160z" />
<glyph unicode="L" horiz-adv-x="1006" d="M199 0v1462h186v-1296h573v-166h-759z" />
<glyph unicode="N" horiz-adv-x="1493" d="M199 0v1462h213l716 -1204h7q-3 76 -7 150q-1 32 -2.5 65.5l-3 67t-2 64.5t-0.5 57v800h174v-1462h-215l-719 1210h-8q6 -77 10 -153q4 -65 6.5 -136t2.5 -128v-793h-172z" />
<glyph unicode="P" horiz-adv-x="1180" d="M199 0v1462h362q134 0 231 -28.5t160 -83t93 -134.5t30 -182q0 -91 -27.5 -175t-90.5 -148.5t-166.5 -103t-255.5 -38.5h-150v-569h-186zM385 727h129q93 0 162.5 16t115 51.5t68.5 92t23 137.5q0 142 -82 210.5t-256 68.5h-160v-576z" />
<glyph unicode="R" horiz-adv-x="1208" d="M199 0v1462h356q266 0 393 -103t127 -312q0 -87 -24.5 -152t-65 -111.5t-92.5 -77.5t-107 -51l398 -655h-219l-351 604h-229v-604h-186zM385 762h164q90 0 153 17.5t103.5 52t59 86t18.5 120.5q0 72 -20.5 122t-62 82t-105 46.5t-150.5 14.5h-160v-541z" />
<glyph unicode="S" horiz-adv-x="1063" d="M104 49v178q34 -16 77.5 -31.5t91.5 -27.5t99 -19.5t101 -7.5q160 0 236.5 60t76.5 172q0 54 -14.5 94t-51 73.5t-97.5 65t-154 68.5q-89 35 -154.5 76.5t-108 93.5t-63 118t-20.5 150q0 88 32 157t90 116.5t138.5 72.5t177.5 25q119 0 214 -22.5t169 -57.5l-67 -156 q-65 29 -147.5 50.5t-170.5 21.5q-122 0 -189 -56.5t-67 -152.5q0 -57 15 -98.5t50 -75t92.5 -63t141.5 -62.5q91 -36 159.5 -74t114.5 -86t69.5 -111t23.5 -149q0 -97 -34.5 -173.5t-98.5 -129.5t-156 -80.5t-207 -27.5q-111 0 -207.5 17.5t-161.5 51.5z" />
<glyph unicode="V" horiz-adv-x="1163" d="M0 1462h197l295 -927q29 -91 50 -175.5t38 -158.5q15 74 38 158.5t54 181.5l293 921h198l-489 -1462h-187z" />
<glyph unicode="W" horiz-adv-x="1810" d="M20 1462h197l223 -889q12 -46 22 -95.5t18.5 -98.5t15.5 -94.5t12 -83.5q5 37 12.5 86t17.5 103t21.5 109.5t24.5 104.5l225 858h197l229 -856q15 -56 29.5 -112t27 -108.5t22 -99.5t15.5 -85q4 38 10 83t14 94.5t17.5 101t20.5 100.5l200 882h199l-367 -1462h-188 l-254 938q-14 51 -27 105t-24 101q-12 55 -23 107q-11 -51 -22 -106q-10 -47 -22.5 -103t-26.5 -110l-242 -932h-188z" />
<glyph unicode="Y" horiz-adv-x="1079" d="M0 1462h203l336 -739l340 739h200l-446 -893v-569h-187v559z" />
<glyph unicode="a" horiz-adv-x="1087" d="M94 307q0 164 115.5 252t351.5 96l184 7v69q0 67 -14.5 112t-42 72.5t-68 39.5t-92.5 12q-83 0 -154.5 -24t-137.5 -58l-64 137q74 40 165 68t191 28q102 0 176.5 -20.5t123 -65t72.5 -113.5t24 -167v-752h-131l-37 152h-8q-33 -45 -66 -77.5t-72 -53.5t-87 -31t-111 -10 q-69 0 -127 19.5t-100.5 60t-66.5 102t-24 145.5zM283 305q0 -92 48.5 -135t127.5 -43q61 0 113 19t90 57.5t59.5 97t21.5 137.5v99l-143 -7q-90 -4 -151 -20t-97.5 -44.5t-52.5 -69t-16 -91.5z" />
<glyph unicode="c" horiz-adv-x="948" d="M113 543q0 157 38 266.5t104.5 178t155.5 99.5t191 31q78 0 152.5 -17t124.5 -42l-54 -154q-23 10 -51 19.5t-58 17t-59 12t-55 4.5q-157 0 -229 -100.5t-72 -312.5q0 -211 72.5 -308.5t220.5 -97.5q81 0 146.5 18.5t119.5 43.5v-162q-54 -29 -115.5 -44t-150.5 -15 q-101 0 -189 31.5t-153 100t-102 175t-37 256.5z" />
<glyph unicode="e" horiz-adv-x="1096" d="M113 541q0 136 33 243t93 181.5t143.5 113.5t184.5 39q99 0 178 -35.5t134 -100t84.5 -155t29.5 -200.5v-113h-692q5 -193 81.5 -284t227.5 -91q51 0 94.5 5t84 14.5t78.5 24t77 32.5v-162q-40 -19 -78.5 -33t-79 -23t-84 -13t-94.5 -4q-110 0 -201 37t-156.5 108 t-101.5 176t-36 240zM305 662h492q0 68 -13.5 124.5t-42 96.5t-72.5 62t-106 22q-114 0 -180.5 -78t-77.5 -227z" />
<glyph unicode="h" horiz-adv-x="1206" d="M174 0v1556h182v-462l-8 -144h10q25 43 59.5 74.5t75.5 52.5t87 31t94 10q183 0 275.5 -95.5t92.5 -305.5v-717h-182v707q0 130 -52.5 195t-164.5 65q-81 0 -136 -26t-88.5 -77t-48 -125t-14.5 -170v-569h-182z" />
<glyph unicode="l" horiz-adv-x="530" d="M174 0v1556h182v-1556h-182z" />
<glyph unicode="o" horiz-adv-x="1182" d="M113 551q0 136 33.5 241.5t95.5 178t151.5 110t200.5 37.5q103 0 190 -37.5t150.5 -110t99 -178t35.5 -241.5q0 -137 -33.5 -243.5t-96 -179t-151.5 -110.5t-200 -38q-103 0 -190 38t-150.5 110.5t-99 179t-35.5 243.5zM301 551q0 -209 68.5 -314.5t222.5 -105.5 t221.5 105.5t67.5 314.5t-68.5 312.5t-222.5 103.5t-221.5 -103.5t-67.5 -312.5z" />
<glyph unicode="r" horiz-adv-x="817" d="M174 0v1098h148l22 -201h8q25 43 53.5 83t64 70.5t79.5 49t100 18.5q29 0 65 -2.5t62 -7.5l-24 -168q-28 5 -57.5 8.5t-55.5 3.5q-63 0 -115 -25.5t-89.5 -73t-58 -114t-20.5 -147.5v-592h-182z" />
<glyph unicode="s" horiz-adv-x="924" d="M90 49v166q31 -16 69 -31.5t80 -27.5t86.5 -19.5t88.5 -7.5q65 0 110.5 11t74 31.5t41.5 50t13 65.5q0 31 -10 56t-36.5 49.5t-72.5 49.5t-118 56t-129.5 61t-97.5 67t-61.5 85.5t-21.5 115.5q0 70 27.5 124.5t77.5 91.5t120 56t156 19q97 0 177.5 -21t152.5 -55 l-63 -147q-65 29 -133.5 50.5t-139.5 21.5q-102 0 -151 -33.5t-49 -95.5q0 -35 11.5 -61t39.5 -49t75 -46.5t117 -52.5q72 -30 128.5 -60t96.5 -67.5t61 -85.5t21 -115q0 -80 -29 -140t-83.5 -100.5t-131.5 -60.5t-173 -20q-109 0 -187 17.5t-137 51.5z" />
<glyph unicode="t" horiz-adv-x="694" d="M33 961v81l155 78l78 230h105v-252h276v-137h-276v-637q0 -97 31.5 -146t103.5 -49q18 0 40.5 2t43.5 5t38.5 7t26.5 7v-138q-13 -6 -33 -12t-44 -10.5t-50 -7t-51 -2.5q-62 0 -115 16t-91.5 55t-60.5 105.5t-22 167.5v637h-155z" />
<glyph unicode="v" horiz-adv-x="981" d="M0 1098h188l199 -611q11 -33 26 -85t30 -106t27.5 -102t16.5 -73h7q5 25 17 73t27 102t30 106t26 85l199 611h188l-375 -1098h-231z" />
<hkern u1="&#x28;" u2="J" k="-123" />
<hkern u1="&#x2e;" u2="Y" k="102" />
<hkern u1="&#x2e;" u2="W" k="82" />
<hkern u1="&#x2e;" u2="V" k="102" />
<hkern u1="&#x2e;" u2="C" k="61" />
<hkern u1="A" u2="Y" k="102" />
<hkern u1="A" u2="W" k="41" />
<hkern u1="A" u2="V" k="61" />
<hkern u1="A" u2="C" k="20" />
<hkern u1="B" u2="Y" k="20" />
<hkern u1="B" u2="V" k="20" />
<hkern u1="B" u2="I" k="20" />
<hkern u1="C" u2="C" k="41" />
<hkern u1="C" u2="&#x29;" k="-41" />
<hkern u1="D" u2="Y" k="41" />
<hkern u1="D" u2="W" k="20" />
<hkern u1="D" u2="V" k="20" />
<hkern u1="D" u2="I" k="20" />
<hkern u1="D" u2="A" k="20" />
<hkern u1="D" u2="&#x2e;" k="61" />
<hkern u1="I" u2="C" k="20" />
<hkern u1="L" u2="Y" k="102" />
<hkern u1="L" u2="W" k="61" />
<hkern u1="L" u2="V" k="82" />
<hkern u1="L" u2="C" k="20" />
<hkern u1="P" u2="Y" k="20" />
<hkern u1="P" u2="C" k="20" />
<hkern u1="P" u2="A" k="82" />
<hkern u1="P" u2="&#x2e;" k="205" />
<hkern u1="V" u2="s" k="41" />
<hkern u1="V" u2="r" k="41" />
<hkern u1="V" u2="o" k="61" />
<hkern u1="V" u2="e" k="61" />
<hkern u1="V" u2="c" k="61" />
<hkern u1="V" u2="a" k="61" />
<hkern u1="V" u2="C" k="41" />
<hkern u1="V" u2="A" k="61" />
<hkern u1="V" u2="&#x2e;" k="102" />
<hkern u1="W" u2="s" k="41" />
<hkern u1="W" u2="r" k="20" />
<hkern u1="W" u2="o" k="41" />
<hkern u1="W" u2="e" k="41" />
<hkern u1="W" u2="c" k="41" />
<hkern u1="W" u2="a" k="41" />
<hkern u1="W" u2="C" k="20" />
<hkern u1="W" u2="A" k="41" />
<hkern u1="W" u2="&#x2e;" k="82" />
<hkern u1="Y" u2="s" k="82" />
<hkern u1="Y" u2="r" k="61" />
<hkern u1="Y" u2="o" k="102" />
<hkern u1="Y" u2="e" k="102" />
<hkern u1="Y" u2="c" k="102" />
<hkern u1="Y" u2="a" k="102" />
<hkern u1="Y" u2="S" k="20" />
<hkern u1="Y" u2="C" k="41" />
<hkern u1="Y" u2="A" k="102" />
<hkern u1="Y" u2="&#x2e;" k="102" />
<hkern u1="r" u2="a" k="20" />
<hkern u1="t" u2="t" k="-20" />
</font>

</defs>
<g partID='20190'><g transform='translate(0,0.82622)' ><g xmlns="http://www.w3.org/2000/svg" id="board">
 <rect xmlns="http://www.w3.org/2000/svg" width="85.5972" fill="#ffffff" x="0.288" fill-opacity="0.5" id="boardoutline" stroke="#111111" stroke-width="0.576" height="78.5106" y="0.288"/>
</g>
</g></g><g partID='20192'><g transform='translate(0,0.82622)' ><g xmlns="http://www.w3.org/2000/svg" id="silkscreen0">
 <rect xmlns="http://www.w3.org/2000/svg" width="85.5972" fill="none" x="0.288" stroke="#000000" stroke-width="0.576" height="78.5106" y="0.288"/>
</g>
</g></g><g partID='856103460'><g transform='translate(51.1704,16.0054)' ><g xmlns="http://www.w3.org/2000/svg" id="copper0">
 <g xmlns="http://www.w3.org/2000/svg" id="copper1">
  <circle xmlns="http://www.w3.org/2000/svg" fill="none" cx="2.88" cy="2.88" r="1.8" id="connector0pin" stroke="#f7bd13" stroke-width="1.44"/>
  <circle xmlns="http://www.w3.org/2000/svg" fill="none" cx="10.0933" cy="2.88" r="1.8" id="connector1pin" stroke="#f7bd13" stroke-width="1.44"/>
 </g>
</g>
</g></g><g partID='856100260'><g transform='translate(24.3504,50.3854)' ><g xmlns="http://www.w3.org/2000/svg" id="copper0">
 <g xmlns="http://www.w3.org/2000/svg" id="copper1">
  <!-- <rect width="55" x="35" y="35" fill="none" height="55" stroke="rgb(255, 191, 0)" stroke-width="20" /> -->
  <circle xmlns="http://www.w3.org/2000/svg" fill="none" cx="4.5" cy="4.5" r="1.98" id="connector0pin" stroke="rgb(255, 191, 0)" stroke-width="1.44"/>
  <circle xmlns="http://www.w3.org/2000/svg" fill="none" cx="11.7" cy="4.5" r="1.98" id="connector1pin" stroke="rgb(255, 191, 0)" stroke-width="1.44"/>
 </g>
</g>
</g></g><g partID='856099080'><g transform='translate(23.0904,52.7254)' ><g transform='matrix(-1,0,0,-1,0,0)'  ><g xmlns="http://www.w3.org/2000/svg" id="copper0">
 <circle xmlns="http://www.w3.org/2000/svg" fill="none" cx="5.04" cy="5.04" r="2.088" id="connector0pin" stroke="rgb(255, 191, 0)" stroke-width="1.44"/>
 <circle xmlns="http://www.w3.org/2000/svg" fill="none" cx="5.04" cy="12.24" r="2.088" id="connector1pin" stroke="rgb(255, 191, 0)" stroke-width="1.44"/>
</g>
</g></g></g><g partID='856079050'><g transform='translate(65.1388,22.197)' ><g transform='matrix(0,1,-1,0,0,0)'  ><g xmlns="http://www.w3.org/2000/svg" id="copper0">
 <circle xmlns="http://www.w3.org/2000/svg" fill="none" cx="3.888" cy="11.088" r="2.052" connectorname="1" id="connector0pad" stroke="#F7BD13" stroke-width="1.224"/>
 <circle xmlns="http://www.w3.org/2000/svg" fill="none" cx="3.888" cy="3.888" r="2.052" connectorname="2" id="connector1pad" stroke="#F7BD13" stroke-width="1.224"/>
 <circle xmlns="http://www.w3.org/2000/svg" fill="none" cx="11.088" cy="11.808" r="2.052" connectorname="3" id="connector2pad" stroke="#F7BD13" stroke-width="1.224"/>
 <circle xmlns="http://www.w3.org/2000/svg" fill="none" cx="11.088" cy="4.608" r="2.052" connectorname="4" id="connector3pad" stroke="#F7BD13" stroke-width="1.224"/>
 <circle xmlns="http://www.w3.org/2000/svg" fill="none" cx="18.288" cy="11.088" r="2.052" connectorname="5" id="connector4pad" stroke="#F7BD13" stroke-width="1.224"/>
 <circle xmlns="http://www.w3.org/2000/svg" fill="none" cx="18.288" cy="3.888" r="2.052" connectorname="6" id="connector5pad" stroke="#F7BD13" stroke-width="1.224"/>
</g>
</g></g></g><g partID='856084660'><g transform='translate(20.2104,16.7254)' ><g transform='matrix(0,-1,1,0,0,0)'  ><g xmlns="http://www.w3.org/2000/svg" id="copper0">
 <circle xmlns="http://www.w3.org/2000/svg" fill="none" cx="5.04" cy="5.04" r="2.088" id="connector0pin" stroke="rgb(255, 191, 0)" stroke-width="1.44"/>
 <circle xmlns="http://www.w3.org/2000/svg" fill="none" cx="5.04" cy="12.24" r="2.088" id="connector1pin" stroke="rgb(255, 191, 0)" stroke-width="1.44"/>
 <circle xmlns="http://www.w3.org/2000/svg" fill="none" cx="5.04" cy="19.44" r="2.088" id="connector2pin" stroke="rgb(255, 191, 0)" stroke-width="1.44"/>
</g>
</g></g></g><g partID='856076220'><g transform='translate(49.0104,16.7254)' ><g transform='matrix(0,-1,1,0,0,0)'  ><g xmlns="http://www.w3.org/2000/svg" id="copper0">
 <circle xmlns="http://www.w3.org/2000/svg" fill="none" cx="5.04" cy="5.04" r="2.088" id="connector0pin" stroke="rgb(255, 191, 0)" stroke-width="1.44"/>
 <circle xmlns="http://www.w3.org/2000/svg" fill="none" cx="5.04" cy="12.24" r="2.088" id="connector1pin" stroke="rgb(255, 191, 0)" stroke-width="1.44"/>
</g>
</g></g></g><g partID='856049780'><g transform='translate(69.7984,5.83342)' ><g xmlns="http://www.w3.org/2000/svg" id="copper0">
 <circle xmlns="http://www.w3.org/2000/svg" fill="black" cx="5.85197" cy="5.85197" r="4.25197" id="nonconn0" stroke-width="0" stroke="#f9a435"/>
</g>
</g></g><g partID='856049880'><g transform='translate(69.7984,63.4334)' ><g xmlns="http://www.w3.org/2000/svg" id="copper0">
 <circle xmlns="http://www.w3.org/2000/svg" fill="black" cx="5.85197" cy="5.85197" r="4.25197" id="nonconn0" stroke-width="0" stroke="#f9a435"/>
</g>
</g></g><g partID='856049860'><g transform='translate(4.9984,63.4334)' ><g xmlns="http://www.w3.org/2000/svg" id="copper0">
 <circle xmlns="http://www.w3.org/2000/svg" fill="black" cx="5.85197" cy="5.85197" r="4.25197" id="nonconn0" stroke-width="0" stroke="#f9a435"/>
</g>
</g></g><g partID='856049830'><g transform='translate(4.9984,5.83342)' ><g xmlns="http://www.w3.org/2000/svg" id="copper0">
 <circle xmlns="http://www.w3.org/2000/svg" fill="black" cx="5.85197" cy="5.85197" r="4.25197" id="nonconn0" stroke-width="0" stroke="#f9a435"/>
</g>
</g></g><g partID='855998630'><g transform='translate(20.9304,21.7654)' ><g  id="copper0">
 <rect  width="3.96" x="2.34" fill="none" id="square" stroke-width="1.44" stroke="#ffbf00" height="3.96" y="2.34"/>
 <g transform="matrix(1, 0, 0, 1, 0, -28.8)">
  <circle  fill="none" cx="4.32" d="m 87.5,460 c 0,15.18783 -12.312169,27.5 -27.5,27.5 -15.187831,0 -27.5,-12.31217 -27.5,-27.5 0,-15.18783 12.312169,-27.5 27.5,-27.5 15.187831,0 27.5,12.31217 27.5,27.5 z" cy="33.12" r="1.98" id="connector1pin" stroke-width="1.44" stroke="#ffbf00"/>
 </g>
 <g transform="matrix(1, 0, 0, 1, 0, -28.8)">
  <circle  fill="none" cx="4.32" d="m 87.5,560 c 0,15.18783 -12.312169,27.5 -27.5,27.5 -15.187831,0 -27.5,-12.31217 -27.5,-27.5 0,-15.18783 12.312169,-27.5 27.5,-27.5 15.187831,0 27.5,12.31217 27.5,27.5 z" cy="40.32" r="1.98" id="connector2pin" stroke-width="1.44" stroke="#ffbf00"/>
 </g>
 <g transform="matrix(1, 0, 0, 1, 0, -28.8)">
  <circle  fill="none" cx="4.32" d="m 87.5,660 c 0,15.18783 -12.312169,27.5 -27.5,27.5 -15.187831,0 -27.5,-12.31217 -27.5,-27.5 0,-15.18783 12.312169,-27.5 27.5,-27.5 15.187831,0 27.5,12.31217 27.5,27.5 z" cy="47.52" r="1.98" id="connector3pin" stroke-width="1.44" stroke="#ffbf00"/>
 </g>
 <g transform="matrix(1, 0, 0, 1, 0, -28.8)">
  <circle  fill="none" cx="4.32" d="m 87.5,760 c 0,15.18783 -12.312169,27.5 -27.5,27.5 -15.187831,0 -27.5,-12.31217 -27.5,-27.5 0,-15.18783 12.312169,-27.5 27.5,-27.5 15.187831,0 27.5,12.31217 27.5,27.5 z" cy="54.72" r="1.98" id="connector4pin" stroke-width="1.44" stroke="#ffbf00"/>
 </g>
 <g transform="matrix(1, 0, 0, 1, 0, -28.8)">
  <circle  fill="none" cx="25.92" d="m 387.5,760 c 0,15.18783 -12.31217,27.5 -27.5,27.5 -15.18783,0 -27.5,-12.31217 -27.5,-27.5 0,-15.18783 12.31217,-27.5 27.5,-27.5 15.18783,0 27.5,12.31217 27.5,27.5 z" cy="54.72" r="1.98" id="connector5pin" stroke-width="1.44" stroke="#ffbf00"/>
 </g>
 <g transform="matrix(1, 0, 0, 1, 0, -28.8)">
  <circle  fill="none" cx="25.92" d="m 387.5,660 c 0,15.18783 -12.31217,27.5 -27.5,27.5 -15.18783,0 -27.5,-12.31217 -27.5,-27.5 0,-15.18783 12.31217,-27.5 27.5,-27.5 15.18783,0 27.5,12.31217 27.5,27.5 z" cy="47.52" r="1.98" id="connector6pin" stroke-width="1.44" stroke="#ffbf00"/>
 </g>
 <g transform="matrix(1, 0, 0, 1, 0, -28.8)">
  <circle  fill="none" cx="25.92" d="m 387.5,560 c 0,15.18783 -12.31217,27.5 -27.5,27.5 -15.18783,0 -27.5,-12.31217 -27.5,-27.5 0,-15.18783 12.31217,-27.5 27.5,-27.5 15.18783,0 27.5,12.31217 27.5,27.5 z" cy="40.32" r="1.98" id="connector7pin" stroke-width="1.44" stroke="#ffbf00"/>
 </g>
 <g transform="matrix(1, 0, 0, 1, 0, -28.8)">
  <circle  fill="none" cx="25.92" d="m 387.5,460 c 0,15.18783 -12.31217,27.5 -27.5,27.5 -15.18783,0 -27.5,-12.31217 -27.5,-27.5 0,-15.18783 12.31217,-27.5 27.5,-27.5 15.18783,0 27.5,12.31217 27.5,27.5 z" cy="33.12" r="1.98" id="connector8pin" stroke-width="1.44" stroke="#ffbf00"/>
 </g>
</g>
</g></g><g partID='856082900'><g transform='translate(44.6904,57.0454)' ><g transform='matrix(0,1,-1,0,0,0)'  ><g xmlns="http://www.w3.org/2000/svg" id="copper0">
 <circle xmlns="http://www.w3.org/2000/svg" fill="none" cx="5.04" cy="5.04" r="2.088" id="connector0pin" stroke="rgb(255, 191, 0)" stroke-width="1.44"/>
 <circle xmlns="http://www.w3.org/2000/svg" fill="none" cx="5.04" cy="12.24" r="2.088" id="connector1pin" stroke="rgb(255, 191, 0)" stroke-width="1.44"/>
 <circle xmlns="http://www.w3.org/2000/svg" fill="none" cx="5.04" cy="19.44" r="2.088" id="connector2pin" stroke="rgb(255, 191, 0)" stroke-width="1.44"/>
</g>
</g></g></g><g partID='856105000'><line stroke-linecap='round' stroke='#f28a00' x1='54.0504' y1='16.2054' x2='54.0504' y2='14.6534' stroke-width='3.456' /></g><g partID='856105050'><line stroke-linecap='round' stroke='#f28a00' x1='61.2559' y1='14.6534' x2='61.2588' y2='16.2054' stroke-width='3.456' /></g><g partID='856102580'><line stroke-linecap='round' stroke='#f28a00' x1='23.1904' y1='40.4854' x2='20.2184' y2='40.4854' stroke-width='1.728' /></g><g partID='856103080'><line stroke-linecap='round' stroke='#f28a00' x1='32.464' y1='47.639' x2='32.464' y2='40.471' stroke-width='1.728' /></g><g partID='856103050'><line stroke-linecap='round' stroke='#f28a00' x1='32.464' y1='40.471' x2='26.7096' y2='34.7394' stroke-width='1.728' /></g><g partID='856103030'><line stroke-linecap='round' stroke='#f28a00' x1='29.7697' y1='53.0419' x2='32.4643' y2='47.6388' stroke-width='1.728' /></g><g partID='856100680'><line stroke-linecap='round' stroke='#f28a00' x1='35.1291' y1='56.7279' x2='33.42' y2='60.1463' stroke-width='1.728' /></g><g partID='856100010'><line stroke-linecap='round' stroke='#f28a00' x1='22.3904' y1='47.6854' x2='21.0184' y2='47.6854' stroke-width='3.456' /></g><g partID='856098940'><line stroke-linecap='round' stroke='#f28a00' x1='68.404' y1='47.639' x2='68.404' y2='40.471' stroke-width='1.728' /></g><g partID='856086930'><line stroke-linecap='round' stroke='#f28a00' x1='68.404' y1='40.471' x2='62.1853' y2='34.7951' stroke-width='1.728' /></g><g partID='856086870'><line stroke-linecap='round' stroke='#f28a00' x1='48.9104' y1='47.681' x2='68.4038' y2='47.6388' stroke-width='1.728' /></g><g partID='856091540'><line stroke-linecap='round' stroke='#f28a00' x1='39.6136' y1='18.8494' x2='39.632' y2='33.303' stroke-width='1.728' /></g><g partID='856091510'><line stroke-linecap='round' stroke='#f28a00' x1='39.632' y1='33.303' x2='45.3899' y2='39.0326' stroke-width='1.728' /></g><g partID='856087090'><line stroke-linecap='round' stroke='#f28a00' x1='46.864' y1='18.8414' x2='39.6132' y2='18.8493' stroke-width='1.728' /></g><g partID='856087070'><line stroke-linecap='round' stroke='#f28a00' x1='52.4728' y1='24.4953' x2='46.864' y2='18.842' stroke-width='1.728' /></g><g partID='856087170'><line stroke-linecap='round' stroke='#f28a00' x1='51.0904' y1='33.2854' x2='48.9104' y2='33.2854' stroke-width='1.728' /></g><g partID='856092350'><line stroke-linecap='round' stroke='#f28a00' x1='32.464' y1='33.303' x2='32.4515' y2='13.8536' stroke-width='1.728' /></g><g partID='856102550'><line stroke-linecap='round' stroke='#f28a00' x1='39.632' y1='40.471' x2='32.464' y2='33.303' stroke-width='1.728' /></g><g partID='856092300'><line stroke-linecap='round' stroke='#f28a00' x1='39.6144' y1='47.6934' x2='39.6323' y2='40.4708' stroke-width='1.728' /></g><g partID='856092260'><line stroke-linecap='round' stroke='#f28a00' x1='44.7904' y1='47.6877' x2='39.6144' y2='47.6934' stroke-width='1.728' /></g><g partID='856092520'><line stroke-linecap='round' stroke='#f28a00' x1='17.981' y1='11.6382' x2='22.2825' y2='11.6663' stroke-width='3.456' /></g><g partID='856099880'><line stroke-linecap='round' stroke='#f28a00' x1='10.8609' y1='33.303' x2='18.0019' y2='25.9568' stroke-width='3.456' /></g><g partID='856099810'><line stroke-linecap='round' stroke='#f28a00' x1='18.0018' y1='25.9566' x2='17.981' y2='11.6382' stroke-width='3.456' /></g><g partID='856102340'><line stroke-linecap='round' stroke='#f28a00' x1='10.8609' y1='47.639' x2='10.8609' y2='33.3031' stroke-width='3.456' /></g><g partID='856099260'><line stroke-linecap='round' stroke='#f28a00' x1='15.0825' y1='47.6662' x2='10.8608' y2='47.6388' stroke-width='3.456' /></g><g partID='856093310'><line stroke-linecap='round' stroke='#f28a00' x1='18.0409' y1='50.6534' x2='17.981' y2='69.327' stroke-width='3.456' /></g><g partID='856093160'><line stroke-linecap='round' stroke='#f28a00' x1='17.981' y1='69.327' x2='39.6144' y2='69.327' stroke-width='3.456' /></g><g partID='856093010'><line stroke-linecap='round' stroke='#f28a00' x1='39.6144' y1='69.327' x2='39.6358' y2='65.0536' stroke-width='3.456' /></g><g partID='856095980'><line stroke-linecap='round' stroke='#f28a00' x1='25.2577' y1='4.4927' x2='46.8998' y2='4.53137' stroke-width='3.456' /></g><g partID='856095870'><line stroke-linecap='round' stroke='#f28a00' x1='46.9' y1='4.53134' x2='51.9524' y2='9.58619' stroke-width='3.456' /></g><g partID='856095770'><line stroke-linecap='round' stroke='#f28a00' x1='25.2534' y1='8.71742' x2='25.2577' y2='4.49271' stroke-width='3.456' /></g><g partID='856103462'><g transform='translate(51.1704,16.0054)' ><g xmlns="http://www.w3.org/2000/svg" id="copper1">
 <circle xmlns="http://www.w3.org/2000/svg" fill="none" cx="2.88" cy="2.88" r="1.8" id="connector0pin" stroke="#f7bd13" stroke-width="1.44"/>
 <circle xmlns="http://www.w3.org/2000/svg" fill="none" cx="10.0933" cy="2.88" r="1.8" id="connector1pin" stroke="#f7bd13" stroke-width="1.44"/>
</g>
</g></g><g partID='856100262'><g transform='translate(24.3504,50.3854)' ><g xmlns="http://www.w3.org/2000/svg" id="copper1">
 <!-- <rect width="55" x="35" y="35" fill="none" height="55" stroke="rgb(255, 191, 0)" stroke-width="20" /> -->
 <circle xmlns="http://www.w3.org/2000/svg" fill="none" cx="4.5" cy="4.5" r="1.98" id="connector0pin" stroke="rgb(255, 191, 0)" stroke-width="1.44"/>
 <circle xmlns="http://www.w3.org/2000/svg" fill="none" cx="11.7" cy="4.5" r="1.98" id="connector1pin" stroke="rgb(255, 191, 0)" stroke-width="1.44"/>
</g>
</g></g><g partID='856099082'><g transform='translate(23.0904,52.7254)' ><g transform='matrix(-1,0,0,-1,0,0)'  ><g xmlns="http://www.w3.org/2000/svg" id="copper1">
 <g xmlns="http://www.w3.org/2000/svg" id="copper0">
  <circle xmlns="http://www.w3.org/2000/svg" fill="none" cx="5.04" cy="5.04" r="2.088" id="connector0pin" stroke="rgb(255, 191, 0)" stroke-width="1.44"/>
  <circle xmlns="http://www.w3.org/2000/svg" fill="none" cx="5.04" cy="12.24" r="2.088" id="connector1pin" stroke="rgb(255, 191, 0)" stroke-width="1.44"/>
 </g>
</g>
</g></g></g><g partID='856079052'><g transform='translate(65.1388,22.197)' ><g transform='matrix(0,1,-1,0,0,0)'  ><g xmlns="http://www.w3.org/2000/svg" id="copper1">
 <circle xmlns="http://www.w3.org/2000/svg" fill="none" cx="3.888" cy="11.088" r="2.052" connectorname="1" id="connector0pad" stroke="#F7BD13" stroke-width="1.224"/>
 <circle xmlns="http://www.w3.org/2000/svg" fill="none" cx="3.888" cy="3.888" r="2.052" connectorname="2" id="connector1pad" stroke="#F7BD13" stroke-width="1.224"/>
 <circle xmlns="http://www.w3.org/2000/svg" fill="none" cx="11.088" cy="11.808" r="2.052" connectorname="3" id="connector2pad" stroke="#F7BD13" stroke-width="1.224"/>
 <circle xmlns="http://www.w3.org/2000/svg" fill="none" cx="11.088" cy="4.608" r="2.052" connectorname="4" id="connector3pad" stroke="#F7BD13" stroke-width="1.224"/>
 <circle xmlns="http://www.w3.org/2000/svg" fill="none" cx="18.288" cy="11.088" r="2.052" connectorname="5" id="connector4pad" stroke="#F7BD13" stroke-width="1.224"/>
 <circle xmlns="http://www.w3.org/2000/svg" fill="none" cx="18.288" cy="3.888" r="2.052" connectorname="6" id="connector5pad" stroke="#F7BD13" stroke-width="1.224"/>
 <g xmlns="http://www.w3.org/2000/svg" id="copper0">
  <circle xmlns="http://www.w3.org/2000/svg" fill="none" cx="3.888" cy="11.088" r="2.052" connectorname="1" id="connector0pad" stroke="#F7BD13" stroke-width="1.224"/>
  <circle xmlns="http://www.w3.org/2000/svg" fill="none" cx="3.888" cy="3.888" r="2.052" connectorname="2" id="connector1pad" stroke="#F7BD13" stroke-width="1.224"/>
  <circle xmlns="http://www.w3.org/2000/svg" fill="none" cx="11.088" cy="11.808" r="2.052" connectorname="3" id="connector2pad" stroke="#F7BD13" stroke-width="1.224"/>
  <circle xmlns="http://www.w3.org/2000/svg" fill="none" cx="11.088" cy="4.608" r="2.052" connectorname="4" id="connector3pad" stroke="#F7BD13" stroke-width="1.224"/>
  <circle xmlns="http://www.w3.org/2000/svg" fill="none" cx="18.288" cy="11.088" r="2.052" connectorname="5" id="connector4pad" stroke="#F7BD13" stroke-width="1.224"/>
  <circle xmlns="http://www.w3.org/2000/svg" fill="none" cx="18.288" cy="3.888" r="2.052" connectorname="6" id="connector5pad" stroke="#F7BD13" stroke-width="1.224"/>
 </g>
</g>
</g></g></g><g partID='856084662'><g transform='translate(20.2104,16.7254)' ><g transform='matrix(0,-1,1,0,0,0)'  ><g xmlns="http://www.w3.org/2000/svg" id="copper1">
 <g xmlns="http://www.w3.org/2000/svg" id="copper0">
  <circle xmlns="http://www.w3.org/2000/svg" fill="none" cx="5.04" cy="5.04" r="2.088" id="connector0pin" stroke="rgb(255, 191, 0)" stroke-width="1.44"/>
  <circle xmlns="http://www.w3.org/2000/svg" fill="none" cx="5.04" cy="12.24" r="2.088" id="connector1pin" stroke="rgb(255, 191, 0)" stroke-width="1.44"/>
  <circle xmlns="http://www.w3.org/2000/svg" fill="none" cx="5.04" cy="19.44" r="2.088" id="connector2pin" stroke="rgb(255, 191, 0)" stroke-width="1.44"/>
 </g>
</g>
</g></g></g><g partID='856076222'><g transform='translate(49.0104,16.7254)' ><g transform='matrix(0,-1,1,0,0,0)'  ><g xmlns="http://www.w3.org/2000/svg" id="copper1">
 <g xmlns="http://www.w3.org/2000/svg" id="copper0">
  <circle xmlns="http://www.w3.org/2000/svg" fill="none" cx="5.04" cy="5.04" r="2.088" id="connector0pin" stroke="rgb(255, 191, 0)" stroke-width="1.44"/>
  <circle xmlns="http://www.w3.org/2000/svg" fill="none" cx="5.04" cy="12.24" r="2.088" id="connector1pin" stroke="rgb(255, 191, 0)" stroke-width="1.44"/>
 </g>
</g>
</g></g></g><g partID='856049781'><g transform='translate(69.7984,5.83342)' ><g xmlns="http://www.w3.org/2000/svg" id="copper1">
 <circle xmlns="http://www.w3.org/2000/svg" fill="black" cx="5.85197" cy="5.85197" r="4.25197" id="nonconn0" stroke-width="0" stroke="#fdde68"/>
</g>
</g></g><g partID='856049881'><g transform='translate(69.7984,63.4334)' ><g xmlns="http://www.w3.org/2000/svg" id="copper1">
 <circle xmlns="http://www.w3.org/2000/svg" fill="black" cx="5.85197" cy="5.85197" r="4.25197" id="nonconn0" stroke-width="0" stroke="#fdde68"/>
</g>
</g></g><g partID='856049861'><g transform='translate(4.9984,63.4334)' ><g xmlns="http://www.w3.org/2000/svg" id="copper1">
 <circle xmlns="http://www.w3.org/2000/svg" fill="black" cx="5.85197" cy="5.85197" r="4.25197" id="nonconn0" stroke-width="0" stroke="#fdde68"/>
</g>
</g></g><g partID='856049831'><g transform='translate(4.9984,5.83342)' ><g xmlns="http://www.w3.org/2000/svg" id="copper1">
 <circle xmlns="http://www.w3.org/2000/svg" fill="black" cx="5.85197" cy="5.85197" r="4.25197" id="nonconn0" stroke-width="0" stroke="#fdde68"/>
</g>
</g></g><g partID='855998632'><g transform='translate(20.9304,21.7654)' ><g  id="copper1">
 <g  id="copper0">
  <rect  width="3.96" x="2.34" fill="none" id="square" stroke-width="1.44" stroke="#ffbf00" height="3.96" y="2.34"/>
  <g transform="matrix(1, 0, 0, 1, 0, -28.8)">
   <circle  fill="none" cx="4.32" d="m 87.5,460 c 0,15.18783 -12.312169,27.5 -27.5,27.5 -15.187831,0 -27.5,-12.31217 -27.5,-27.5 0,-15.18783 12.312169,-27.5 27.5,-27.5 15.187831,0 27.5,12.31217 27.5,27.5 z" cy="33.12" r="1.98" id="connector1pin" stroke-width="1.44" stroke="#ffbf00"/>
  </g>
  <g transform="matrix(1, 0, 0, 1, 0, -28.8)">
   <circle  fill="none" cx="4.32" d="m 87.5,560 c 0,15.18783 -12.312169,27.5 -27.5,27.5 -15.187831,0 -27.5,-12.31217 -27.5,-27.5 0,-15.18783 12.312169,-27.5 27.5,-27.5 15.187831,0 27.5,12.31217 27.5,27.5 z" cy="40.32" r="1.98" id="connector2pin" stroke-width="1.44" stroke="#ffbf00"/>
  </g>
  <g transform="matrix(1, 0, 0, 1, 0, -28.8)">
   <circle  fill="none" cx="4.32" d="m 87.5,660 c 0,15.18783 -12.312169,27.5 -27.5,27.5 -15.187831,0 -27.5,-12.31217 -27.5,-27.5 0,-15.18783 12.312169,-27.5 27.5,-27.5 15.187831,0 27.5,12.31217 27.5,27.5 z" cy="47.52" r="1.98" id="connector3pin" stroke-width="1.44" stroke="#ffbf00"/>
  </g>
  <g transform="matrix(1, 0, 0, 1, 0, -28.8)">
   <circle  fill="none" cx="4.32" d="m 87.5,760 c 0,15.18783 -12.312169,27.5 -27.5,27.5 -15.187831,0 -27.5,-12.31217 -27.5,-27.5 0,-15.18783 12.312169,-27.5 27.5,-27.5 15.187831,0 27.5,12.31217 27.5,27.5 z" cy="54.72" r="1.98" id="connector4pin" stroke-width="1.44" stroke="#ffbf00"/>
  </g>
  <g transform="matrix(1, 0, 0, 1, 0, -28.8)">
   <circle  fill="none" cx="25.92" d="m 387.5,760 c 0,15.18783 -12.31217,27.5 -27.5,27.5 -15.18783,0 -27.5,-12.31217 -27.5,-27.5 0,-15.18783 12.31217,-27.5 27.5,-27.5 15.18783,0 27.5,12.31217 27.5,27.5 z" cy="54.72" r="1.98" id="connector5pin" stroke-width="1.44" stroke="#ffbf00"/>
  </g>
  <g transform="matrix(1, 0, 0, 1, 0, -28.8)">
   <circle  fill="none" cx="25.92" d="m 387.5,660 c 0,15.18783 -12.31217,27.5 -27.5,27.5 -15.18783,0 -27.5,-12.31217 -27.5,-27.5 0,-15.18783 12.31217,-27.5 27.5,-27.5 15.18783,0 27.5,12.31217 27.5,27.5 z" cy="47.52" r="1.98" id="connector6pin" stroke-width="1.44" stroke="#ffbf00"/>
  </g>
  <g transform="matrix(1, 0, 0, 1, 0, -28.8)">
   <circle  fill="none" cx="25.92" d="m 387.5,560 c 0,15.18783 -12.31217,27.5 -27.5,27.5 -15.18783,0 -27.5,-12.31217 -27.5,-27.5 0,-15.18783 12.31217,-27.5 27.5,-27.5 15.18783,0 27.5,12.31217 27.5,27.5 z" cy="40.32" r="1.98" id="connector7pin" stroke-width="1.44" stroke="#ffbf00"/>
  </g>
  <g transform="matrix(1, 0, 0, 1, 0, -28.8)">
   <circle  fill="none" cx="25.92" d="m 387.5,460 c 0,15.18783 -12.31217,27.5 -27.5,27.5 -15.18783,0 -27.5,-12.31217 -27.5,-27.5 0,-15.18783 12.31217,-27.5 27.5,-27.5 15.18783,0 27.5,12.31217 27.5,27.5 z" cy="33.12" r="1.98" id="connector8pin" stroke-width="1.44" stroke="#ffbf00"/>
  </g>
 </g>
</g>
</g></g><g partID='856082902'><g transform='translate(44.6904,57.0454)' ><g transform='matrix(0,1,-1,0,0,0)'  ><g xmlns="http://www.w3.org/2000/svg" id="copper1">
 <g xmlns="http://www.w3.org/2000/svg" id="copper0">
  <circle xmlns="http://www.w3.org/2000/svg" fill="none" cx="5.04" cy="5.04" r="2.088" id="connector0pin" stroke="rgb(255, 191, 0)" stroke-width="1.44"/>
  <circle xmlns="http://www.w3.org/2000/svg" fill="none" cx="5.04" cy="12.24" r="2.088" id="connector1pin" stroke="rgb(255, 191, 0)" stroke-width="1.44"/>
  <circle xmlns="http://www.w3.org/2000/svg" fill="none" cx="5.04" cy="19.44" r="2.088" id="connector2pin" stroke="rgb(255, 191, 0)" stroke-width="1.44"/>
 </g>
</g>
</g></g></g><g partID='856098910'><line stroke-linecap='round' stroke='#f2c600' x1='68.404' y1='47.639' x2='61.2358' y2='69.2421' stroke-width='3.456' /></g><g partID='856103710'><line stroke-linecap='round' stroke='#f2c600' x1='68.4392' y1='22.5198' x2='68.4045' y2='47.6388' stroke-width='3.456' /></g><g partID='856101490'><line stroke-linecap='round' stroke='#f2c600' x1='63.6547' y1='20.0965' x2='68.4392' y2='22.5202' stroke-width='3.456' /></g><g partID='856096440'><line stroke-linecap='round' stroke='#f2c600' x1='61.236' y1='69.2422' x2='25.2579' y2='69.3342' stroke-width='3.456' /></g><g partID='856096290'><line stroke-linecap='round' stroke='#f2c600' x1='57.6416' y1='62.1158' x2='41.8184' y2='62.0891' stroke-width='1.728' /></g><g partID='856095370'><line stroke-linecap='round' stroke='#f2c600' x1='25.2577' y1='69.3342' x2='25.2534' y2='65.0534' stroke-width='3.456' /></g><g partID='856095140'><line stroke-linecap='round' stroke='#f2c600' x1='60.8818' y1='42.6949' x2='57.6416' y2='62.1158' stroke-width='1.728' /></g><g partID='856094620'><line stroke-linecap='round' stroke='#f2c600' x1='39.6144' y1='26.0606' x2='39.6451' y2='13.8537' stroke-width='1.728' /></g><g partID='856094580'><line stroke-linecap='round' stroke='#f2c600' x1='45.3926' y1='31.8299' x2='39.6142' y2='26.0603' stroke-width='1.728' /></g><g partID='856098850'><line stroke-linecap='round' stroke='#f2c600' x1='28.7976' y1='26.0606' x2='27.3104' y2='26.0712' stroke-width='1.728' /></g><g partID='856098820'><line stroke-linecap='round' stroke='#f2c600' x1='43.22' y1='54.9046' x2='36.0089' y2='47.6935' stroke-width='1.728' /></g><g partID='856098790'><line stroke-linecap='round' stroke='#f2c600' x1='36.0088' y1='33.271' x2='28.7977' y2='26.0599' stroke-width='1.728' /></g><g partID='856096180'><line stroke-linecap='round' stroke='#f2c600' x1='54.036' y1='54.9046' x2='43.2194' y2='54.9046' stroke-width='1.728' /></g><g partID='856096150'><line stroke-linecap='round' stroke='#f2c600' x1='36.0088' y1='47.6934' x2='36.0088' y2='33.2713' stroke-width='1.728' /></g><g partID='856096130'><line stroke-linecap='round' stroke='#f2c600' x1='54.0482' y1='42.7254' x2='54.036' y2='54.9046' stroke-width='1.728' /></g><g partID='856103430'><line stroke-linecap='round' stroke='#f2c600' x1='54.0224' y1='4.52478' x2='59.7099' y2='10.1595' stroke-width='1.728' /></g><g partID='856095700'><line stroke-linecap='round' stroke='#f2c600' x1='46.864' y1='11.683' x2='54.0224' y2='4.52463' stroke-width='1.728' /></g><g partID='856095640'><line stroke-linecap='round' stroke='#f2c600' x1='46.8524' y1='24.0254' x2='46.8644' y2='11.6832' stroke-width='1.728' /></g><g partID='856103461'><g transform='translate(51.1704,16.0054)' ><g  id="silkscreen">
 <g transform="matrix(1, 0, 0, 1, -1.43333, -1.16)">
  <path  fill="none" d="m6.65907,2.30036a1.84667,1.58,0,0,1,2.51037,0.001464" style="stroke-linecap:round;stroke-linejoin:round;stroke-miterlimit:4;stroke-dasharray:none" id="path2830" stroke-opacity="1" stroke-width="0.576" stroke="#003fff"/>
 </g>
 <g transform="matrix(-1, 0, 0, -1, 14.3952, 6.92)">
  <path  fill="none" d="m6.65907,2.30036a1.84667,1.58,0,0,1,2.51037,0.001464" style="stroke-linecap:round;stroke-linejoin:round;stroke-miterlimit:4;stroke-dasharray:none" id="path2830-1" stroke-opacity="1" stroke-width="0.576" stroke="#003fff"/>
 </g>
</g>
</g></g><g partID='856100261'><g transform='translate(24.3504,50.3854)' ><g xmlns="http://www.w3.org/2000/svg" id="silkscreen">
 <circle xmlns="http://www.w3.org/2000/svg" fill="none" cx="4.5" cy="4.5" r="4.104" stroke="#003fff" stroke-width="0.72"/>
 <rect xmlns="http://www.w3.org/2000/svg" width="1.44" fill="white" x="7.38" stroke="#003fff" stroke-width="0.72" height="1.44" y="3.78"/>
</g>
</g></g><g partID='856099081'><g transform='translate(23.0904,52.7254)' ><g transform='matrix(-1,0,0,-1,0,0)'  ><g xmlns="http://www.w3.org/2000/svg" id="silkscreen">
 <line xmlns="http://www.w3.org/2000/svg" x2="1.44" y1="1.44" x1="1.44" y2="15.84" stroke="#003fff" stroke-width="0.72"/>
 <line xmlns="http://www.w3.org/2000/svg" x2="8.64" y1="15.84" x1="1.44" y2="15.84" stroke="#003fff" stroke-width="0.72"/>
 <line xmlns="http://www.w3.org/2000/svg" x2="8.64" y1="15.84" x1="8.64" y2="1.44" stroke="#003fff" stroke-width="0.72"/>
 <line xmlns="http://www.w3.org/2000/svg" x2="1.44" y1="1.44" x1="8.64" y2="1.44" stroke="#003fff" stroke-width="0.72"/>
 <line xmlns="http://www.w3.org/2000/svg" x2="3.96" y1="3.96" x1="1.44" y2="1.44" stroke="#003fff" stroke-width="0.36"/>
 <!-- 120 -->
</g>
</g></g></g><g partID='856100840'><g transform='translate(40.9376,58.8718)' ><g transform='matrix(1,0,0,1,0,0)'  ><g xmlns="http://www.w3.org/2000/svg" id="silkscreen">
 <text xmlns="http://www.w3.org/2000/svg" font-size="3.92489" x="15.6996" fill="#000000" xml:space="preserve" xmlns:xml="http://www.w3.org/XML/1998/namespace" id="label" stroke-width="0" font-family="'Droid Sans'" y="3.5324" text-anchor="middle">Brachert</text>
</g>
</g></g></g><g partID='856100100'><g transform='translate(13.5065,27.0414)' ><g transform='matrix(0,1,-1,0,0,0)'  ><g xmlns="http://www.w3.org/2000/svg" id="silkscreen">
 <text xmlns="http://www.w3.org/2000/svg" font-size="4.361" x="15.2635" fill="#000000" xml:space="preserve" xmlns:xml="http://www.w3.org/XML/1998/namespace" id="label" stroke-width="0" font-family="'Droid Sans'" y="3.9249" text-anchor="middle">EEP ADR</text>
</g>
</g></g></g><g partID='856100820'><g transform='translate(41.4064,67.1502)' ><g transform='matrix(1,0,0,1,0,0)'  ><g xmlns="http://www.w3.org/2000/svg" id="silkscreen">
 <text xmlns="http://www.w3.org/2000/svg" font-size="3.92489" x="13.7371" fill="#000000" xml:space="preserve" xmlns:xml="http://www.w3.org/XML/1998/namespace" id="label" stroke-width="0" font-family="'Droid Sans'" y="3.5324" text-anchor="middle">-SA 4.0</text>
</g>
</g></g></g><g partID='856100770'><g transform='translate(46.8704,49.587)' ><g transform='matrix(1,0,0,1,0,0)'  ><g xmlns="http://www.w3.org/2000/svg" id="silkscreen">
 <text xmlns="http://www.w3.org/2000/svg" font-size="3.92489" x="15.6996" fill="#000000" xml:space="preserve" xmlns:xml="http://www.w3.org/XML/1998/namespace" id="label" stroke-width="0" font-family="'Droid Sans'" y="3.5324" text-anchor="middle">I2CSlave</text>
</g>
</g></g></g><g partID='856096810'><g transform='translate(19.0111,66.8526)' ><g transform='matrix(1,0,0,1,0,0)'  ><g xmlns="http://www.w3.org/2000/svg" id="silkscreen">
 <text xmlns="http://www.w3.org/2000/svg" font-size="4.361" x="8.72201" fill="#000000" xml:space="preserve" xmlns:xml="http://www.w3.org/XML/1998/namespace" id="label" stroke-width="0" font-family="'Droid Sans'" y="3.9249" text-anchor="middle">LEDs</text>
</g>
</g></g></g><g partID='856096660'><g transform='translate(66.0109,40.5048)' ><g transform='matrix(0,-1,1,0,0,0)'  ><g xmlns="http://www.w3.org/2000/svg" id="silkscreen">
 <text xmlns="http://www.w3.org/2000/svg" font-size="4.36099" x="6.54149" fill="#000000" xml:space="preserve" xmlns:xml="http://www.w3.org/XML/1998/namespace" id="label" stroke-width="0" font-family="'Droid Sans'" y="3.9249" text-anchor="middle">ISP</text>
</g>
</g></g></g><g partID='856096640'><g transform='translate(43.6232,3.21486)' ><g transform='matrix(1,0,0,1,0,0)'  ><g xmlns="http://www.w3.org/2000/svg" id="silkscreen">
 <text xmlns="http://www.w3.org/2000/svg" font-size="4.361" x="10.9025" fill="#000000" xml:space="preserve" xmlns:xml="http://www.w3.org/XML/1998/namespace" id="label" stroke-width="0" font-family="'Droid Sans'" y="3.9249" text-anchor="middle">5V- +</text>
</g>
</g></g></g><g partID='856079051'><g transform='translate(65.1388,22.197)' ><g transform='matrix(0,1,-1,0,0,0)'  ><g xmlns="http://www.w3.org/2000/svg" id="silkscreen">
 <line xmlns="http://www.w3.org/2000/svg" x2="2.088" y1="12.888" x1="0.288" y2="14.688" stroke-linecap="round" stroke="#003fff" stroke-width="0.576" class="other"/>
 <line xmlns="http://www.w3.org/2000/svg" x2="7.488" y1="14.688" x1="5.688" y2="12.888" stroke-linecap="round" stroke="#003fff" stroke-width="0.576" class="other"/>
 <line xmlns="http://www.w3.org/2000/svg" x2="9.288" y1="12.888" x1="7.488" y2="14.688" stroke-linecap="round" stroke="#003fff" stroke-width="0.576" class="other"/>
 <line xmlns="http://www.w3.org/2000/svg" x2="14.688" y1="14.688" x1="12.888" y2="12.888" stroke-linecap="round" stroke="#003fff" stroke-width="0.576" class="other"/>
 <line xmlns="http://www.w3.org/2000/svg" x2="16.488" y1="12.888" x1="14.688" y2="14.688" stroke-linecap="round" stroke="#003fff" stroke-width="0.576" class="other"/>
 <line xmlns="http://www.w3.org/2000/svg" x2="21.888" y1="14.688" x1="20.088" y2="12.888" stroke-linecap="round" stroke="#003fff" stroke-width="0.576" class="other"/>
 <line xmlns="http://www.w3.org/2000/svg" x2="0.288" y1="12.888" x1="0.288" y2="2.088" stroke-linecap="round" stroke="#003fff" stroke-width="0.576" class="other"/>
 <line xmlns="http://www.w3.org/2000/svg" x2="2.088" y1="2.088" x1="0.288" y2="0.288" stroke-linecap="round" stroke="#003fff" stroke-width="0.576" class="other"/>
 <line xmlns="http://www.w3.org/2000/svg" x2="5.688" y1="0.288" x1="2.088" y2="0.288" stroke-linecap="round" stroke="#003fff" stroke-width="0.576" class="other"/>
 <line xmlns="http://www.w3.org/2000/svg" x2="7.488" y1="0.288" x1="5.688" y2="2.088" stroke-linecap="round" stroke="#003fff" stroke-width="0.576" class="other"/>
 <line xmlns="http://www.w3.org/2000/svg" x2="9.288" y1="2.088" x1="7.488" y2="0.288" stroke-linecap="round" stroke="#003fff" stroke-width="0.576" class="other"/>
 <line xmlns="http://www.w3.org/2000/svg" x2="12.888" y1="0.288" x1="9.288" y2="0.288" stroke-linecap="round" stroke="#003fff" stroke-width="0.576" class="other"/>
 <line xmlns="http://www.w3.org/2000/svg" x2="14.688" y1="0.288" x1="12.888" y2="2.088" stroke-linecap="round" stroke="#003fff" stroke-width="0.576" class="other"/>
 <line xmlns="http://www.w3.org/2000/svg" x2="16.488" y1="2.088" x1="14.688" y2="0.288" stroke-linecap="round" stroke="#003fff" stroke-width="0.576" class="other"/>
 <line xmlns="http://www.w3.org/2000/svg" x2="20.088" y1="0.288" x1="16.488" y2="0.288" stroke-linecap="round" stroke="#003fff" stroke-width="0.576" class="other"/>
 <line xmlns="http://www.w3.org/2000/svg" x2="21.888" y1="0.288" x1="20.088" y2="2.088" stroke-linecap="round" stroke="#003fff" stroke-width="0.576" class="other"/>
 <line xmlns="http://www.w3.org/2000/svg" x2="7.488" y1="2.088" x1="7.488" y2="12.888" stroke-linecap="round" stroke="#003fff" stroke-width="0.576" class="other"/>
 <line xmlns="http://www.w3.org/2000/svg" x2="14.688" y1="2.088" x1="14.688" y2="12.888" stroke-linecap="round" stroke="#003fff" stroke-width="0.576" class="other"/>
 <line xmlns="http://www.w3.org/2000/svg" x2="21.888" y1="2.088" x1="21.888" y2="12.888" stroke-linecap="round" stroke="#003fff" stroke-width="0.576" class="other"/>
 <line xmlns="http://www.w3.org/2000/svg" x2="20.088" y1="14.688" x1="16.488" y2="14.688" stroke-linecap="round" stroke="#003fff" stroke-width="0.576" class="other"/>
 <line xmlns="http://www.w3.org/2000/svg" x2="12.888" y1="14.688" x1="9.288" y2="14.688" stroke-linecap="round" stroke="#003fff" stroke-width="0.576" class="other"/>
 <line xmlns="http://www.w3.org/2000/svg" x2="5.688" y1="14.688" x1="2.088" y2="14.688" stroke-linecap="round" stroke="#003fff" stroke-width="0.576" class="other"/>
 <line xmlns="http://www.w3.org/2000/svg" x2="2.088" y1="15.6376" x1="5.688" y2="15.6376" stroke-linecap="round" stroke="#003fff" stroke-width="0.576" class="other"/>
</g>
</g></g></g><g partID='856084661'><g transform='translate(20.2104,16.7254)' ><g transform='matrix(0,-1,1,0,0,0)'  ><g xmlns="http://www.w3.org/2000/svg" id="silkscreen">
 <line xmlns="http://www.w3.org/2000/svg" x2="1.44" y1="1.44" x1="1.44" y2="23.04" stroke="#003fff" stroke-width="0.72"/>
 <line xmlns="http://www.w3.org/2000/svg" x2="8.64" y1="23.04" x1="1.44" y2="23.04" stroke="#003fff" stroke-width="0.72"/>
 <line xmlns="http://www.w3.org/2000/svg" x2="8.64" y1="23.04" x1="8.64" y2="1.44" stroke="#003fff" stroke-width="0.72"/>
 <line xmlns="http://www.w3.org/2000/svg" x2="1.44" y1="1.44" x1="8.64" y2="1.44" stroke="#003fff" stroke-width="0.72"/>
 <line xmlns="http://www.w3.org/2000/svg" x2="3.96" y1="3.96" x1="1.44" y2="1.44" stroke="#003fff" stroke-width="0.36"/>
 <!-- 120 -->
</g>
</g></g></g><g partID='856076221'><g transform='translate(49.0104,16.7254)' ><g transform='matrix(0,-1,1,0,0,0)'  ><g xmlns="http://www.w3.org/2000/svg" id="silkscreen">
 <line xmlns="http://www.w3.org/2000/svg" x2="1.44" y1="1.44" x1="1.44" y2="15.84" stroke="#003fff" stroke-width="0.72"/>
 <line xmlns="http://www.w3.org/2000/svg" x2="8.64" y1="15.84" x1="1.44" y2="15.84" stroke="#003fff" stroke-width="0.72"/>
 <line xmlns="http://www.w3.org/2000/svg" x2="8.64" y1="15.84" x1="8.64" y2="1.44" stroke="#003fff" stroke-width="0.72"/>
 <line xmlns="http://www.w3.org/2000/svg" x2="1.44" y1="1.44" x1="8.64" y2="1.44" stroke="#003fff" stroke-width="0.72"/>
 <line xmlns="http://www.w3.org/2000/svg" x2="3.96" y1="3.96" x1="1.44" y2="1.44" stroke="#003fff" stroke-width="0.36"/>
 <!-- 120 -->
</g>
</g></g></g><g partID='856096620'><g transform='translate(19.1827,2.67406)' ><g transform='matrix(1,0,0,1,0,0)'  ><g xmlns="http://www.w3.org/2000/svg" id="silkscreen">
 <text xmlns="http://www.w3.org/2000/svg" font-size="4.36099" x="6.54149" fill="#000000" xml:space="preserve" xmlns:xml="http://www.w3.org/XML/1998/namespace" id="label" stroke-width="0" font-family="'Droid Sans'" y="3.9249" text-anchor="middle">I2C</text>
</g>
</g></g></g><g partID='856096600'><g transform='translate(40.2464,63.179)' ><g transform='matrix(1,0,0,1,0,0)'  ><g xmlns="http://www.w3.org/2000/svg" id="silkscreen">
 <text xmlns="http://www.w3.org/2000/svg" font-size="3.92489" x="17.662" fill="#000000" xml:space="preserve" xmlns:xml="http://www.w3.org/XML/1998/namespace" id="label" stroke-width="0" font-family="'Droid Sans'" y="3.5324" text-anchor="middle">CC BY-NC-</text>
</g>
</g></g></g><g partID='856096580'><g transform='translate(40.712,54.8822)' ><g transform='matrix(1,0,0,1,0,0)'  ><g xmlns="http://www.w3.org/2000/svg" id="silkscreen">
 <text xmlns="http://www.w3.org/2000/svg" font-size="3.92489" x="13.7371" fill="#000000" xml:space="preserve" xmlns:xml="http://www.w3.org/XML/1998/namespace" id="label" stroke-width="0" font-family="'Droid Sans'" y="3.5324" text-anchor="middle">(C)Jost</text>
</g>
</g></g></g><g partID='856068310'><g transform='translate(47.5976,45.4286)' ><g transform='matrix(1,0,0,1,0,0)'  ><g xmlns="http://www.w3.org/2000/svg" id="silkscreen">
 <text xmlns="http://www.w3.org/2000/svg" font-size="3.92489" x="13.7371" fill="#000000" xml:space="preserve" xmlns:xml="http://www.w3.org/XML/1998/namespace" id="label" stroke-width="0" font-family="'Droid Sans'" y="3.5324" text-anchor="middle">WS2812B</text>
</g>
</g></g></g><g partID='855998631'><g transform='translate(20.9304,21.7654)' ><g xmlns="http://www.w3.org/2000/svg" id="silkscreen">
 <line xmlns="http://www.w3.org/2000/svg" x2="0.72" y1="0.669801" x1="0.72" y2="29.5707" id="line28" stroke-width="0.72" stroke="#003fff"/>
 <line xmlns="http://www.w3.org/2000/svg" x2="29.52" y1="29.52" x1="0.72" y2="29.52" id="line30" stroke-width="0.72" stroke="#003fff"/>
 <line xmlns="http://www.w3.org/2000/svg" x2="29.52" y1="29.5707" x1="29.52" y2="0.669801" id="line32" stroke-width="0.72" stroke="#003fff"/>
 <line xmlns="http://www.w3.org/2000/svg" x2="11.52" y1="0.72" x1="0.72" y2="0.72" id="line34" stroke-width="0.72" stroke="#003fff"/>
 <line xmlns="http://www.w3.org/2000/svg" x2="29.52" y1="0.72" x1="18.72" y2="0.72" id="line36" stroke-width="0.72" stroke="#003fff"/>
</g>
</g></g><g partID='20191'><g transform='translate(0,0.82622)' ><g xmlns="http://www.w3.org/2000/svg" id="silkscreen">
 <rect xmlns="http://www.w3.org/2000/svg" width="85.5972" fill="none" x="0.288" stroke="#000000" stroke-width="0.576" height="78.5106" y="0.288"/>
</g>
</g></g><g partID='856082901'><g transform='translate(44.6904,57.0454)' ><g transform='matrix(0,1,-1,0,0,0)'  ><g xmlns="http://www.w3.org/2000/svg" id="silkscreen">
 <line xmlns="http://www.w3.org/2000/svg" x2="1.44" y1="1.44" x1="1.44" y2="23.04" stroke="#003fff" stroke-width="0.72"/>
 <line xmlns="http://www.w3.org/2000/svg" x2="8.64" y1="23.04" x1="1.44" y2="23.04" stroke="#003fff" stroke-width="0.72"/>
 <line xmlns="http://www.w3.org/2000/svg" x2="8.64" y1="23.04" x1="8.64" y2="1.44" stroke="#003fff" stroke-width="0.72"/>
 <line xmlns="http://www.w3.org/2000/svg" x2="1.44" y1="1.44" x1="8.64" y2="1.44" stroke="#003fff" stroke-width="0.72"/>
 <line xmlns="http://www.w3.org/2000/svg" x2="3.96" y1="3.96" x1="1.44" y2="1.44" stroke="#003fff" stroke-width="0.36"/>
 <!-- 120 -->
</g>
</g></g></g><g partID='855998630' id='partLabel'><g transform='translate(43.876,18.5878)' ><g font-size='3' font-style='normal' font-weight='normal' fill='#000000' font-family="'Droid Sans'" id='silkscreenLabel' fill-opacity='1' stroke='none' ><text x='0' y='2.25'>IC1</text></g></g></g><g partID='856079050' id='partLabel'><g transform='translate(65.6744,23.2582)' ><g font-size='3' font-style='normal' font-weight='normal' fill='#000000' font-family="'Droid Sans'" id='silkscreenLabel' fill-opacity='1' stroke='none' ><text x='0' y='2.25'>J4</text></g></g></g><g partID='856099080' id='partLabel'><g transform='translate(14.4817,33.263)' ><g font-size='3' font-style='normal' font-weight='normal' fill='#000000' font-family="'Droid Sans'" id='silkscreenLabel' fill-opacity='1' stroke='none' ><text x='0' y='2.25'>J5</text></g></g></g><g partID='856100260' id='partLabel'><g transform='translate(19.6358,53.8446)' ><g font-size='3' font-style='normal' font-weight='normal' fill='#000000' font-family="'Droid Sans'" id='silkscreenLabel' fill-opacity='1' stroke='none' ><text x='0' y='2.25'>R1</text></g></g></g><g partID='856103460' id='partLabel'><g transform='translate(64.7272,17.8622)' ><g font-size='3' font-style='normal' font-weight='normal' fill='#000000' font-family="'Droid Sans'" id='silkscreenLabel' fill-opacity='1' stroke='none' ><text x='0' y='2.25'>C1</text></g></g></g><g partID='856076220' id='partLabel'><g transform='translate(45.6104,13.1358)' ><g font-size='3' font-style='normal' font-weight='normal' fill='#000000' font-family="'Droid Sans'" id='silkscreenLabel' fill-opacity='1' stroke='none' ><text x='0' y='2.25'>J1</text></g></g></g><g partID='856084660' id='partLabel'><g transform='translate(21.2412,16.4614)' ><g font-size='3' font-style='normal' font-weight='normal' fill='#000000' font-family="'Droid Sans'" id='silkscreenLabel' fill-opacity='1' stroke='none' ><text x='0' y='2.25'>J2</text></g></g></g><g partID='856082900' id='partLabel'><g transform='translate(16.8662,58.8638)' ><g font-size='3' font-style='normal' font-weight='normal' fill='#000000' font-family="'Droid Sans'" id='silkscreenLabel' fill-opacity='1' stroke='none' ><text x='0' y='2.25'>J3</text></g></g></g></svg>